(footprint "DBP433TA30" (version 20211014) (generator pcbnew)
  (layer "F.Cu")
  (tedit 61E82161)
  (descr "Bandpass Filter, Fc: 433MHz BW: 10MHz, 50 Ohm, 10x7.5x3.7mm")
  (tags "Bandpass Filter")
  (attr smd)
  (fp_text reference "REF**" (at 0.01 6.02) (layer "F.SilkS")
    (effects (font (size 1 1) (thickness 0.15)))
    (tstamp ec49a61a-2f64-4afc-b251-723643378dd9)
  )
  (fp_text value "DBP433TA30" (at 0.02 -6.35) (layer "F.Fab")
    (effects (font (size 1 1) (thickness 0.15)))
    (tstamp cbbd2589-52bc-476f-8739-0314ca044a69)
  )
  (fp_text user "${REFERENCE}" (at 0.01 6.02) (layer "F.Fab")
    (effects (font (size 1 1) (thickness 0.15)))
    (tstamp 701287eb-695a-43cb-81be-385f984d4319)
  )
  (fp_line (start -4.23 -5.31) (end -2.96 -5.31) (layer "F.SilkS") (width 0.12) (tstamp 50b898f9-d0a5-49a9-b938-d25085035502))
  (fp_line (start -4.23 -4.07) (end -4.23 -5.31) (layer "F.SilkS") (width 0.12) (tstamp e8c8a77f-dc7a-4a66-b886-8d2c60f61a01))
  (fp_line (start 4 5.1) (end 4 -5.1) (layer "F.CrtYd") (width 0.05) (tstamp 3e817f95-5c41-4fb8-9cf6-d26aab3a8c44))
  (fp_line (start -4 5.1) (end 4 5.1) (layer "F.CrtYd") (width 0.05) (tstamp 6ffa7518-cf14-40f0-8ba9-819492a4cce4))
  (fp_line (start -4 5.1) (end -4 -5.1) (layer "F.CrtYd") (width 0.05) (tstamp 890b9820-6841-466b-9907-e8384dc077a8))
  (fp_line (start -4 -5.1) (end 4 -5.1) (layer "F.CrtYd") (width 0.05) (tstamp ce38dfde-1805-4e5a-9a03-88112d5f190f))
  (fp_line (start -3.725 5) (end 3.725 5) (layer "F.Fab") (width 0.1) (tstamp 52b6f662-1426-4c00-9a69-45f07431933b))
  (fp_line (start 3.725 5) (end 3.725 -5) (layer "F.Fab") (width 0.1) (tstamp 8a63a263-3ae4-42f5-8f22-709abd96eb9a))
  (fp_line (start 3.725 -5) (end -3.725 -5) (layer "F.Fab") (width 0.1) (tstamp ab47e014-8c47-46d3-a21c-0e4f9645e99c))
  (fp_line (start -3.725 -5) (end -3.725 5) (layer "F.Fab") (width 0.1) (tstamp de794410-4153-473a-b590-a46e82c4b13e))
  (pad "1" smd rect (at -3.475 -3.4) (size 2.1 1) (layers "F.Cu" "F.Paste" "F.Mask") (tstamp 1017cea2-9358-4046-9ffe-89b0fdb55221))
  (pad "2" smd rect (at 3.475 -3.4) (size 2.1 1) (layers "F.Cu" "F.Paste" "F.Mask") (tstamp 5fd6a20b-8b6a-4cda-b749-e9c00c18490d))
  (pad "3" smd rect (at -3.175 -0.4) (size 2.7 2.6) (layers "F.Cu" "F.Paste" "F.Mask") (tstamp 08232a4e-4f13-48dc-8dc9-11e4f1960e70))
  (pad "4" smd rect (at 3.175 -0.4) (size 2.7 2.6) (layers "F.Cu" "F.Paste" "F.Mask") (tstamp 48481dca-19e2-4ef7-8afd-e64dedad34b0))
  (pad "5" smd rect (at -3.175 2.6) (size 2.7 2.6) (layers "F.Cu" "F.Paste" "F.Mask") (tstamp 9a16a3c9-4d86-4aea-9ee4-3cac11a1136a))
  (pad "6" smd rect (at 3.175 2.6) (size 2.7 2.6) (layers "F.Cu" "F.Paste" "F.Mask") (tstamp d6243ef1-19e0-4d82-96d3-104f9dc0ed19))
  (model "${LSF_KICAD_LIB}/lsf-kicad-lib.3dshapes/DBP433TA30.wrl"
    (offset (xyz 0 0 0))
    (scale (xyz 1 1 1))
    (rotate (xyz 0 0 0))
  )
)
