(footprint "DFN-8-1EP_2x2mm_P0.5mm_EP0.7x1.6mm_ThermalVias" (version 20211014) (generator pcbnew)
  (layer "F.Cu")
  (tedit 61E9412E)
  (descr "DFN, 8 Pin (https://www.qorvo.com/products/d/da006538#page=9), generated with kicad-footprint-generator ipc_noLead_generator.py")
  (tags "DFN NoLead")
  (attr smd)
  (fp_text reference "REF**" (at 0 -1.95) (layer "F.SilkS")
    (effects (font (size 1 1) (thickness 0.15)))
    (tstamp ac148564-e0c9-4dad-8f33-a57e4dc2bbdc)
  )
  (fp_text value "DFN-8-1EP_2x2mm_P0.5mm_EP0.7x1.6mm_ThermalVias" (at 0 1.95) (layer "F.Fab")
    (effects (font (size 1 1) (thickness 0.15)))
    (tstamp 78498f3b-21a6-44e6-b719-329172e0a9a2)
  )
  (fp_text user "${REFERENCE}" (at 0 0) (layer "F.Fab")
    (effects (font (size 0.5 0.5) (thickness 0.08)))
    (tstamp 077623ac-c809-4f8c-bcf5-19121284b438)
  )
  (fp_line (start -1 1.11) (end 1 1.11) (layer "F.SilkS") (width 0.12) (tstamp 546e0cfb-9223-45dd-80d1-e38f736a123b))
  (fp_line (start 0 -1.11) (end 1 -1.11) (layer "F.SilkS") (width 0.12) (tstamp 5a0b6c57-629a-4665-b49b-f1ae17b2316c))
  (fp_line (start -1.6 -1.25) (end -1.6 1.25) (layer "F.CrtYd") (width 0.05) (tstamp 1222251d-8aa7-46fb-82ce-8386e0b62ef9))
  (fp_line (start 1.6 1.25) (end 1.6 -1.25) (layer "F.CrtYd") (width 0.05) (tstamp 1f101ac2-c7eb-4401-8493-5e7780830ce1))
  (fp_line (start -1.6 1.25) (end 1.6 1.25) (layer "F.CrtYd") (width 0.05) (tstamp 36cc14ae-bd63-4f63-9c2c-9f651f109d58))
  (fp_line (start 1.6 -1.25) (end -1.6 -1.25) (layer "F.CrtYd") (width 0.05) (tstamp 485b9006-7483-4128-a00c-6b34c9a39d9e))
  (fp_line (start -1 -0.5) (end -0.5 -1) (layer "F.Fab") (width 0.1) (tstamp 01f17e12-b9b2-4239-975e-3a2822e16ef4))
  (fp_line (start 1 1) (end -1 1) (layer "F.Fab") (width 0.1) (tstamp 3ac82608-6fbc-4830-bcc2-204262809764))
  (fp_line (start 1 -1) (end 1 1) (layer "F.Fab") (width 0.1) (tstamp 4219d18d-2984-42a1-a93b-7a5c52d9d633))
  (fp_line (start -1 1) (end -1 -0.5) (layer "F.Fab") (width 0.1) (tstamp b07c9611-c3a1-4798-ad85-139e22f6923e))
  (fp_line (start -0.5 -1) (end 1 -1) (layer "F.Fab") (width 0.1) (tstamp feaf1c8a-3a41-4932-a9d9-9d47beb1f478))
  (pad "" smd roundrect (at 0 -0.4) (size 0.56 0.64) (layers "F.Paste") (roundrect_rratio 0.25) (tstamp 1c36b142-4ffb-41a0-b749-07e3e0470ccd))
  (pad "" smd roundrect (at 0 0.4) (size 0.56 0.64) (layers "F.Paste") (roundrect_rratio 0.25) (tstamp f828a6d3-4386-4d37-87d5-748f3d8cf35f))
  (pad "1" smd roundrect (at -1 -0.75) (size 0.7 0.3) (layers "F.Cu" "F.Paste" "F.Mask") (roundrect_rratio 0.25) (tstamp 47bab2e0-dbbb-4578-a038-2adaa1e95cc6))
  (pad "2" smd roundrect (at -1 -0.25) (size 0.7 0.3) (layers "F.Cu" "F.Paste" "F.Mask") (roundrect_rratio 0.25) (tstamp 11262fab-bca5-4789-9aaa-6441f55b3085))
  (pad "3" smd roundrect (at -1 0.25) (size 0.7 0.3) (layers "F.Cu" "F.Paste" "F.Mask") (roundrect_rratio 0.25) (tstamp 9a947dc8-1f6d-4a7b-b627-92743d8030bd))
  (pad "4" smd roundrect (at -1 0.75) (size 0.7 0.3) (layers "F.Cu" "F.Paste" "F.Mask") (roundrect_rratio 0.25) (tstamp 858a4e52-91be-42ec-a1ab-7b131fec46d5))
  (pad "5" smd roundrect (at 1 0.75) (size 0.7 0.3) (layers "F.Cu" "F.Paste" "F.Mask") (roundrect_rratio 0.25) (tstamp c9300c73-14c7-44ea-8f4d-becb22e501e8))
  (pad "6" smd roundrect (at 1 0.25) (size 0.7 0.3) (layers "F.Cu" "F.Paste" "F.Mask") (roundrect_rratio 0.25) (tstamp 5f8cb698-29bf-4ebe-94cc-51f721da36e8))
  (pad "7" smd roundrect (at 1 -0.25) (size 0.7 0.3) (layers "F.Cu" "F.Paste" "F.Mask") (roundrect_rratio 0.25) (tstamp 9c4946b6-d91c-4888-b298-3c47d421470a))
  (pad "8" smd roundrect (at 1 -0.75) (size 0.7 0.3) (layers "F.Cu" "F.Paste" "F.Mask") (roundrect_rratio 0.25) (tstamp f61f4554-9c7b-41d3-9525-7d02963eb310))
  (pad "9" thru_hole circle (at 0 -0.633) (size 0.554 0.554) (drill 0.254) (property pad_prop_heatsink) (layers *.Cu) (tstamp 2e10688d-3c7c-4d8d-8645-7d3863f8a47d))
  (pad "9" thru_hole circle (at 0 0) (size 0.554 0.554) (drill 0.254) (property pad_prop_heatsink) (layers *.Cu) (tstamp 69bc78f7-3a00-48ba-8d81-853bb79a7a93))
  (pad "9" thru_hole circle (at 0 0.633) (size 0.554 0.554) (drill 0.254) (property pad_prop_heatsink) (layers *.Cu) (tstamp 72b04322-2acb-4b9e-abbe-b883b745374b))
  (pad "9" smd rect (at 0 0) (size 0.334 1.6) (layers "B.Cu") (tstamp c5f26acf-e91f-4c1d-9de2-f08f5d8d105a))
  (pad "9" smd rect (at 0 0) (size 0.7 1.6) (layers "F.Cu" "F.Mask") (tstamp cc4e60a4-ef6d-4bd3-8871-6fe191192eac))
  (model "${LSF_KICAD_LIB}/lsf-kicad-lib.3dshapes/DFN-8-1EP_2x2mm_P0.5mm_EP0.7x1.6mm.wrl"
    (offset (xyz 0 0 0))
    (scale (xyz 1 1 1))
    (rotate (xyz 0 0 0))
  )
)
