(footprint "hrs-df11-6dp-2ds" (version 20211014) (generator pcbnew)
  (layer "F.Cu")
  (tedit 6214C4D2)
  (descr "https://www.hirose.com/product/en/download_file/key_name/DF11-6DP-2DS%2824%29/category/Catalog/doc_file_id/31688/?file_category_id=5&item_id=05430534424&is_series=")
  (tags "Header")
  (attr through_hole)
  (fp_text reference "REF**" (at -2 -4.5) (layer "F.SilkS")
    (effects (font (size 1 1) (thickness 0.15)))
    (tstamp 30a25468-689e-4e3c-8db4-1875efe01f73)
  )
  (fp_text value "hrs-df11-6dp-2ds" (at -2 2.5) (layer "F.Fab")
    (effects (font (size 1 1) (thickness 0.15)))
    (tstamp 4a56f056-42bd-422f-9d3b-316edfabc7ae)
  )
  (fp_text user "${REFERENCE}" (at -2 -4.5) (layer "F.Fab")
    (effects (font (size 1 1) (thickness 0.15)))
    (tstamp 572129a2-85f7-4567-ad0a-7b213a092e9f)
  )
  (fp_line (start 0.8 -7.8) (end 0.8 -9.7) (layer "F.SilkS") (width 0.12) (tstamp 001fa47b-559f-4d0c-939e-562b7f5322b0))
  (fp_line (start -5.1 -1) (end 1.1 -1) (layer "F.SilkS") (width 0.12) (tstamp 15981c18-21b7-452a-8329-24ab94d92dc2))
  (fp_line (start -6 0.7) (end -5.1 0.7) (layer "F.SilkS") (width 0.12) (tstamp 1f3f5051-54ed-4a92-9366-9d3118d9bd42))
  (fp_line (start 2 0.7) (end 1.1 0.7) (layer "F.SilkS") (width 0.12) (tstamp 20757241-c200-44f5-b676-c0d5b74b0fd2))
  (fp_line (start -4.8 -7.8) (end 0.8 -7.8) (layer "F.SilkS") (width 0.12) (tstamp 542f2fe7-36f8-45c7-8432-9a7de606683e))
  (fp_line (start 1.1 0.7) (end 1.1 -1) (layer "F.SilkS") (width 0.12) (tstamp 61e16b4b-f7f6-44b5-87e5-269551a1a179))
  (fp_line (start -6 -9.7) (end -4.8 -9.7) (layer "F.SilkS") (width 0.12) (tstamp 73180a56-2672-4873-ac32-4d78593d0b41))
  (fp_line (start -6 0.7) (end -6 -9.7) (layer "F.SilkS") (width 0.12) (tstamp 9d1195e7-b261-454b-adda-ebadc83ded0a))
  (fp_line (start 0.8 -9.7) (end 2 -9.7) (layer "F.SilkS") (width 0.12) (tstamp ac24d92f-2143-439d-9c1f-490601e0c25e))
  (fp_line (start 2 -9.7) (end 2 0.7) (layer "F.SilkS") (width 0.12) (tstamp be2d361d-acb4-4bad-9f7b-86ee11b4123d))
  (fp_line (start -4.8 -9.7) (end -4.8 -7.8) (layer "F.SilkS") (width 0.12) (tstamp d528a6c8-4e4a-429b-bfbc-97a2f32fb433))
  (fp_line (start -5.1 0.7) (end -5.1 -1) (layer "F.SilkS") (width 0.12) (tstamp f72b8827-031d-4a57-a8b6-acb48145de4b))
  (fp_line (start -6.1 0.8) (end 2.1 0.8) (layer "F.CrtYd") (width 0.05) (tstamp 8224c86a-0779-401f-8add-9c4fd5451b35))
  (fp_line (start 2.1 -9.8) (end -6.1 -9.8) (layer "F.CrtYd") (width 0.05) (tstamp 98ae6cdd-416e-4242-93f2-62e13fe3c45a))
  (fp_line (start -6.1 -9.8) (end -6.1 0.8) (layer "F.CrtYd") (width 0.05) (tstamp a659f8e4-3c60-4251-be36-9b5974413068))
  (fp_line (start 2.1 0.8) (end 2.1 -9.8) (layer "F.CrtYd") (width 0.05) (tstamp b56e4111-f675-448d-820f-09ef4a581b97))
  (fp_line (start -4.8 -9.7) (end -4.8 -7.8) (layer "F.Fab") (width 0.1) (tstamp 087bedf7-5522-46d8-95ce-d4650f417381))
  (fp_line (start -6 -9.7) (end -4.8 -9.7) (layer "F.Fab") (width 0.1) (tstamp 259ec27a-a3bf-4b51-97c2-652f2211abfa))
  (fp_line (start -4.8 -7.8) (end 0.8 -7.8) (layer "F.Fab") (width 0.1) (tstamp 49c14889-c150-495f-b7a6-f9c71facd846))
  (fp_line (start -6 0.7) (end -6 -9.7) (layer "F.Fab") (width 0.1) (tstamp 7ce7e3eb-099e-467f-96e6-6cd4d4df3b17))
  (fp_line (start -5.1 0.7) (end -5.1 -1) (layer "F.Fab") (width 0.1) (tstamp 7cfcee62-60b9-4725-822b-e0535be498b8))
  (fp_line (start 0.8 -7.8) (end 0.8 -9.7) (layer "F.Fab") (width 0.1) (tstamp 80252b92-5444-4601-88d9-fbc3cbf819b4))
  (fp_line (start 2 0.7) (end 1.1 0.7) (layer "F.Fab") (width 0.1) (tstamp b54f7270-0930-4f7b-8c62-046795a81e86))
  (fp_line (start 1.1 0.7) (end 1.1 -1) (layer "F.Fab") (width 0.1) (tstamp d5255fda-cd31-4af7-908f-2a8e446915b2))
  (fp_line (start -6 0.7) (end -5.1 0.7) (layer "F.Fab") (width 0.1) (tstamp d7c04411-c672-4306-add0-efa1c5bf76c9))
  (fp_line (start 2 -9.7) (end 2 0.7) (layer "F.Fab") (width 0.1) (tstamp e5b62b75-20f5-4dd0-8882-303cab01c708))
  (fp_line (start -5.1 -1) (end 1.1 -1) (layer "F.Fab") (width 0.1) (tstamp e946fde4-e74a-4ff0-a4e6-b9a987c388ff))
  (fp_line (start 0.8 -9.7) (end 2 -9.7) (layer "F.Fab") (width 0.1) (tstamp f44b4289-48db-411f-8abb-d20174b009c9))
  (pad "1" thru_hole rect (at 0 0) (size 1.3 1.3) (drill 0.8) (layers *.Cu *.Mask) (tstamp a99a507f-18c5-41ce-aced-6ff7dd8075dd))
  (pad "2" thru_hole circle (at 0 -2) (size 1.3 1.3) (drill 0.8) (layers *.Cu *.Mask) (tstamp bedb016f-38ad-4d61-a030-e877e6dca240))
  (pad "3" thru_hole circle (at -2 0) (size 1.3 1.3) (drill 0.8) (layers *.Cu *.Mask) (tstamp 1ed37ac9-8fb3-450f-9c51-6b638757498d))
  (pad "4" thru_hole circle (at -2 -2) (size 1.3 1.3) (drill 0.8) (layers *.Cu *.Mask) (tstamp 1433f86b-34ec-4e19-985b-557233898517))
  (pad "5" thru_hole circle (at -4 0) (size 1.3 1.3) (drill 0.8) (layers *.Cu *.Mask) (tstamp 3a0ddae5-b2f9-41a4-a087-35da154d7a0d))
  (pad "6" thru_hole circle (at -4 -2) (size 1.3 1.3) (drill 0.8) (layers *.Cu *.Mask) (tstamp ad5ae164-7fee-4ffd-9ba3-f6182eb9ccb6))
  (model "${LSF_KICAD_LIB}/lsf-kicad-lib.3dshapes/hrs-df11-6dp-2ds.wrl"
    (offset (xyz 0 0 0))
    (scale (xyz 1 1 1))
    (rotate (xyz 0 0 0))
  )
)
