(module LOGO-Built_in_HSGR (layer F.Cu) (tedit 5DF4CBCC)
  (descr "Built in hackerspace.gr logo")
  (tags "LOGO hackerspace HSGR")
  (attr virtual)
  (fp_text reference REF** (at 0 0.5) (layer F.SilkS) hide
    (effects (font (size 1 1) (thickness 0.15)))
  )
  (fp_text value LOGO-Built_in_HSGR (at 0 -0.5) (layer F.Fab) hide
    (effects (font (size 1 1) (thickness 0.15)))
  )
  (fp_text user "Built in" (at 0 -7.5) (layer F.SilkS)
    (effects (font (size 1 1) (thickness 0.15)))
  )
  (fp_text user hackerspace.gr (at 0 4) (layer F.SilkS)
    (effects (font (size 1 1) (thickness 0.15)))
  )
  (fp_line (start -4 3) (end -4 -4) (layer F.SilkS) (width 1))
  (fp_line (start 4 3) (end 4 -4) (layer F.SilkS) (width 1))
  (fp_line (start -6 -3) (end 0 -6) (layer F.SilkS) (width 1))
  (fp_line (start 0 -6) (end 6 -3) (layer F.SilkS) (width 1))
  (fp_line (start -2.5 -2) (end -1 -1) (layer F.SilkS) (width 0.6))
  (fp_line (start -1 -1) (end -2.5 0) (layer F.SilkS) (width 0.6))
  (fp_line (start 0 1) (end 2.5 1) (layer F.SilkS) (width 0.6))
)
