(footprint "Maxim_T833-2_TDFN-8-1EP_3x3mm_P0.65mm_EP1.5x2.3mm" (version 20211014) (generator pcbnew)
  (layer "F.Cu")
  (tedit 61E82015)
  (descr "Maxim T833-2 TDFN, 8 Pin (https://pdfserv.maximintegrated.com/package_dwgs/21-0137.PDF), generated with kicad-footprint-generator ipc_noLead_generator.py")
  (tags "Maxim TDFN NoLead")
  (attr smd)
  (fp_text reference "REF**" (at 0 -2.45) (layer "F.SilkS")
    (effects (font (size 1 1) (thickness 0.15)))
    (tstamp 403cc0be-ab0c-4361-ba6c-e7dc40cf4943)
  )
  (fp_text value "Maxim_T833-2_TDFN-8-1EP_3x3mm_P0.65mm_EP1.5x2.3mm" (at 0 2.45) (layer "F.Fab")
    (effects (font (size 1 1) (thickness 0.15)))
    (tstamp f96ba518-ad70-401e-aef2-ad49e4591c6d)
  )
  (fp_text user "${REFERENCE}" (at 0 0) (layer "F.Fab")
    (effects (font (size 0.75 0.75) (thickness 0.11)))
    (tstamp b8314ecb-e205-45c6-99cb-7f7af4a81810)
  )
  (fp_line (start 0 -1.61) (end 1.5 -1.61) (layer "F.SilkS") (width 0.12) (tstamp 040cfef8-23cc-45f3-90fe-a2b139340934))
  (fp_line (start -1.5 1.61) (end 1.5 1.61) (layer "F.SilkS") (width 0.12) (tstamp 88b90ae0-0711-4701-b5a7-055e71a62136))
  (fp_line (start 2.1 -1.75) (end -2.1 -1.75) (layer "F.CrtYd") (width 0.05) (tstamp 131ecf9c-485f-43d7-b146-9a1dda9f37f5))
  (fp_line (start -2.1 -1.75) (end -2.1 1.75) (layer "F.CrtYd") (width 0.05) (tstamp 50905330-27b4-4c13-9792-7c599c11c539))
  (fp_line (start -2.1 1.75) (end 2.1 1.75) (layer "F.CrtYd") (width 0.05) (tstamp 5eefeb90-2dcb-4e54-984e-fc9895ec503f))
  (fp_line (start 2.1 1.75) (end 2.1 -1.75) (layer "F.CrtYd") (width 0.05) (tstamp e95b0422-50da-4c3d-b2ad-5ccf1de7c687))
  (fp_line (start -1.5 -0.75) (end -0.75 -1.5) (layer "F.Fab") (width 0.1) (tstamp 02145005-0133-4ed3-acef-6804aab53cff))
  (fp_line (start -0.75 -1.5) (end 1.5 -1.5) (layer "F.Fab") (width 0.1) (tstamp 17720068-c660-40fc-96da-1b5362d472a6))
  (fp_line (start -1.5 1.5) (end -1.5 -0.75) (layer "F.Fab") (width 0.1) (tstamp 42252f16-a07e-4427-b701-488b35b4b1cc))
  (fp_line (start 1.5 1.5) (end -1.5 1.5) (layer "F.Fab") (width 0.1) (tstamp e6a1d9dd-4a6f-478c-9bba-fec1ab028c20))
  (fp_line (start 1.5 -1.5) (end 1.5 1.5) (layer "F.Fab") (width 0.1) (tstamp e8d3a128-71ea-47f0-8dc6-b53cc9aa7b4e))
  (pad "" smd roundrect (at -0.375 0.575) (size 0.6 0.93) (layers "F.Paste") (roundrect_rratio 0.25) (tstamp 9067749c-c698-475f-807d-86b1f9e6715f))
  (pad "" smd roundrect (at 0.375 -0.575) (size 0.6 0.93) (layers "F.Paste") (roundrect_rratio 0.25) (tstamp a0f49a24-1f44-41aa-a7a6-a250c51277f9))
  (pad "" smd roundrect (at 0.375 0.575) (size 0.6 0.93) (layers "F.Paste") (roundrect_rratio 0.25) (tstamp e364cddc-d3f2-47b1-9e46-c06f71e8789a))
  (pad "" smd roundrect (at -0.375 -0.575) (size 0.6 0.93) (layers "F.Paste") (roundrect_rratio 0.25) (tstamp f84e3d64-292c-4ebb-9de3-230f752ebd46))
  (pad "1" smd roundrect (at -1.5 -0.975) (size 0.7 0.3) (layers "F.Cu" "F.Paste" "F.Mask") (roundrect_rratio 0.25) (tstamp cd586052-3991-4e98-959d-b1dd55a4df71))
  (pad "2" smd roundrect (at -1.5 -0.325) (size 0.7 0.3) (layers "F.Cu" "F.Paste" "F.Mask") (roundrect_rratio 0.25) (tstamp e5133bb1-1414-461b-aa19-e1d8173ac8c6))
  (pad "3" smd roundrect (at -1.5 0.325) (size 0.7 0.3) (layers "F.Cu" "F.Paste" "F.Mask") (roundrect_rratio 0.25) (tstamp c0629038-e9f7-410b-9f57-84a98c903161))
  (pad "4" smd roundrect (at -1.5 0.975) (size 0.7 0.3) (layers "F.Cu" "F.Paste" "F.Mask") (roundrect_rratio 0.25) (tstamp b9afb376-7919-4313-81e4-36f4279847ca))
  (pad "5" smd roundrect (at 1.5 0.975) (size 0.7 0.3) (layers "F.Cu" "F.Paste" "F.Mask") (roundrect_rratio 0.25) (tstamp da5632f4-7d62-44f4-9577-621b37b313b1))
  (pad "6" smd roundrect (at 1.5 0.325) (size 0.7 0.3) (layers "F.Cu" "F.Paste" "F.Mask") (roundrect_rratio 0.25) (tstamp 732fca14-4c00-4669-a0be-2efa79cdd839))
  (pad "7" smd roundrect (at 1.5 -0.325) (size 0.7 0.3) (layers "F.Cu" "F.Paste" "F.Mask") (roundrect_rratio 0.25) (tstamp 278c22af-71ad-4392-a80d-3df4f04fa8e7))
  (pad "8" smd roundrect (at 1.5 -0.975) (size 0.7 0.3) (layers "F.Cu" "F.Paste" "F.Mask") (roundrect_rratio 0.25) (tstamp ddb40408-5680-4ef7-937a-203573633908))
  (pad "9" smd rect (at 0 0) (size 1.5 2.3) (layers "F.Cu" "F.Mask") (tstamp 71cd1c79-abb9-4429-871a-b4ef4ed4d037))
  (model "${LSF_KICAD_LIB}/lsf-kicad-lib.3dshapes/Maxim_T833-2_TDFN-8-1EP_3x3mm_P0.65mm_EP1.5x2.3mm.wrl"
    (offset (xyz 0 0 0))
    (scale (xyz 1 1 1))
    (rotate (xyz 0 0 0))
  )
)
