(footprint "MLP-8" (version 20211014) (generator pcbnew)
  (layer "F.Cu")
  (tedit 61E82003)
  (descr "http://www.not2fast.com/electronics/component_docs/dims/8mlp_dim.pdf")
  (tags "Micro Lead Package")
  (attr smd)
  (fp_text reference "REF**" (at -2.4854 0 90) (layer "F.SilkS")
    (effects (font (size 1 1) (thickness 0.15)))
    (tstamp 5dce7d55-92a3-462d-a13d-b75d1b67839a)
  )
  (fp_text value "MLP-8" (at -0.0254 -3.3274) (layer "F.Fab")
    (effects (font (size 1 1) (thickness 0.15)))
    (tstamp 3d5d2239-4948-49ef-986d-4f4a3f9f74a5)
  )
  (fp_text user "${REFERENCE}" (at -0.0254 0) (layer "F.Fab")
    (effects (font (size 1 1) (thickness 0.15)))
    (tstamp f4808f8c-8f22-4ca2-8201-f4583689a51e)
  )
  (fp_line (start 1.4346 -1.9) (end 1.4346 1.9) (layer "F.SilkS") (width 0.12) (tstamp 2773553f-301d-44d5-bde0-4029a4c130ec))
  (fp_line (start -1.4854 1.1) (end -1.4854 -1.9) (layer "F.SilkS") (width 0.12) (tstamp 40b15767-5fd6-4982-9b4c-344a2ce684da))
  (fp_line (start 1.4346 1.9) (end -0.6854 1.9) (layer "F.SilkS") (width 0.12) (tstamp 5d8ae48f-0ce3-4774-9ea5-d56304abffa9))
  (fp_line (start -1.4854 -1.9) (end 1.4346 -1.9) (layer "F.SilkS") (width 0.12) (tstamp a69f479b-9e0e-48a2-9434-52fc9a9578e2))
  (fp_line (start 1.27 1.63) (end -1.24 1.63) (layer "F.CrtYd") (width 0.05) (tstamp 2d37c9a2-24e5-4877-9b94-41884c2df2bd))
  (fp_line (start -1.24 1.63) (end -1.24 -1.63) (layer "F.CrtYd") (width 0.05) (tstamp 905e4491-8244-40e0-acd2-7115d10819aa))
  (fp_line (start 1.27 -1.63) (end 1.27 1.63) (layer "F.CrtYd") (width 0.05) (tstamp dcb11a44-0d76-4f5d-b3cf-d6e902e58fd5))
  (fp_line (start -1.24 -1.63) (end 1.27 -1.63) (layer "F.CrtYd") (width 0.05) (tstamp eb9642bf-ec5c-4630-a80d-ccd7bbc65fca))
  (fp_line (start 1.3081 -1.778) (end 1.3081 1.778) (layer "F.Fab") (width 0.1) (tstamp 59fe5834-efcc-417d-82d1-30157f3ac4a2))
  (fp_line (start -1.3589 1.0795) (end -1.3589 -1.778) (layer "F.Fab") (width 0.1) (tstamp 662af75d-8b10-4182-9c67-39b2ab20b9cc))
  (fp_line (start -1.3589 -1.778) (end 1.3081 -1.778) (layer "F.Fab") (width 0.1) (tstamp 730f2c55-2187-4d1e-9253-0bb8f5633f0f))
  (fp_line (start -0.6604 1.778) (end -1.3589 1.0795) (layer "F.Fab") (width 0.1) (tstamp 8ca82b73-7cb1-439d-ae06-ec6c3033d745))
  (fp_line (start 1.3081 1.778) (end -0.6604 1.778) (layer "F.Fab") (width 0.1) (tstamp 9b3b639b-e6b0-4196-92ca-4ab27e6fee4f))
  (pad "1" smd rect (at -1.0004 1.37) (size 0.47 0.56) (layers "F.Cu" "F.Paste" "F.Mask") (tstamp 304fa068-0552-4df9-9113-47b0eb6b16ab))
  (pad "2" smd rect (at -0.3504 1.37) (size 0.47 0.56) (layers "F.Cu" "F.Paste" "F.Mask") (tstamp c9d1b185-a93d-411a-9a54-1de36656268f))
  (pad "3" smd rect (at 0.2996 1.37) (size 0.47 0.56) (layers "F.Cu" "F.Paste" "F.Mask") (tstamp 3581e42d-514e-4ed3-9adc-05cade9227d5))
  (pad "4" smd rect (at 0.9496 1.37) (size 0.47 0.56) (layers "F.Cu" "F.Paste" "F.Mask") (tstamp ff144cc5-435b-472d-a7f1-e5e36edcaaa4))
  (pad "5" smd rect (at 0.9496 -1.37) (size 0.47 0.56) (layers "F.Cu" "F.Paste" "F.Mask") (tstamp 300eed52-c382-4621-94d0-ecad5e0c6d0a))
  (pad "6" smd rect (at 0.2996 -1.37) (size 0.47 0.56) (layers "F.Cu" "F.Paste" "F.Mask") (tstamp 89d0ba5b-97a1-4a0e-a032-94e4c5d245f0))
  (pad "7" smd rect (at -0.3504 -1.37) (size 0.47 0.56) (layers "F.Cu" "F.Paste" "F.Mask") (tstamp 04233293-dd7d-4cd7-a345-80b19d93cb8e))
  (pad "8" smd rect (at -1.0004 -1.37) (size 0.47 0.56) (layers "F.Cu" "F.Paste" "F.Mask") (tstamp 4f679144-3cb6-4e40-adec-1fdc03c9422e))
  (pad "9" thru_hole circle (at 0.5334 0) (size 1 1) (drill 0.2) (layers *.Cu *.Mask) (tstamp 4da2ca1f-787c-453c-91d6-bfa8db84b4bb))
  (pad "9" thru_hole circle (at -0.5334 0) (size 1 1) (drill 0.2) (layers *.Cu *.Mask) (tstamp 570f78ac-0303-48fb-841b-b47ebe48c463))
  (pad "9" smd rect (at 0 0) (size 2.52 1.7) (layers "F.Cu" "F.Paste" "F.Mask") (tstamp 8c642ec4-8ac9-471c-a357-f4d7a88401a9))
  (model "${LSF_KICAD_LIB}/lsf-kicad-lib.3dshapes/MLP-8.wrl"
    (offset (xyz 0 0 0))
    (scale (xyz 1 1 1))
    (rotate (xyz 0 0 0))
  )
)
