(footprint "Oscillator_SMD_EST_TXO_2520_4PIN_2X2.5mm" (version 20211014) (generator pcbnew)
  (layer "F.Cu")
  (tedit 6217587A)
  (descr "The sub miniature  SMD HCMOS TCXO")
  (tags "TCXO 4-pin")
  (attr smd)
  (fp_text reference "REF**" (at 0.03 -2.62 unlocked) (layer "F.SilkS")
    (effects (font (size 1 1) (thickness 0.15)))
    (tstamp 0739b70c-3339-45d7-8a45-0821d5e2748c)
  )
  (fp_text value "Oscillator_SMD_EST_TXO_2520_4PIN_2X2.5mm" (at 0.42 2.72 unlocked) (layer "F.Fab")
    (effects (font (size 1 1) (thickness 0.15)))
    (tstamp 5561d679-c855-4803-88a3-fef2c4c0fe64)
  )
  (fp_text user "${REFERENCE}" (at 3.04 0.11 unlocked) (layer "F.Fab")
    (effects (font (size 0.5 0.5) (thickness 0.075)))
    (tstamp 30a2e38e-fb0a-4375-abb9-727e6262c82d)
  )
  (fp_line (start -1.7 1.02) (end -1.7 -1.5) (layer "F.SilkS") (width 0.12) (tstamp 05e5a9a1-e096-48c6-8445-73a4e8069f23))
  (fp_line (start -1.7 1.02) (end -1.24 1.5) (layer "F.SilkS") (width 0.12) (tstamp 1f33ad42-df70-494e-be8e-32ff78176dc8))
  (fp_line (start 1.7 1.5) (end -1.22 1.5) (layer "F.SilkS") (width 0.12) (tstamp 32718dbb-f07c-46fd-b1aa-043ffbe27706))
  (fp_line (start 1.7 -1.5) (end 1.7 1.5) (layer "F.SilkS") (width 0.12) (tstamp 7cf41db5-75f1-4e31-961a-60ec391e6571))
  (fp_line (start -1.7 -1.5) (end 1.7 -1.5) (layer "F.SilkS") (width 0.12) (tstamp d190e4d0-6886-4ec4-9e32-1cf7fd5c50d8))
  (fp_rect (start -1.5 -1.3) (end 1.5 1.3) (layer "F.CrtYd") (width 0.05) (fill none) (tstamp 1a521180-118e-4136-a0c8-41cb2924ef07))
  (fp_rect (start 1.7 -1.5) (end -1.7 1.5) (layer "F.Fab") (width 0.1) (fill none) (tstamp 84a999af-0021-42d0-90ef-70cce90b30da))
  (pad "1" smd trapezoid (at -0.925 0.725) (size 0.9 0.8) (layers "F.Cu" "F.Paste" "F.Mask") (tstamp ec99fc86-0e9a-4075-8162-59cddfdf832b))
  (pad "2" smd trapezoid (at 0.925 0.725) (size 0.9 0.8) (layers "F.Cu" "F.Paste" "F.Mask") (tstamp a222b58a-5a99-49fe-9cb2-ef7227684852))
  (pad "3" smd trapezoid (at 0.925 -0.725) (size 0.9 0.8) (layers "F.Cu" "F.Paste" "F.Mask") (tstamp 97672c19-464b-416f-8cfe-47f9859f22c3))
  (pad "4" smd trapezoid (at -0.925 -0.725) (size 0.9 0.8) (layers "F.Cu" "F.Paste" "F.Mask") (tstamp f136e638-c4f0-4d0e-af01-8b16b63a608e))
  (model "${LSF_KICAD_LIB}/lsf-kicad-lib.3dshapes/Oscillator_SMD_EST_TXO_2520_4PIN_2X2.5mm.wrl"
    (offset (xyz 0 0 0))
    (scale (xyz 1 1 1))
    (rotate (xyz 0 0 0))
  )
)
