(footprint "Oscillator_SMD_ECS_TXO-2016-xx-xxx-4Pin_2x1.6mm" (version 20211014) (generator pcbnew)
  (layer "F.Cu")
  (tedit 62026B3A)
  (descr " 2.0 x 1.6 x 0.8 mm ceramic package")
  (tags "TCXO 4-pin")
  (attr smd)
  (fp_text reference "REF**" (at 0 -2.5 180) (layer "F.SilkS")
    (effects (font (size 1 1) (thickness 0.15)))
    (tstamp b85869fd-3f8d-422a-b5de-7f57eb714581)
  )
  (fp_text value "Oscillator_SMD_ECS_TXO-2016-xx-xxx-4Pin_2x1.6mm" (at 0 2.5) (layer "F.Fab")
    (effects (font (size 1 1) (thickness 0.15)))
    (tstamp e11de650-11c5-484b-80b7-ba63fe8368c2)
  )
  (fp_text user "${REFERENCE}" (at 0 0) (layer "F.Fab")
    (effects (font (size 0.5 0.5) (thickness 0.075)))
    (tstamp ce7cb119-1df8-42ef-b2f2-2dae443be651)
  )
  (fp_line (start -0.55 -1.55) (end 1.35 -1.55) (layer "F.SilkS") (width 0.12) (tstamp 366b4e95-01fd-42ef-a705-8f901032e0c6))
  (fp_line (start -1.35 -0.75) (end -0.55 -1.55) (layer "F.SilkS") (width 0.12) (tstamp 4fd135f0-38be-402a-9bc7-59f09498eddd))
  (fp_line (start -1.35 1.55) (end -1.35 -0.75) (layer "F.SilkS") (width 0.12) (tstamp 5c505fae-f86b-4b4e-b3b1-bc8caf13434c))
  (fp_line (start 1.35 -1.55) (end 1.35 1.55) (layer "F.SilkS") (width 0.12) (tstamp b70ee907-cf21-473a-a117-f0e6125e9266))
  (fp_line (start 1.35 1.55) (end -1.35 1.55) (layer "F.SilkS") (width 0.12) (tstamp cad4e114-9203-4328-8dcf-7351fcdffc49))
  (fp_line (start 1.1 1.3) (end -1.1 1.3) (layer "F.CrtYd") (width 0.05) (tstamp 2d479655-f2fd-4e9d-a47d-36d6f43651e4))
  (fp_line (start 1.1 -1.3) (end 1.1 1.3) (layer "F.CrtYd") (width 0.05) (tstamp 2f0d7c37-b4d0-43a6-97dc-e87abc2138a9))
  (fp_line (start -1.1 1.3) (end -1.1 -1.3) (layer "F.CrtYd") (width 0.05) (tstamp 9873d4e8-f130-477c-a049-12b4d89a71a9))
  (fp_line (start -1.1 -1.3) (end 1.1 -1.3) (layer "F.CrtYd") (width 0.05) (tstamp fffe3434-641a-4c4b-ba3e-1b5c572968fb))
  (fp_line (start 1.3 -1.5) (end 1.3 1.45) (layer "F.Fab") (width 0.1) (tstamp 1fa165bc-1cbc-4e30-a7f1-86a9722acefc))
  (fp_line (start 1.3 1.45) (end -1.3 1.45) (layer "F.Fab") (width 0.1) (tstamp 98431e52-cda3-49a2-8321-cc1b0505f1ba))
  (fp_line (start -1.3 -1.5) (end 1.3 -1.5) (layer "F.Fab") (width 0.1) (tstamp a28edf0a-2d60-4a00-99ab-2b8ee5ecec0f))
  (fp_line (start -1.3 1.45) (end -1.3 -1.5) (layer "F.Fab") (width 0.1) (tstamp f945c6a8-73eb-4b86-bc81-a51c4cae9f7e))
  (pad "1" smd rect (at -0.5 -0.65 270) (size 0.8 0.7) (layers "F.Cu" "F.Paste" "F.Mask") (tstamp 774ad50e-b079-42dc-98f1-1bd73c95a1b0))
  (pad "2" smd rect (at -0.5 0.65 270) (size 0.8 0.7) (layers "F.Cu" "F.Paste" "F.Mask") (tstamp 3c130d64-9137-4c65-8366-1112524f50cc))
  (pad "3" smd rect (at 0.5 0.65 270) (size 0.8 0.7) (layers "F.Cu" "F.Paste" "F.Mask") (tstamp 878113aa-0285-4794-ba20-d5189f5521ea))
  (pad "4" smd rect (at 0.5 -0.65 270) (size 0.8 0.7) (layers "F.Cu" "F.Paste" "F.Mask") (tstamp b0c02527-2836-4e82-9d17-5de6f1a2009d))
  (model "${LSF_KICAD_LIB}/lsf-kicad-lib.3dshapes/Oscillator_SMD_ECS_TXO-2016-xx-xxx-4Pin_2x1.6mm.wrl"
    (offset (xyz 0 0 0))
    (scale (xyz 1 1 1))
    (rotate (xyz 0 0 0))
  )
)
