(footprint "QFN-44_10x10_Pitch0.8mm_LGA-69" (version 20211014) (generator pcbnew)
  (layer "F.Cu")
  (tedit 61E81EC7)
  (descr "VENUS838FLPx Footprint")
  (tags "QFN-44 LGA-69")
  (attr smd)
  (fp_text reference "REF**" (at 0 -6.6) (layer "F.SilkS")
    (effects (font (size 1 1) (thickness 0.15)))
    (tstamp 59885fbd-9866-47f4-888d-9cf27bcffe04)
  )
  (fp_text value "QFN-44_10x10_Pitch0.8mm_LGA-69" (at 0 6.6) (layer "F.Fab")
    (effects (font (size 1 1) (thickness 0.15)))
    (tstamp 1826b2cb-18b7-45db-a41b-bf429957bf54)
  )
  (fp_text user "${REFERENCE}" (at 0 0) (layer "F.Fab")
    (effects (font (size 1 1) (thickness 0.15)))
    (tstamp 054098ff-400b-4457-b57b-06529669971f)
  )
  (fp_line (start -5.15 5.15) (end -5.15 4.8) (layer "F.SilkS") (width 0.12) (tstamp 23ab1735-8f4f-4475-97c9-0cd199d9c1a4))
  (fp_line (start -4.8 5.15) (end -5.15 5.15) (layer "F.SilkS") (width 0.12) (tstamp 2a24f27e-b86f-4072-85a5-bdece584e2a8))
  (fp_line (start 4.8 5.15) (end 5.15 5.15) (layer "F.SilkS") (width 0.12) (tstamp 681878bd-7442-46e0-8a3f-0eadcbead32a))
  (fp_line (start 5.15 -5.15) (end 5.15 -4.8) (layer "F.SilkS") (width 0.12) (tstamp 6c8f3b89-b294-4ac3-9131-6e988637a519))
  (fp_line (start 4.8 -5.15) (end 5.15 -5.15) (layer "F.SilkS") (width 0.12) (tstamp 7d497abc-6edf-462f-9bf1-19933495352f))
  (fp_line (start -4.8 -5.15) (end -5.35 -5.15) (layer "F.SilkS") (width 0.12) (tstamp 8a886577-f7da-4fd1-a679-d33988c4b8ea))
  (fp_line (start 5.15 5.15) (end 5.15 4.8) (layer "F.SilkS") (width 0.12) (tstamp a07e62dd-aca4-4519-b06c-fd210759f6ec))
  (fp_line (start -5.6 5.6) (end -5.6 -5.6) (layer "F.CrtYd") (width 0.05) (tstamp 15c63e93-2f54-4f9e-b747-c0907bc057e1))
  (fp_line (start -5.6 -5.6) (end 5.6 -5.6) (layer "F.CrtYd") (width 0.05) (tstamp 4998a818-87de-4d3f-9def-0b9107b3ba77))
  (fp_line (start 5.6 -5.6) (end 5.6 5.6) (layer "F.CrtYd") (width 0.05) (tstamp 6276917b-1c04-401a-9462-adb252ad25f2))
  (fp_line (start 5.6 5.6) (end -5.6 5.6) (layer "F.CrtYd") (width 0.05) (tstamp c0b60105-dabe-4326-958a-5db70c941d2b))
  (fp_line (start 5 -5) (end -4 -5) (layer "F.Fab") (width 0.1) (tstamp 7b84ccdd-d69f-4f8e-8f5f-c7228a3b968b))
  (fp_line (start 5 5) (end 5 -5) (layer "F.Fab") (width 0.1) (tstamp 9fb914bf-ae00-4d8e-9f8c-385006d65575))
  (fp_line (start -5 -4) (end -5 5) (layer "F.Fab") (width 0.1) (tstamp d61b15b9-b074-4141-a2ce-0a1343478ca4))
  (fp_line (start -4 -5) (end -5 -4) (layer "F.Fab") (width 0.1) (tstamp fa68f4ce-6070-4bc3-9036-4fbcdc86d398))
  (fp_line (start -5 5) (end 5 5) (layer "F.Fab") (width 0.1) (tstamp fbbeccaa-dbb2-4c2a-b8a4-e86d35e60154))
  (pad "1" smd rect (at -4.73 -4 90) (size 0.36 0.7) (layers "F.Cu" "F.Paste" "F.Mask") (tstamp 339b77fe-16f3-43b4-8399-7230a8ae2102))
  (pad "2" smd rect (at -4.73 -3.2 90) (size 0.36 0.7) (layers "F.Cu" "F.Paste" "F.Mask") (tstamp 0bf07a61-a239-4acf-856e-fba25f207a84))
  (pad "3" smd rect (at -4.73 -2.4 90) (size 0.36 0.7) (layers "F.Cu" "F.Paste" "F.Mask") (tstamp a00c5020-aad7-491c-83e9-65be8877304b))
  (pad "4" smd rect (at -4.73 -1.6 90) (size 0.36 0.7) (layers "F.Cu" "F.Paste" "F.Mask") (tstamp 74d3c7c8-07df-4eb4-a4c0-dc027191019b))
  (pad "5" smd rect (at -4.73 -0.8 90) (size 0.36 0.7) (layers "F.Cu" "F.Paste" "F.Mask") (tstamp 5c54fdce-28e8-4f72-bb25-0bf3b6f09690))
  (pad "6" smd rect (at -4.73 0 90) (size 0.36 0.7) (layers "F.Cu" "F.Paste" "F.Mask") (tstamp d9fc8576-4810-4f73-b459-4abb235b90fe))
  (pad "7" smd rect (at -4.73 0.8 90) (size 0.36 0.7) (layers "F.Cu" "F.Paste" "F.Mask") (tstamp 18398d4d-eaad-41d2-ab8c-cf0dd656a4de))
  (pad "8" smd rect (at -4.73 1.6 90) (size 0.36 0.7) (layers "F.Cu" "F.Paste" "F.Mask") (tstamp 6af062e1-0169-4405-9a0a-4a9da1581e6a))
  (pad "9" smd rect (at -4.73 2.4 90) (size 0.36 0.7) (layers "F.Cu" "F.Paste" "F.Mask") (tstamp c955e000-0267-4ba1-b792-a1f68a336cde))
  (pad "10" smd rect (at -4.73 3.2 90) (size 0.36 0.7) (layers "F.Cu" "F.Paste" "F.Mask") (tstamp 697602a5-614a-4354-9314-267df5fc4571))
  (pad "11" smd rect (at -4.73 4 90) (size 0.36 0.7) (layers "F.Cu" "F.Paste" "F.Mask") (tstamp 10fcbf2d-6552-4910-ae9e-906304f0e093))
  (pad "12" smd rect (at -4 4.73) (size 0.36 0.7) (layers "F.Cu" "F.Paste" "F.Mask") (tstamp 2d38429c-e76f-4ac3-a609-eca610b831a6))
  (pad "13" smd rect (at -3.2 4.73) (size 0.36 0.7) (layers "F.Cu" "F.Paste" "F.Mask") (tstamp 3d4971da-7f68-4ffd-a47d-f57af641478c))
  (pad "14" smd rect (at -2.4 4.73) (size 0.36 0.7) (layers "F.Cu" "F.Paste" "F.Mask") (tstamp 2338658c-a171-455d-ad40-3e03c5e2e649))
  (pad "15" smd rect (at -1.6 4.73) (size 0.36 0.7) (layers "F.Cu" "F.Paste" "F.Mask") (tstamp 5349dbfc-1197-4fd1-baa3-9509e2eb1877))
  (pad "16" smd rect (at -0.8 4.73) (size 0.36 0.7) (layers "F.Cu" "F.Paste" "F.Mask") (tstamp b5a7b331-0ea6-4406-9acc-d4705a05fbe6))
  (pad "17" smd rect (at 0 4.73) (size 0.36 0.7) (layers "F.Cu" "F.Paste" "F.Mask") (tstamp 07fc543e-ebc7-4da4-ab80-a5a9d1298f42))
  (pad "18" smd rect (at 0.8 4.73) (size 0.36 0.7) (layers "F.Cu" "F.Paste" "F.Mask") (tstamp 6d421685-6187-4a3c-8570-78b8305b32fe))
  (pad "19" smd rect (at 1.6 4.73) (size 0.36 0.7) (layers "F.Cu" "F.Paste" "F.Mask") (tstamp a283df1a-c852-4e3f-9b54-5d33582cdb9f))
  (pad "20" smd rect (at 2.4 4.73) (size 0.36 0.7) (layers "F.Cu" "F.Paste" "F.Mask") (tstamp 52f36df2-cb97-45c3-a7ed-09f3d5c1571b))
  (pad "21" smd rect (at 3.2 4.73) (size 0.36 0.7) (layers "F.Cu" "F.Paste" "F.Mask") (tstamp e0ffc4a5-acee-444d-9091-cb09a2fd596a))
  (pad "22" smd rect (at 4 4.73) (size 0.36 0.7) (layers "F.Cu" "F.Paste" "F.Mask") (tstamp f134941f-402d-4f04-97df-414bfbe64c0c))
  (pad "23" smd rect (at 4.73 4 90) (size 0.36 0.7) (layers "F.Cu" "F.Paste" "F.Mask") (tstamp fdf155ae-2657-450d-a1b7-efa45b1ac51f))
  (pad "24" smd rect (at 4.73 3.2 90) (size 0.36 0.7) (layers "F.Cu" "F.Paste" "F.Mask") (tstamp 25d00930-baeb-451c-9ea4-b36a16bc4d6f))
  (pad "25" smd rect (at 4.73 2.4 90) (size 0.36 0.7) (layers "F.Cu" "F.Paste" "F.Mask") (tstamp 17f647c8-76b0-46a1-b425-bf1c6c8e9d71))
  (pad "26" smd rect (at 4.73 1.6 90) (size 0.36 0.7) (layers "F.Cu" "F.Paste" "F.Mask") (tstamp 1f37ef69-5e6e-4bfc-bf75-b2c6fa771a9b))
  (pad "27" smd rect (at 4.73 0.8 90) (size 0.36 0.7) (layers "F.Cu" "F.Paste" "F.Mask") (tstamp 6b396c70-f728-455a-acfe-72630436df78))
  (pad "28" smd rect (at 4.73 0 90) (size 0.36 0.7) (layers "F.Cu" "F.Paste" "F.Mask") (tstamp bd01c40c-5ab3-46ee-87b2-c01646d2007d))
  (pad "29" smd rect (at 4.73 -0.8 90) (size 0.36 0.7) (layers "F.Cu" "F.Paste" "F.Mask") (tstamp fd496716-3ee4-4f51-b46a-e62c536de56e))
  (pad "30" smd rect (at 4.73 -1.6 90) (size 0.36 0.7) (layers "F.Cu" "F.Paste" "F.Mask") (tstamp ad0f749d-04a6-4ddb-979f-58a8f8614e09))
  (pad "31" smd rect (at 4.73 -2.4 90) (size 0.36 0.7) (layers "F.Cu" "F.Paste" "F.Mask") (tstamp 3427d123-61e2-4c57-80e1-efb5d2751d47))
  (pad "32" smd rect (at 4.73 -3.2 90) (size 0.36 0.7) (layers "F.Cu" "F.Paste" "F.Mask") (tstamp 4539a4f9-1e6e-4c0b-9734-0327c3aeffef))
  (pad "33" smd rect (at 4.73 -4 90) (size 0.36 0.7) (layers "F.Cu" "F.Paste" "F.Mask") (tstamp 8d88c617-677f-46fb-938d-423a2df51bc8))
  (pad "34" smd rect (at 4 -4.73) (size 0.36 0.7) (layers "F.Cu" "F.Paste" "F.Mask") (tstamp b216ad16-521f-4f0d-ba53-19b52694bf50))
  (pad "35" smd rect (at 3.2 -4.73) (size 0.36 0.7) (layers "F.Cu" "F.Paste" "F.Mask") (tstamp 73569cf8-2981-4ec0-b25a-07657f41239e))
  (pad "36" smd rect (at 2.4 -4.73) (size 0.36 0.7) (layers "F.Cu" "F.Paste" "F.Mask") (tstamp 7d3c5f71-5fb8-4d99-b909-7ad0ec52881e))
  (pad "37" smd rect (at 1.6 -4.73) (size 0.36 0.7) (layers "F.Cu" "F.Paste" "F.Mask") (tstamp 7eb525f4-c9fd-4c61-9b22-fdd518f97c1c))
  (pad "38" smd rect (at 0.8 -4.73) (size 0.36 0.7) (layers "F.Cu" "F.Paste" "F.Mask") (tstamp f126f849-b553-44f4-9081-fcd205cfb0ba))
  (pad "39" smd rect (at 0 -4.73) (size 0.36 0.7) (layers "F.Cu" "F.Paste" "F.Mask") (tstamp 5a9579fe-9d03-4a30-8059-20bc2ac34b9c))
  (pad "40" smd rect (at -0.8 -4.73) (size 0.36 0.7) (layers "F.Cu" "F.Paste" "F.Mask") (tstamp f4d58334-a1a1-432d-b25d-57b7919add89))
  (pad "41" smd rect (at -1.6 -4.73) (size 0.36 0.7) (layers "F.Cu" "F.Paste" "F.Mask") (tstamp 47aec22b-82e9-4b91-989d-e048280cce6f))
  (pad "42" smd rect (at -2.4 -4.73) (size 0.36 0.7) (layers "F.Cu" "F.Paste" "F.Mask") (tstamp 08dd1632-dd4d-4b4d-96ad-bb15c3dcc294))
  (pad "43" smd rect (at -3.2 -4.73) (size 0.36 0.7) (layers "F.Cu" "F.Paste" "F.Mask") (tstamp 5160573f-2fea-4874-8a6a-69330c6a53cd))
  (pad "44" smd rect (at -4 -4.73) (size 0.36 0.7) (layers "F.Cu" "F.Paste" "F.Mask") (tstamp dbd1ea47-d5d5-4683-a876-5af48b8e32c4))
  (pad "45" smd circle (at -3 -3) (size 0.6 0.6) (layers "F.Cu" "F.Paste" "F.Mask") (tstamp 3e9c2571-1039-411b-9957-3a08dc07182c))
  (pad "46" smd circle (at -3 -1.5) (size 0.6 0.6) (layers "F.Cu" "F.Paste" "F.Mask") (tstamp 45f10d9c-279a-4bce-afad-06d5afeb6101))
  (pad "47" smd circle (at -3 0) (size 0.6 0.6) (layers "F.Cu" "F.Paste" "F.Mask") (tstamp dd0e28f2-524a-4643-b2cd-dc65e16e902c))
  (pad "48" smd circle (at -3 1.5) (size 0.6 0.6) (layers "F.Cu" "F.Paste" "F.Mask") (tstamp 3e56d761-a063-4515-b302-333c40809018))
  (pad "49" smd circle (at -3 3) (size 0.6 0.6) (layers "F.Cu" "F.Paste" "F.Mask") (tstamp 1061cfff-d117-4958-9e71-272bc4c4ea64))
  (pad "50" smd circle (at -1.5 -3) (size 0.6 0.6) (layers "F.Cu" "F.Paste" "F.Mask") (tstamp 597ec85b-7796-48f7-a308-d5e0b863c3fa))
  (pad "51" smd circle (at -1.5 -1.5) (size 0.6 0.6) (layers "F.Cu" "F.Paste" "F.Mask") (tstamp 56b789df-97a6-4458-8ca2-cdb67c0cadfa))
  (pad "52" smd circle (at -1.5 0) (size 0.6 0.6) (layers "F.Cu" "F.Paste" "F.Mask") (tstamp e2d83c5e-523a-4f60-994e-3139c5df75a4))
  (pad "53" smd circle (at -1.5 1.5) (size 0.6 0.6) (layers "F.Cu" "F.Paste" "F.Mask") (tstamp 3373e7c4-8107-4ecf-8322-70fe3fda1a7e))
  (pad "54" smd circle (at -1.5 3) (size 0.6 0.6) (layers "F.Cu" "F.Paste" "F.Mask") (tstamp 79182a58-76fc-4e26-aa73-bab841dd1efd))
  (pad "55" smd circle (at 0 -3) (size 0.6 0.6) (layers "F.Cu" "F.Paste" "F.Mask") (tstamp 36926dd4-ab6f-482d-93ca-aae04e3cbd0c))
  (pad "56" smd circle (at 0 -1.5) (size 0.6 0.6) (layers "F.Cu" "F.Paste" "F.Mask") (tstamp a05b76ca-8029-49f1-a9a9-cbd19a9b4838))
  (pad "57" smd circle (at 0 0) (size 0.6 0.6) (layers "F.Cu" "F.Paste" "F.Mask") (tstamp e3152540-a3ad-427b-b5cb-d5bfefb3baf5))
  (pad "58" smd circle (at 0 1.5) (size 0.6 0.6) (layers "F.Cu" "F.Paste" "F.Mask") (tstamp e60ec8e9-c11a-4d07-a53e-68fc4019fa8c))
  (pad "59" smd circle (at 0 3) (size 0.6 0.6) (layers "F.Cu" "F.Paste" "F.Mask") (tstamp 46ea209d-aecd-47f0-b5ea-7244a713c432))
  (pad "60" smd circle (at 1.5 -3) (size 0.6 0.6) (layers "F.Cu" "F.Paste" "F.Mask") (tstamp d5f2851e-5241-40c3-a2e9-10ff76010112))
  (pad "61" smd circle (at 1.5 -1.5) (size 0.6 0.6) (layers "F.Cu" "F.Paste" "F.Mask") (tstamp 94016ea5-da75-42ae-82a9-9e2bdd0f6515))
  (pad "62" smd circle (at 1.5 0) (size 0.6 0.6) (layers "F.Cu" "F.Paste" "F.Mask") (tstamp 2ed70f90-3c21-4a83-be26-05ab3be8c30d))
  (pad "63" smd circle (at 1.5 1.5) (size 0.6 0.6) (layers "F.Cu" "F.Paste" "F.Mask") (tstamp 6f36f228-e9ce-4da4-89de-5e166a1b6751))
  (pad "64" smd circle (at 1.5 3) (size 0.6 0.6) (layers "F.Cu" "F.Paste" "F.Mask") (tstamp 13af2fdf-347d-40cf-868d-93f5387c0630))
  (pad "65" smd circle (at 3 -3) (size 0.6 0.6) (layers "F.Cu" "F.Paste" "F.Mask") (tstamp 6661abe7-fd59-48d0-82db-46d056aeabed))
  (pad "66" smd circle (at 3 -1.5) (size 0.6 0.6) (layers "F.Cu" "F.Paste" "F.Mask") (tstamp e9a8ef34-756e-4c0b-aea4-dbc813c3e56e))
  (pad "67" smd circle (at 3 0) (size 0.6 0.6) (layers "F.Cu" "F.Paste" "F.Mask") (tstamp f4637c51-6268-4f94-945f-5479a98221cd))
  (pad "68" smd circle (at 3 1.5) (size 0.6 0.6) (layers "F.Cu" "F.Paste" "F.Mask") (tstamp 16d4b549-ea00-47f8-9841-ff6b5b6e61e7))
  (pad "69" smd circle (at 3 3) (size 0.6 0.6) (layers "F.Cu" "F.Paste" "F.Mask") (tstamp 660650c9-1c04-4c5c-af17-5567fdf55868))
  (model "${LSF_KICAD_LIB}/lsf-kicad-lib.3dshapes/QFN-44_10x10_Pitch0.8mm_LGA-69.wrl"
    (offset (xyz 0 0 0))
    (scale (xyz 1 1 1))
    (rotate (xyz 0 0 0))
  )
)
