(footprint "SATA-3M-5607-5102-SH" (version 20211014) (generator pcbnew)
  (layer "F.Cu")
  (tedit 6214C61A)
  (descr "Through hole SATA connector vertical, 3M")
  (tags "3M SATA")
  (attr through_hole)
  (fp_text reference "REF**" (at -3.81 -5.2) (layer "F.SilkS")
    (effects (font (size 1 1) (thickness 0.15)))
    (tstamp 08bcc013-3933-4eab-84c4-09c05a675df4)
  )
  (fp_text value "SATA-3M-5607-5102-SH" (at -4.318 3.556) (layer "F.Fab")
    (effects (font (size 1 1) (thickness 0.15)))
    (tstamp 2aadfdd8-1984-4693-8cb1-a61f7b14a2c8)
  )
  (fp_text user "${REFERENCE}" (at -3.81 -0.85) (layer "F.Fab")
    (effects (font (size 1 1) (thickness 0.15)))
    (tstamp 338c6ac0-f2c3-4a0a-a0e6-9ea545e9911f)
  )
  (fp_line (start 3.6 -4.4) (end 3.6 -2.6) (layer "F.SilkS") (width 0.12) (tstamp 2675bf3a-c68a-485d-958a-a8a2b8ce6078))
  (fp_line (start -12.4 -4.4) (end 3.6 -4.4) (layer "F.SilkS") (width 0.12) (tstamp 2881c9bf-c6a6-48b0-8225-2400640ef062))
  (fp_line (start 4.8 1.8) (end -12.4 1.8) (layer "F.SilkS") (width 0.12) (tstamp 54f3530c-9278-4ca4-aea8-212638ccd768))
  (fp_line (start 3.6 -2.6) (end 4.8 -2.6) (layer "F.SilkS") (width 0.12) (tstamp 67009629-4f71-4eb1-bad5-1ede5eb86e4a))
  (fp_line (start 4.8 -2.6) (end 4.8 1.8) (layer "F.SilkS") (width 0.12) (tstamp 74b948d0-2cf7-4648-945f-ab67292554cf))
  (fp_line (start -12.4 1.8) (end -12.4 -4.4) (layer "F.SilkS") (width 0.12) (tstamp e23e2b1d-05cc-43ac-b87d-2ed84039ad46))
  (fp_line (start -12.4 -4.4) (end 4.8 -4.4) (layer "F.CrtYd") (width 0.05) (tstamp 535d921e-d3f3-4b1a-97c8-f9abd992b034))
  (fp_line (start -12.4 -4.4) (end -12.4 1.8) (layer "F.CrtYd") (width 0.05) (tstamp 53e97bc0-6a06-4b27-9aba-1507f754b1f8))
  (fp_line (start 4.8 1.8) (end 4.8 -4.4) (layer "F.CrtYd") (width 0.05) (tstamp af8c0644-86ac-404b-9e52-e7767f7a90f4))
  (fp_line (start 4.8 1.8) (end -12.4 1.8) (layer "F.CrtYd") (width 0.05) (tstamp e738e7d5-66a3-4e13-95d3-6dec1280c3a2))
  (fp_line (start 4.8 1.8) (end -12.4 1.8) (layer "F.Fab") (width 0.1) (tstamp 13e04b7b-1fc6-449e-8304-71293ef40ae7))
  (fp_line (start 4.8 -2.6) (end 4.8 1.8) (layer "F.Fab") (width 0.1) (tstamp 1a34c71b-b8e4-48c0-bef1-1f70d4f55f50))
  (fp_line (start 3.6 -2.6) (end 3.6 -4.4) (layer "F.Fab") (width 0.1) (tstamp 2a997a4e-f27d-4157-a2fa-dfb64c2cb319))
  (fp_line (start -12.4 -4.4) (end 3.6 -4.4) (layer "F.Fab") (width 0.1) (tstamp bae7dcf1-7f8c-4739-b76d-179463191772))
  (fp_line (start 4.8 -2.6) (end 3.6 -2.6) (layer "F.Fab") (width 0.1) (tstamp c1b84b1e-b2a8-4ea6-99f1-edb8f6f40438))
  (fp_line (start -12.4 1.8) (end -12.4 -4.4) (layer "F.Fab") (width 0.1) (tstamp f208f33e-ff74-4f1d-a2c7-bc368f9dd76f))
  (pad "" np_thru_hole circle (at -10.29 -0.5 180) (size 3 3) (drill 1.35) (layers *.Cu *.Mask) (tstamp 28756484-e35f-44c2-b791-6452c5cfd2da))
  (pad "" np_thru_hole circle (at 2.67 -0.5 180) (size 3 3) (drill 1.35) (layers *.Cu *.Mask) (tstamp ba8b253c-444a-4056-a9b2-5cc34a56eed9))
  (pad "1" thru_hole rect (at 0 0 180) (size 1 1) (drill 0.5) (layers *.Cu *.Mask) (tstamp a9dace51-90c0-4606-9ec8-923d12c74440))
  (pad "2" thru_hole circle (at -1.27 -1 180) (size 1 1) (drill 0.5) (layers *.Cu *.Mask) (tstamp 47560c28-ccc0-4b1e-b37e-d5c6d7b01a2e))
  (pad "3" thru_hole circle (at -2.54 -1 180) (size 1 1) (drill 0.5) (layers *.Cu *.Mask) (tstamp 6594115a-21b6-413f-801e-adb4749242c2))
  (pad "4" thru_hole circle (at -3.81 0 180) (size 1 1) (drill 0.5) (layers *.Cu *.Mask) (tstamp 686c4996-1d2a-47e9-a839-62e434ab4300))
  (pad "5" thru_hole circle (at -5.08 -1 180) (size 1 1) (drill 0.5) (layers *.Cu *.Mask) (tstamp ba691319-14b2-44da-ac4d-e59489b24279))
  (pad "6" thru_hole circle (at -6.35 -1 180) (size 1 1) (drill 0.5) (layers *.Cu *.Mask) (tstamp c43806cd-6d68-46e5-8fb6-4bc0b1377970))
  (pad "7" thru_hole circle (at -7.62 0 180) (size 1 1) (drill 0.5) (layers *.Cu *.Mask) (tstamp da616252-b6e9-4750-ab3e-a3c7284e39fb))
  (model "${LSF_KICAD_LIB}/lsf-kicad-lib.3dshapes/SATA-3M-5607-5102-SH.wrl"
    (offset (xyz 0 0 0))
    (scale (xyz 1 1 1))
    (rotate (xyz 0 0 0))
  )
)
