(footprint "Texas_DSBGA-6_0.7x1.1mm_Layout2x3_P0.4mm" (version 20211014) (generator pcbnew)
  (layer "F.Cu")
  (tedit 623383EB)
  (descr "Texas Instruments, DSBGA, 0.7x1.1mm, 6 bump 2x3 (perimeter) array, NSMD pad definition (https://www.ti.com/lit/ds/symlink/tps22950.pdf)")
  (tags "Texas Instruments DSBGA BGA YBH0006-C02")
  (solder_mask_margin 0.05)
  (attr smd)
  (fp_text reference "REF**" (at 1.51 -2.76) (layer "F.SilkS")
    (effects (font (size 1 1) (thickness 0.15)))
    (tstamp 41aef88d-53bc-46cf-9cd4-8c1b5a7fe15a)
  )
  (fp_text value "Texas_DSBGA-6_0.7x1.1mm_Layout2x3_P0.4mm" (at 0 2) (layer "F.Fab")
    (effects (font (size 1 1) (thickness 0.15)))
    (tstamp 88cc16fd-4c7d-486b-8325-98236d0038e7)
  )
  (fp_text user "${REFERENCE}" (at 0 0 90) (layer "F.Fab")
    (effects (font (size 0.5 0.5) (thickness 0.05)))
    (tstamp a056a72f-aef5-4310-be65-2b32d48651b8)
  )
  (fp_line (start 0.55 -0.8) (end 0.55 0.8) (layer "F.SilkS") (width 0.12) (tstamp 1113359a-5ee4-48b8-87d2-d12ff1b3aadd))
  (fp_line (start -0.55 -0.8) (end -0.55 0.8) (layer "F.SilkS") (width 0.12) (tstamp 5d32706b-2a22-46db-a307-78f9fc89541e))
  (fp_line (start 0.55 -0.8) (end -0.55 -0.8) (layer "F.SilkS") (width 0.12) (tstamp 630029bb-7fe7-4886-a33d-d728428b5989))
  (fp_line (start -0.75 -1.05) (end -0.75 -0.3) (layer "F.SilkS") (width 0.12) (tstamp 7195d504-1f51-409c-a1bd-bf811237f6c7))
  (fp_line (start 0 -1.05) (end -0.75 -1.05) (layer "F.SilkS") (width 0.12) (tstamp 7a348ae4-e2c3-4869-91bf-1ff0143a849b))
  (fp_line (start -0.55 0.8) (end 0.55 0.8) (layer "F.SilkS") (width 0.12) (tstamp e098667b-d642-4d02-8201-897d1884be90))
  (fp_line (start -1 -1.2) (end 1 -1.2) (layer "F.CrtYd") (width 0.05) (tstamp 0957a269-3dbc-4bac-8c76-e5dd4c4addbf))
  (fp_line (start -1 -1.2) (end -1 1.2) (layer "F.CrtYd") (width 0.05) (tstamp 4b7bb00a-9326-408c-afc3-07c29b9e59b7))
  (fp_line (start 1 1.2) (end 1 -1.2) (layer "F.CrtYd") (width 0.05) (tstamp 6b8fe823-17f1-45ec-acdf-295c209301cd))
  (fp_line (start 1 1.2) (end -1 1.2) (layer "F.CrtYd") (width 0.05) (tstamp df982b1e-c948-4fac-985c-8d7eb71e4612))
  (fp_line (start 0.4 -0.6) (end -0.27 -0.6) (layer "F.Fab") (width 0.1) (tstamp 3bba5abe-b091-4063-95ca-93214fbab9d0))
  (fp_line (start 0.4 0.6) (end 0.4 -0.6) (layer "F.Fab") (width 0.1) (tstamp 3dd550f0-4882-42e4-a8f9-2af590449adc))
  (fp_line (start -0.4 0.6) (end 0.4 0.6) (layer "F.Fab") (width 0.1) (tstamp 41f13bbf-9a74-42c5-9375-00a8c64b18f5))
  (fp_line (start -0.4 -0.47) (end -0.27 -0.6) (layer "F.Fab") (width 0.1) (tstamp 8a576ddc-11b0-4450-842b-c992e7f1e34a))
  (fp_line (start -0.4 -0.47) (end -0.4 0.6) (layer "F.Fab") (width 0.1) (tstamp cf5539ad-ecbd-44e7-b7f1-3cf622c54fe4))
  (pad "" smd roundrect (at -0.2 -0.4) (size 0.21 0.21) (layers "F.Paste") (roundrect_rratio 0.2380952381) (tstamp 1010c7d7-97d6-421e-8649-c625a15f6e32))
  (pad "" smd roundrect (at -0.2 0.4) (size 0.21 0.21) (layers "F.Paste") (roundrect_rratio 0.2380952381) (tstamp 12165162-3e0d-4578-805b-7ffae2d79254))
  (pad "" smd roundrect (at 0.2 0.4) (size 0.21 0.21) (layers "F.Paste") (roundrect_rratio 0.2380952381) (tstamp 83de3c16-ac35-422c-ab09-99312ccded5f))
  (pad "" smd roundrect (at 0.2 -0.4) (size 0.21 0.21) (layers "F.Paste") (roundrect_rratio 0.2380952381) (tstamp 94c407d0-00da-4f90-a1aa-830fe802376a))
  (pad "" smd roundrect (at 0.2 0) (size 0.21 0.21) (layers "F.Paste") (roundrect_rratio 0.2380952381) (tstamp bcc14482-51c7-4eca-8b3c-1136e261d39f))
  (pad "" smd roundrect (at -0.2 0) (size 0.21 0.21) (layers "F.Paste") (roundrect_rratio 0.2380952381) (tstamp bce27af9-f7f1-4c40-9f44-57fa16b553c6))
  (pad "A1" smd circle (at -0.2 -0.4) (size 0.2 0.2) (property pad_prop_bga) (layers "F.Cu" "F.Mask") (tstamp bc683ad6-dc0b-4971-88b0-33adfb765c5f))
  (pad "A2" smd circle (at 0.2 -0.4) (size 0.2 0.2) (property pad_prop_bga) (layers "F.Cu" "F.Mask") (tstamp 879d7124-2768-491f-ad1b-c9a755e5c9c9))
  (pad "B1" smd circle (at -0.2 0) (size 0.2 0.2) (property pad_prop_bga) (layers "F.Cu" "F.Mask") (tstamp 4502807a-6f03-456a-a1ef-dfe6db881860))
  (pad "B2" smd circle (at 0.2 0) (size 0.2 0.2) (property pad_prop_bga) (layers "F.Cu" "F.Mask") (tstamp c158f826-83bf-410b-a2ae-e3c98453e0fc))
  (pad "C1" smd circle (at -0.2 0.4) (size 0.2 0.2) (property pad_prop_bga) (layers "F.Cu" "F.Mask") (tstamp a78220b9-c022-4147-9552-e9605e54399f))
  (pad "C2" smd circle (at 0.2 0.4) (size 0.2 0.2) (property pad_prop_bga) (layers "F.Cu" "F.Mask") (tstamp 1b2d5839-eff7-47d1-828e-ea9c8dcdde24))
  (model "${LSF_KICAD_LIB}/lsf-kicad-lib.3dshapes/Texas_DSBGA-6_0.7x1.1mm_Layout2x3_P0.4mm.wrl"
    (offset (xyz 0 0 0))
    (scale (xyz 1 1 1))
    (rotate (xyz 0 0 0))
  )
)
