(footprint "VQFN-15_2.5x3_Pitch0.5mm" (version 20211014) (generator pcbnew)
  (layer "F.Cu")
  (tedit 61E6CE09)
  (descr "http://www.ti.com/lit/ds/symlink/tps63070.pdf")
  (tags "VQFN")
  (attr smd)
  (fp_text reference "REF**" (at -0.025 -2.8) (layer "F.SilkS")
    (effects (font (size 1 1) (thickness 0.15)))
    (tstamp 30ab36d6-6793-4309-8b6d-9eee2cb9296b)
  )
  (fp_text value "VQFN-15_2.5x3_Pitch0.5mm" (at -0.025 2.8) (layer "F.Fab")
    (effects (font (size 1 1) (thickness 0.15)))
    (tstamp 3e33015e-b90f-4b45-9c5b-9002dada0fa0)
  )
  (fp_text user "${REFERENCE}" (at -0.025 0) (layer "F.Fab")
    (effects (font (size 1 1) (thickness 0.15)))
    (tstamp 8242660e-d64c-4c04-b14d-ba12fd7770fb)
  )
  (fp_line (start -1.275 1.65) (end -1.425 1.65) (layer "F.SilkS") (width 0.12) (tstamp 08574bd3-2af6-48d8-bf52-b9aa52397704))
  (fp_line (start 1.375 1.65) (end 1.375 1.25) (layer "F.SilkS") (width 0.12) (tstamp 252e1c49-e49e-48a7-97ad-5a688f3f98da))
  (fp_line (start -1.275 -1.65) (end -1.575 -1.65) (layer "F.SilkS") (width 0.12) (tstamp 585ebf39-e230-4be3-80a4-22bb1e847fb5))
  (fp_line (start -1.425 1.65) (end -1.425 1.25) (layer "F.SilkS") (width 0.12) (tstamp 7cac5df8-3692-4952-91c7-6026308f0d1c))
  (fp_line (start 1.375 -1.65) (end 1.375 -1.25) (layer "F.SilkS") (width 0.12) (tstamp 85cf8fb6-2db6-4aaf-a7f6-2f7eb6029760))
  (fp_line (start 1.225 -1.65) (end 1.375 -1.65) (layer "F.SilkS") (width 0.12) (tstamp 8daa907d-ecd2-415e-a59f-9db7fb754d2a))
  (fp_line (start 1.225 1.65) (end 1.375 1.65) (layer "F.SilkS") (width 0.12) (tstamp a0c56bf3-7f58-4169-93a0-ba27f31ea731))
  (fp_line (start -1.83 2.05) (end -1.83 -2.05) (layer "F.CrtYd") (width 0.05) (tstamp 2e9a3c87-cd8f-4ff7-aee6-bd7ed9e20deb))
  (fp_line (start -1.83 -2.05) (end 1.78 -2.05) (layer "F.CrtYd") (width 0.05) (tstamp 2eddf4c3-1d3a-4ca1-ba4a-f1e8e14048b0))
  (fp_line (start 1.78 -2.05) (end 1.78 2.05) (layer "F.CrtYd") (width 0.05) (tstamp 52167de0-468c-43da-aecc-3b1773ea3e60))
  (fp_line (start 1.78 2.05) (end -1.83 2.05) (layer "F.CrtYd") (width 0.05) (tstamp 865a7ec4-77ce-4102-bfbb-b6467143abfe))
  (fp_line (start -1.275 -0.5) (end -1.275 1.5) (layer "F.Fab") (width 0.1) (tstamp 02f8a974-43c9-4ab3-a396-cd66926279b3))
  (fp_line (start -0.275 -1.5) (end -1.275 -0.5) (layer "F.Fab") (width 0.1) (tstamp 38ca18ae-73b2-4720-873f-603f8196ecc8))
  (fp_line (start 1.225 1.5) (end 1.225 -1.5) (layer "F.Fab") (width 0.1) (tstamp 5f7d7f0a-d99b-4c0d-937e-ce943cc542c4))
  (fp_line (start 1.225 -1.5) (end -0.275 -1.5) (layer "F.Fab") (width 0.1) (tstamp 9387540f-b97c-4eb4-97d0-40c3cd38364d))
  (fp_line (start -1.275 1.5) (end 1.225 1.5) (layer "F.Fab") (width 0.1) (tstamp b0711666-2cdf-4614-9cbf-27b3ee690f00))
  (pad "" smd roundrect (at 0.313 0.5 90) (size 0.25 0.575) (layers "F.Paste") (roundrect_rratio 0.25) (tstamp 0b4f9b3f-0055-4499-86b4-4232390e3761))
  (pad "" smd roundrect (at 1.138 0.5 90) (size 0.25 0.575) (layers "F.Paste") (roundrect_rratio 0.25) (tstamp 2a9f3f4e-85b3-496c-848f-6829be7caab6))
  (pad "" smd roundrect (at 1.138 -0.5 90) (size 0.25 0.575) (layers "F.Paste") (roundrect_rratio 0.25) (tstamp 42f7e0bf-518d-420d-9da8-c7b7946a249f))
  (pad "" smd roundrect (at 0.115 0 90) (size 0.25 0.72) (layers "F.Paste") (roundrect_rratio 0.25) (tstamp 770fc9a0-de1e-4a82-b26a-c14a99df830e))
  (pad "" smd roundrect (at 0.313 -0.5 90) (size 0.25 0.575) (layers "F.Paste") (roundrect_rratio 0.25) (tstamp 965c64ee-a4ff-491b-9ba3-add043d0e860))
  (pad "" smd roundrect (at 1.035 0.008 90) (size 0.25 0.72) (layers "F.Paste") (roundrect_rratio 0.25) (tstamp e919b687-2b98-4a07-8199-1881bd8858b0))
  (pad "1" smd roundrect (at -1.175 -0.75 90) (size 0.25 0.6) (layers "F.Cu" "F.Paste" "F.Mask") (roundrect_rratio 0.25) (tstamp 3986632b-3aca-4d0f-865a-9c9cdf86e80e))
  (pad "2" smd roundrect (at -1.175 -0.25 90) (size 0.25 0.6) (layers "F.Cu" "F.Paste" "F.Mask") (roundrect_rratio 0.25) (tstamp b71e8ad5-6fdb-497d-9b84-0121539bc31c))
  (pad "3" smd roundrect (at -1.175 0.25 90) (size 0.25 0.6) (layers "F.Cu" "F.Paste" "F.Mask") (roundrect_rratio 0.25) (tstamp 295812a5-0ebb-4c15-b13b-a283e26d2f3e))
  (pad "4" smd roundrect (at -1.175 0.75 90) (size 0.25 0.6) (layers "F.Cu" "F.Paste" "F.Mask") (roundrect_rratio 0.25) (tstamp 4d38fce6-7f4d-406b-934a-63a4ee43e071))
  (pad "5" smd roundrect (at -0.775 1.4) (size 0.25 0.6) (layers "F.Cu" "F.Paste" "F.Mask") (roundrect_rratio 0.25) (tstamp ed157a0c-36df-41e5-8673-e46f302d3ed5))
  (pad "6" smd roundrect (at -0.275 1.4) (size 0.25 0.6) (layers "F.Cu" "F.Paste" "F.Mask") (roundrect_rratio 0.25) (tstamp 4610dc5e-17d6-49d8-84ec-3ae983364fa5))
  (pad "7" smd roundrect (at 0.47538 1.22588 90) (size 0.35 0.85) (layers "F.Cu" "F.Paste" "F.Mask") (roundrect_rratio 0.25)
    (solder_mask_margin -0.05) (solder_paste_margin -0.05) (clearance 0.0001) (tstamp 13128240-0469-4b27-a50c-fdbb70b701d9))
  (pad "7" smd roundrect (at 0.225 1.4) (size 0.35 0.7) (layers "F.Cu" "F.Paste" "F.Mask") (roundrect_rratio 0.25)
    (solder_mask_margin -0.05) (solder_paste_margin -0.05) (clearance 0.15) (tstamp a3361deb-70df-4c28-b3c0-e319d24af93d))
  (pad "7" smd roundrect (at 0.725 1.4) (size 0.35 0.7) (layers "F.Cu" "F.Paste" "F.Mask") (roundrect_rratio 0.25)
    (solder_mask_margin -0.05) (solder_paste_margin -0.05) (clearance 0.15) (tstamp aa9d6635-fae9-48bc-b235-10ef6d8f50c6))
  (pad "9" smd roundrect (at 0.75 0.5 90) (size 0.35 1.45) (layers "F.Cu" "F.Mask") (roundrect_rratio 0.25)
    (solder_mask_margin -0.05) (clearance 0.1) (tstamp d8413ba0-ec1d-4d2b-827d-64d115d22076))
  (pad "10" smd roundrect (at 0.575 0 90) (size 0.35 1.8) (layers "F.Cu" "F.Mask") (roundrect_rratio 0.25)
    (solder_mask_margin -0.05) (solder_paste_margin -0.05) (clearance 0.1) (tstamp 6ddb04b0-aa04-4921-ad46-8a9edc406866))
  (pad "11" smd roundrect (at 0.75 -0.5 90) (size 0.35 1.45) (layers "F.Cu" "F.Mask") (roundrect_rratio 0.25)
    (solder_mask_margin -0.05) (clearance 0.1) (tstamp b1dbce03-060e-4696-9de7-b000ed7b16cf))
  (pad "12" smd roundrect (at 0.47538 -1.22334 90) (size 0.35 0.85) (layers "F.Cu" "F.Paste" "F.Mask") (roundrect_rratio 0.25)
    (solder_mask_margin -0.05) (solder_paste_margin -0.05) (clearance 0.001) (tstamp 0d583cbc-5a48-47f9-9ead-b4869b8f7a66))
  (pad "12" smd roundrect (at 0.225 -1.4) (size 0.35 0.7) (layers "F.Cu" "F.Paste" "F.Mask") (roundrect_rratio 0.25)
    (solder_mask_margin -0.05) (solder_paste_margin -0.05) (clearance 0.15) (tstamp af888485-3979-49f8-8850-86e491e63312))
  (pad "12" smd roundrect (at 0.725 -1.4) (size 0.35 0.7) (layers "F.Cu" "F.Paste" "F.Mask") (roundrect_rratio 0.25)
    (solder_mask_margin -0.05) (solder_paste_margin -0.05) (clearance 0.15) (tstamp b7066da4-acf6-4ea1-a8f6-cda77ef7a846))
  (pad "14" smd roundrect (at -0.275 -1.4) (size 0.25 0.6) (layers "F.Cu" "F.Paste" "F.Mask") (roundrect_rratio 0.25) (tstamp c05f7cc2-952d-4713-bf49-fb10c94f21af))
  (pad "15" smd roundrect (at -0.775 -1.4) (size 0.25 0.6) (layers "F.Cu" "F.Paste" "F.Mask") (roundrect_rratio 0.25)
    (die_length 0.05) (tstamp 787cb8d1-7702-4a2b-9d49-1665b1855d3c))
  (model "${LSF_KICAD_LIB}/lsf-kicad-lib.3dshapes/VQFN-15_2.5x3_Pitch0.5mm.wrl"
    (offset (xyz 0 0 0))
    (scale (xyz 1 1 1))
    (rotate (xyz 0 0 0))
  )
)
