#VRML V2.0 utf8


Group {
  children 
    Group {
      children 
        Group {
          children 
            Transform {
              translation 0 0 0
              rotation 0 0 1  3.1415927
              scale 1 1 1
              scaleOrientation 0 0 1  0
              center 0 0 0
              children 
                Shape {
                  appearance 
                  Appearance {
                    material 
                    Material {

                    }

                  }
                  geometry 
                  DEF SoFCIndexedFaceSet IndexedFaceSet {
                    coord 
                    Coordinate {
                      point [ -2.2393157 -0.33514568 -4.7224432e-008,
                          -2.2393157 -0.33514568 0.12023173,
                          -2.2393157 0.3351461 -7.6523818e-008,
                          -2.2393157 0.3351461 0.1202317,
                          -2.0612695 1.8020192e-007 -6.1874125e-008,
                          -2.0612695 1.8545742e-007 0.12023171,
                          -2.050796 -0.062839679 -5.9127309e-008,
                          -2.050796 -0.062839672 0.12023171,
                          -2.050796 0.062840037 -6.4620941e-008,
                          -2.050796 0.062840044 0.12023171,
                          -2.019376 -0.11520623 -5.6838292e-008,
                          -2.019376 -0.11520622 0.12023172,
                          -2.019376 0.11520658 -6.6909955e-008,
                          -2.019376 0.11520659 0.1202317,
                          -1.9670097 -0.14662614 -5.5464884e-008,
                          -1.9670097 -0.14662614 0.12023172,
                          -1.9670097 0.1466265 -6.8283363e-008,
                          -1.9670097 0.1466265 0.1202317,
                          -1.9041698 -0.15709949 -5.5007082e-008,
                          -1.9041698 -0.15709949 0.12023172,
                          -1.9041698 0.15709981 -6.8741166e-008,
                          -1.9041698 0.15709981 0.1202317,
                          -1.8413298 -0.14662616 -5.5464884e-008,
                          -1.8413298 -0.14662616 0.12023172,
                          -1.8413298 0.14662649 -6.8283363e-008,
                          -1.8413298 0.14662649 0.1202317,
                          -1.7889633 -0.11520625 -5.6838292e-008,
                          -1.7889633 -0.11520624 0.12023172,
                          -1.7889633 0.11520656 -6.6909955e-008,
                          -1.7889633 0.11520657 0.1202317,
                          -1.7575434 -0.062839702 -5.9127309e-008,
                          -1.7575434 -0.062839694 0.12023171,
                          -1.7575434 0.062840015 -6.4620941e-008,
                          -1.7575434 0.062840022 0.12023171,
                          -1.7470702 1.5273375e-007 -6.1874125e-008,
                          -1.7470702 1.5798925e-007 0.12023171,
                          -1.6591976 -0.33514574 -4.7224432e-008,
                          -1.6591976 -0.33514574 0.12023173,
                          -1.6591976 0.33514604 -7.6523818e-008,
                          -1.6591976 0.33514604 0.1202317,
                          -1.6020237 -0.33514574 1.0312934e-007,
                          -1.6020237 -0.33514574 0.12023181,
                          -1.6020237 0.33514604 7.3829952e-008,
                          -1.6020237 0.33514604 0.12023178,
                          -1.5885491 -0.33514574 0.12596297,
                          -1.5885491 0.33514604 0.12596294,
                          -1.5770169 -0.33514574 0.13498636,
                          -1.5770169 0.33514604 0.13498633,
                          -1.5682132 -0.33514574 0.14668697,
                          -1.5682132 0.33514604 0.14668694,
                          -1.5630124 -0.95133328 0.63121653,
                          -1.5630124 -0.95133322 0.75144827,
                          -1.5630124 -0.92572033 0.18930127,
                          -1.5630124 -0.92572033 0.63121653,
                          -1.5630122 -0.33514574 0.18930124,
                          -1.5630122 0.33514604 0.18930121,
                          -1.5630121 0.78758156 0.18930119,
                          -1.5630121 0.78758156 0.63121641,
                          -1.5630121 0.78758162 0.75144815,
                          -1.5627378 -0.33514574 0.16026752,
                          -1.5627378 0.33514604 0.16026749,
                          -1.5609639 -0.33514574 0.17480244,
                          -1.5609639 0.33514604 0.17480241,
                          -1.5574309 -0.33514574 0.0098280655,
                          -1.5574309 0.33514604 0.0098280357,
                          -1.5393312 -1.0703861 0.63121653,
                          -1.5393312 -1.0703861 0.75144827,
                          -1.5169013 -0.33514577 0.030862629,
                          -1.5169013 0.33514601 0.0308626,
                          -1.4831966 -0.33514577 0.061670326,
                          -1.4831966 0.33514601 0.061670296,
                          -1.4718935 -1.1713142 0.63121653,
                          -1.4718935 -1.1713142 0.75144827,
                          -1.4586141 -0.33514577 0.10015165,
                          -1.4586141 0.33514601 0.10015162,
                          -1.4448289 -0.33514577 0.14368418,
                          -1.4448289 0.33514601 0.14368415,
                          -1.4427807 -0.92572033 0.18930127,
                          -1.4427807 -0.92572033 0.63121653,
                          -1.4427806 -0.33514577 0.18930124,
                          -1.4427806 0.33514601 0.18930121,
                          -1.4427805 0.78758156 0.18930119,
                          -1.4427805 0.78758156 0.63121641,
                          -1.3709654 -1.2387518 0.63121653,
                          -1.3709654 -1.2387518 0.75144827,
                          -1.2555101 0.29973185 0.63121647,
                          -1.2555101 0.29973185 0.75144821,
                          -1.2519128 -1.2624331 0.63121653,
                          -1.2519128 -1.2624331 0.75144827,
                          -1.223478 0.13869445 0.63121647,
                          -1.223478 0.13869445 0.75144821,
                          -1.2234777 0.460769 0.63121647,
                          -1.2234777 0.460769 0.75144821,
                          -1.1328602 -1.2387516 0.63121653,
                          -1.1328602 -1.2387516 0.75144827,
                          -1.1322578 0.59729028 0.63121647,
                          -1.1322578 0.59729034 0.75144821,
                          -1.1322576 0.0021734952 0.63121647,
                          -1.1322576 0.0021735004 0.75144821,
                          -0.9957369 -0.089047149 0.63121647,
                          -0.9957369 -0.089047149 0.75144821,
                          -0.99573684 -0.80464107 0.63121653,
                          -0.99573684 -0.80464101 0.75144827,
                          -0.99573684 0.68851066 0.63121641,
                          -0.99573684 0.68851072 0.75144815,
                          -0.98498875 -0.80464107 0.63121653,
                          -0.98498875 -0.80464101 0.75144827,
                          -0.98498875 -0.68440944 0.63121653,
                          -0.98498875 -0.68440938 0.75144827,
                          -0.98498869 0.12715469 0.2104055,
                          -0.98498869 0.12715469 0.33063722,
                          -0.98498869 0.26171547 0.21040528,
                          -0.98498869 0.26171547 0.33063701,
                          -0.97354859 0.31922883 0.21040528,
                          -0.97354859 0.31922883 0.33063701,
                          -0.94682467 1.403769 0.63121641,
                          -0.94682467 1.403769 0.75144815,
                          -0.94682467 1.4182678 0.63326484,
                          -0.94682467 1.4328028 0.63149089,
                          -0.94682467 1.4463834 0.62601542,
                          -0.94682467 1.4493861 0.74939978,
                          -0.94682467 1.4580839 0.61721164,
                          -0.94682467 1.4671074 0.60567957,
                          -0.94682467 1.4728385 0.28254455,
                          -0.94682467 1.4728385 0.59220493,
                          -0.94682467 1.4929186 0.73561454,
                          -0.94682467 1.5314001 0.71103209,
                          -0.94682467 1.5622077 0.67732751,
                          -0.94682467 1.5832423 0.63679779,
                          -0.94682467 1.5930703 0.28254455,
                          -0.94682467 1.5930703 0.59220493,
                          -0.94096977 0.36798629 0.21040528,
                          -0.94096977 0.36798629 0.33063698,
                          -0.89221233 0.400565 0.21040528,
                          -0.89221233 0.400565 0.33063698,
                          -0.83469939 0.72054279 0.63121641,
                          -0.83469939 0.72054285 0.75144815,
                          -0.83469898 0.4120051 0.21040528,
                          -0.83469898 0.4120051 0.33063698,
                          -0.77718568 0.40056497 0.21040528,
                          -0.77718568 0.40056497 0.33063698,
                          -0.72842818 0.36798626 0.21040528,
                          -0.72842818 0.36798626 0.33063698,
                          -0.69584948 0.3192288 0.21040528,
                          -0.69584948 0.3192288 0.33063701,
                          -0.68440974 -0.80464107 0.63121653,
                          -0.68440974 -0.80464101 0.75144827,
                          -0.68440974 -0.68440944 0.63121653,
                          -0.68440974 -0.68440938 0.75144827,
                          -0.68440968 0.12715466 0.2104055,
                          -0.68440968 0.12715466 0.33063722,
                          -0.68440938 0.26171544 0.21040528,
                          -0.68440938 0.26171544 0.33063701,
                          -0.67366219 -0.80464107 0.63121653,
                          -0.67366219 -0.80464101 0.75144827,
                          -0.67366213 -0.089047179 0.63121647,
                          -0.67366213 -0.089047179 0.75144821,
                          -0.67366207 0.68851066 0.63121641,
                          -0.67366207 0.68851072 0.75144815,
                          -0.57513368 -0.93664622 0.63121653,
                          -0.57513368 -0.93664616 0.75144827,
                          -0.53714114 0.59729022 0.63121647,
                          -0.53714114 0.59729028 0.75144821,
                          -0.53714079 0.0021734433 0.63121647,
                          -0.53714079 0.0021734484 0.75144821,
                          -0.44592059 0.46076891 0.63121647,
                          -0.44592059 0.46076891 0.75144821,
                          -0.44592041 0.13869439 0.63121647,
                          -0.44592041 0.13869439 0.75144821,
                          -0.41388825 0.29973176 0.63121647,
                          -0.41388825 0.29973176 0.75144821,
                          -7.1882937e-008 -0.82224482 0.63121653,
                          -7.1882937e-008 -0.82224476 0.75144827,
                          6.8852572e-008 0.78758144 0.63121641,
                          6.8852572e-008 0.7875815 0.75144815,
                          0.41388831 0.2997317 0.63121647,
                          0.41388831 0.2997317 0.75144821,
                          0.44592041 0.1386943 0.63121647,
                          0.44592041 0.1386943 0.75144821,
                          0.44592065 0.46076885 0.63121647,
                          0.44592065 0.46076885 0.75144821,
                          0.53714079 0.0021733493 0.63121647,
                          0.53714079 0.0021733544 0.75144821,
                          0.53714126 0.5972901 0.63121647,
                          0.53714126 0.59729016 0.75144821,
                          0.57513356 -0.93664634 0.63121653,
                          0.57513356 -0.93664628 0.75144827,
                          0.67366207 -0.80464119 0.63121653,
                          0.67366207 -0.80464113 0.75144827,
                          0.67366213 -0.089047298 0.63121647,
                          0.67366213 -0.089047298 0.75144821,
                          0.67366219 0.68851054 0.63121641,
                          0.67366219 0.6885106 0.75144815,
                          0.68440938 0.26171532 0.21040568,
                          0.68440938 0.26171532 0.3306374,
                          0.68440962 -0.80464119 0.63121653,
                          0.68440962 -0.80464113 0.75144827,
                          0.68440962 -0.68440956 0.63121653,
                          0.68440962 -0.6844095 0.75144827,
                          0.68440968 0.12715454 0.2104055,
                          0.68440968 0.12715454 0.33063722,
                          0.69584948 0.31922868 0.21040568,
                          0.69584948 0.31922868 0.3306374,
                          0.7284283 0.36798614 0.21040568,
                          0.7284283 0.36798614 0.33063737,
                          0.7771858 0.40056485 0.21040568,
                          0.7771858 0.40056485 0.33063737,
                          0.83469909 0.41200498 0.21040568,
                          0.83469909 0.41200498 0.33063737,
                          0.83469951 0.72054267 0.63121641,
                          0.83469951 0.72054273 0.75144815,
                          0.89221245 0.40056482 0.21040568,
                          0.89221245 0.40056482 0.33063737,
                          0.94096988 0.36798611 0.21040568,
                          0.94096988 0.36798611 0.33063737,
                          0.94682491 1.4037688 0.63121641,
                          0.94682491 1.4037688 0.75144815,
                          0.94682491 1.4182676 0.63326484,
                          0.94682491 1.4328026 0.63149089,
                          0.94682491 1.4463831 0.62601542,
                          0.94682491 1.4493859 0.74939978,
                          0.94682491 1.4580836 0.61721164,
                          0.94682491 1.4671072 0.60567957,
                          0.94682491 1.4728383 0.28254455,
                          0.94682491 1.4728383 0.59220493,
                          0.94682491 1.4929184 0.73561454,
                          0.94682491 1.5313998 0.71103209,
                          0.94682491 1.5622075 0.67732751,
                          0.94682491 1.5832421 0.63679779,
                          0.94682491 1.59307 0.28254455,
                          0.94682491 1.59307 0.59220493,
                          0.97354859 0.31922865 0.21040568,
                          0.97354859 0.31922865 0.3306374,
                          0.98498863 -0.80464119 0.63121653,
                          0.98498863 -0.80464113 0.75144827,
                          0.98498863 -0.68440956 0.63121653,
                          0.98498863 -0.6844095 0.75144827,
                          0.98498869 0.12715451 0.2104055,
                          0.98498869 0.12715451 0.33063722,
                          0.98498869 0.26171529 0.21040568,
                          0.98498869 0.26171529 0.3306374,
                          0.99573672 -0.80464119 0.63121653,
                          0.99573672 -0.80464113 0.75144827,
                          0.9957369 -0.089047328 0.63121647,
                          0.9957369 -0.089047328 0.75144821,
                          0.99573696 0.68851054 0.63121641,
                          0.99573696 0.6885106 0.75144815,
                          1.1322576 0.0021732973 0.63121647,
                          1.1322576 0.0021733025 0.75144821,
                          1.1322578 0.59729004 0.63121647,
                          1.1322578 0.5972901 0.75144821,
                          1.1328599 -1.2387519 0.63121653,
                          1.1328599 -1.2387519 0.75144827,
                          1.2234777 0.46076876 0.63121647,
                          1.2234777 0.46076876 0.75144821,
                          1.223478 0.13869424 0.63121647,
                          1.223478 0.13869424 0.75144821,
                          1.2519126 -1.2624333 0.63121653,
                          1.2519126 -1.2624333 0.75144827,
                          1.2555101 0.29973161 0.63121647,
                          1.2555101 0.29973161 0.75144821,
                          1.3709651 -1.238752 0.63121653,
                          1.3709651 -1.238752 0.75144827,
                          1.4427805 -0.92572057 0.18930127,
                          1.4427805 -0.92572057 0.63121653,
                          1.4427806 -0.33514601 0.18930124,
                          1.4427806 0.33514577 0.18930121,
                          1.4427807 0.78758132 0.18930119,
                          1.4427807 0.78758132 0.63121641,
                          1.4448289 -0.33514601 0.14368418,
                          1.4448289 0.33514577 0.14368415,
                          1.4586141 -0.33514601 0.10015165,
                          1.4586141 0.33514577 0.10015162,
                          1.4718933 -1.1713145 0.63121653,
                          1.4718933 -1.1713145 0.75144827,
                          1.4831966 -0.33514601 0.061670326,
                          1.4831966 0.33514577 0.061670296,
                          1.5169013 -0.33514601 0.030862629,
                          1.5169013 0.33514577 0.0308626,
                          1.539331 -1.0703863 0.63121653,
                          1.539331 -1.0703863 0.75144827,
                          1.5574309 -0.33514604 0.0098280655,
                          1.5574309 0.33514574 0.0098280357,
                          1.5609639 -0.33514604 0.17480244,
                          1.5609639 0.33514574 0.17480241,
                          1.5627378 -0.33514604 0.16026752,
                          1.5627378 0.33514574 0.16026749,
                          1.5630121 -0.95133352 0.63121653,
                          1.5630121 -0.95133346 0.75144827,
                          1.5630121 -0.92572057 0.18930127,
                          1.5630121 -0.92572057 0.63121653,
                          1.5630122 -0.33514604 0.18930124,
                          1.5630122 0.33514574 0.18930121,
                          1.5630124 0.78758132 0.18930119,
                          1.5630124 0.78758132 0.63121641,
                          1.5630124 0.78758138 0.75144815,
                          1.5682132 -0.33514604 0.14668697,
                          1.5682132 0.33514574 0.14668694,
                          1.5770169 -0.33514604 0.13498636,
                          1.5770169 0.33514574 0.13498633,
                          1.5885491 -0.33514604 0.12596297,
                          1.5885491 0.33514574 0.12596294,
                          1.6020237 -0.33514604 1.0312934e-007,
                          1.6020237 -0.33514604 0.12023181,
                          1.6020237 0.33514574 7.3829952e-008,
                          1.6020237 0.33514574 0.12023178,
                          1.6591976 -0.33514604 -4.7224432e-008,
                          1.6591976 -0.33514604 0.12023173,
                          1.6591976 0.33514574 -7.6523818e-008,
                          1.6591976 0.33514574 0.1202317,
                          1.7470701 -1.5273375e-007 -6.1874125e-008,
                          1.7470701 -1.4747825e-007 0.12023171,
                          1.7575434 -0.062840015 -5.9127309e-008,
                          1.7575434 -0.062840007 0.12023171,
                          1.7575434 0.062839702 -6.4620941e-008,
                          1.7575434 0.062839709 0.12023171,
                          1.7889633 -0.11520656 -5.6838292e-008,
                          1.7889633 -0.11520655 0.12023172,
                          1.7889633 0.11520625 -6.6909955e-008,
                          1.7889633 0.11520626 0.1202317,
                          1.8413298 -0.14662649 -5.5464884e-008,
                          1.8413298 -0.14662649 0.12023172,
                          1.8413298 0.14662616 -6.8283363e-008,
                          1.8413298 0.14662616 0.1202317,
                          1.9041698 -0.15709981 -5.5007082e-008,
                          1.9041698 -0.15709981 0.12023172,
                          1.9041698 0.15709949 -6.8741166e-008,
                          1.9041698 0.15709949 0.1202317,
                          1.9670097 -0.1466265 -5.5464884e-008,
                          1.9670097 -0.1466265 0.12023172,
                          1.9670097 0.14662614 -6.8283363e-008,
                          1.9670097 0.14662614 0.1202317,
                          2.019376 -0.11520658 -5.6838292e-008,
                          2.019376 -0.11520658 0.12023172,
                          2.019376 0.11520623 -6.6909955e-008,
                          2.019376 0.11520623 0.1202317,
                          2.050796 -0.062840037 -5.9127309e-008,
                          2.050796 -0.06284003 0.12023171,
                          2.050796 0.062839679 -6.4620941e-008,
                          2.050796 0.062839687 0.12023171,
                          2.0612695 -1.8020192e-007 -6.1874125e-008,
                          2.0612695 -1.7494642e-007 0.12023171,
                          2.2393155 -0.3351461 -4.7224432e-008,
                          2.2393155 -0.3351461 0.12023173,
                          2.2393155 0.33514568 -7.6523818e-008,
                          2.2393155 0.33514568 0.1202317 ]

                    }
                    normal 
                    Normal {
                      vector [  ]

                    }
                    coordIndex [ 50, 65, 51, -1, 65, 66, 51, -1,
                        58, 57, 51, -1, 57, 50, 51, -1,
                        100, 98, 51, -1, 98, 90, 51, -1,
                        90, 58, 51, -1, 102, 100, 51, -1,
                        66, 102, 51, -1, 216, 220, 116, -1,
                        220, 120, 116, -1, 115, 57, 116, -1,
                        57, 58, 116, -1, 58, 174, 116, -1,
                        174, 295, 116, -1, 295, 216, 116, -1,
                        120, 117, 116, -1, 117, 115, 116, -1,
                        215, 217, 216, -1, 217, 220, 216, -1,
                        295, 294, 216, -1, 294, 215, 216, -1,
                        287, 294, 288, -1, 294, 295, 288, -1,
                        295, 256, 288, -1, 244, 242, 288, -1,
                        256, 248, 288, -1, 248, 244, 288, -1,
                        242, 280, 288, -1, 280, 279, 288, -1,
                        279, 287, 288, -1, 57, 89, 50, -1,
                        99, 101, 50, -1, 89, 97, 50, -1,
                        97, 99, 50, -1, 101, 65, 50, -1,
                        215, 294, 115, -1, 294, 173, 115, -1,
                        173, 57, 115, -1, 117, 217, 115, -1,
                        217, 215, 115, -1, 243, 247, 287, -1,
                        247, 255, 287, -1, 255, 294, 287, -1,
                        241, 243, 287, -1, 279, 241, 287, -1,
                        86, 92, 58, -1, 92, 96, 58, -1,
                        96, 104, 58, -1, 104, 136, 58, -1,
                        136, 174, 58, -1, 90, 86, 58, -1,
                        260, 256, 295, -1, 174, 210, 295, -1,
                        210, 246, 295, -1, 246, 250, 295, -1,
                        250, 254, 295, -1, 254, 260, 295, -1,
                        85, 89, 57, -1, 173, 135, 57, -1,
                        135, 103, 57, -1, 103, 95, 57, -1,
                        95, 91, 57, -1, 91, 85, 57, -1,
                        259, 253, 294, -1, 253, 249, 294, -1,
                        249, 245, 294, -1, 245, 209, 294, -1,
                        209, 173, 294, -1, 255, 259, 294, -1,
                        220, 225, 120, -1, 225, 125, 120, -1,
                        125, 118, 120, -1, 118, 117, 120, -1,
                        217, 218, 220, -1, 218, 225, 220, -1,
                        117, 118, 217, -1, 118, 218, 217, -1,
                        225, 226, 125, -1, 226, 126, 125, -1,
                        126, 119, 125, -1, 119, 118, 125, -1,
                        218, 219, 225, -1, 219, 226, 225, -1,
                        118, 119, 218, -1, 119, 219, 218, -1,
                        226, 227, 126, -1, 227, 127, 126, -1,
                        127, 121, 126, -1, 121, 119, 126, -1,
                        219, 221, 226, -1, 221, 227, 226, -1,
                        119, 121, 219, -1, 121, 221, 219, -1,
                        227, 228, 127, -1, 228, 128, 127, -1,
                        128, 122, 127, -1, 122, 121, 127, -1,
                        221, 222, 227, -1, 222, 228, 227, -1,
                        121, 122, 221, -1, 122, 222, 221, -1,
                        228, 230, 128, -1, 230, 130, 128, -1,
                        130, 124, 128, -1, 124, 122, 128, -1,
                        222, 224, 228, -1, 224, 230, 228, -1,
                        122, 124, 222, -1, 124, 224, 222, -1,
                        230, 229, 130, -1, 229, 129, 130, -1,
                        129, 123, 130, -1, 123, 124, 130, -1,
                        224, 223, 230, -1, 223, 229, 230, -1,
                        124, 123, 224, -1, 123, 223, 224, -1,
                        229, 223, 129, -1, 223, 123, 129, -1,
                        259, 255, 260, -1, 255, 256, 260, -1,
                        254, 253, 260, -1, 253, 259, 260, -1,
                        85, 91, 86, -1, 91, 92, 86, -1,
                        90, 89, 86, -1, 89, 85, 86, -1,
                        99, 97, 100, -1, 97, 98, 100, -1,
                        102, 101, 100, -1, 101, 99, 100, -1,
                        243, 241, 244, -1, 241, 242, 244, -1,
                        248, 247, 244, -1, 247, 243, 244, -1,
                        176, 174, 170, -1, 169, 167, 170, -1,
                        167, 168, 170, -1, 174, 166, 170, -1,
                        166, 165, 170, -1, 165, 169, 170, -1,
                        168, 178, 170, -1, 178, 176, 170, -1,
                        175, 179, 176, -1, 179, 180, 176, -1,
                        180, 174, 176, -1, 178, 177, 176, -1,
                        177, 175, 176, -1, 156, 172, 190, -1,
                        189, 181, 190, -1, 181, 182, 190, -1,
                        172, 188, 190, -1, 182, 164, 190, -1,
                        164, 156, 190, -1, 188, 187, 190, -1,
                        187, 189, 190, -1, 155, 153, 156, -1,
                        153, 154, 156, -1, 164, 163, 156, -1,
                        163, 155, 156, -1, 154, 172, 156, -1,
                        169, 173, 175, -1, 173, 179, 175, -1,
                        177, 167, 175, -1, 167, 169, 175, -1,
                        165, 173, 169, -1, 189, 171, 155, -1,
                        171, 153, 155, -1, 163, 181, 155, -1,
                        181, 189, 155, -1, 187, 171, 189, -1,
                        136, 158, 174, -1, 158, 162, 174, -1,
                        162, 166, 174, -1, 180, 184, 174, -1,
                        184, 192, 174, -1, 192, 210, 174, -1,
                        209, 191, 173, -1, 191, 183, 173, -1,
                        183, 179, 173, -1, 165, 161, 173, -1,
                        161, 157, 173, -1, 157, 135, 173, -1,
                        91, 95, 92, -1, 95, 96, 92, -1,
                        95, 103, 96, -1, 103, 104, 96, -1,
                        103, 135, 104, -1, 135, 136, 104, -1,
                        135, 157, 136, -1, 157, 158, 136, -1,
                        157, 161, 158, -1, 161, 162, 158, -1,
                        161, 165, 162, -1, 165, 166, 162, -1,
                        254, 250, 253, -1, 250, 249, 253, -1,
                        250, 246, 249, -1, 246, 245, 249, -1,
                        246, 210, 245, -1, 210, 209, 245, -1,
                        210, 192, 209, -1, 192, 191, 209, -1,
                        192, 184, 191, -1, 184, 183, 191, -1,
                        184, 180, 183, -1, 180, 179, 183, -1,
                        196, 186, 234, -1, 186, 252, 234, -1,
                        233, 235, 234, -1, 235, 236, 234, -1,
                        242, 241, 234, -1, 241, 233, 234, -1,
                        252, 258, 234, -1, 258, 262, 234, -1,
                        262, 242, 234, -1, 236, 198, 234, -1,
                        198, 196, 234, -1, 195, 187, 196, -1,
                        187, 188, 196, -1, 172, 186, 196, -1,
                        188, 172, 196, -1, 198, 197, 196, -1,
                        197, 195, 196, -1, 145, 159, 105, -1,
                        159, 93, 105, -1, 106, 108, 105, -1,
                        108, 107, 105, -1, 101, 102, 105, -1,
                        102, 106, 105, -1, 93, 87, 105, -1,
                        83, 101, 105, -1, 87, 83, 105, -1,
                        107, 147, 105, -1, 147, 145, 105, -1,
                        146, 154, 145, -1, 154, 153, 145, -1,
                        171, 159, 145, -1, 153, 171, 145, -1,
                        147, 148, 145, -1, 148, 146, 145, -1,
                        106, 94, 146, -1, 94, 160, 146, -1,
                        172, 154, 146, -1, 160, 172, 146, -1,
                        148, 108, 146, -1, 108, 106, 146, -1,
                        102, 84, 106, -1, 84, 88, 106, -1,
                        88, 94, 106, -1, 233, 251, 195, -1,
                        251, 185, 195, -1, 171, 187, 195, -1,
                        185, 171, 195, -1, 197, 235, 195, -1,
                        235, 233, 195, -1, 241, 261, 233, -1,
                        257, 251, 233, -1, 261, 257, 233, -1,
                        171, 185, 172, -1, 185, 186, 172, -1,
                        160, 159, 172, -1, 159, 171, 172, -1,
                        97, 89, 98, -1, 89, 90, 98, -1,
                        255, 247, 256, -1, 247, 248, 256, -1,
                        164, 182, 168, -1, 182, 178, 168, -1,
                        167, 163, 168, -1, 163, 164, 168, -1,
                        182, 181, 178, -1, 181, 177, 178, -1,
                        181, 163, 177, -1, 163, 167, 177, -1,
                        279, 273, 241, -1, 273, 261, 241, -1,
                        262, 274, 242, -1, 274, 280, 242, -1,
                        83, 71, 101, -1, 71, 65, 101, -1,
                        66, 72, 102, -1, 72, 84, 102, -1,
                        93, 159, 94, -1, 159, 160, 94, -1,
                        88, 87, 94, -1, 87, 93, 94, -1,
                        185, 251, 186, -1, 251, 252, 186, -1,
                        251, 257, 252, -1, 257, 258, 252, -1,
                        65, 71, 66, -1, 71, 72, 66, -1,
                        83, 87, 84, -1, 87, 88, 84, -1,
                        72, 71, 84, -1, 71, 83, 84, -1,
                        257, 261, 258, -1, 261, 262, 258, -1,
                        261, 273, 262, -1, 273, 274, 262, -1,
                        274, 273, 280, -1, 273, 279, 280, -1,
                        107, 109, 147, -1, 109, 149, 147, -1,
                        149, 150, 147, -1, 150, 148, 147, -1,
                        108, 110, 107, -1, 110, 109, 107, -1,
                        148, 150, 108, -1, 150, 110, 108, -1,
                        236, 238, 198, -1, 238, 200, 198, -1,
                        200, 199, 198, -1, 199, 197, 198, -1,
                        235, 237, 236, -1, 237, 238, 236, -1,
                        197, 199, 235, -1, 199, 237, 235, -1,
                        109, 111, 149, -1, 111, 151, 149, -1,
                        151, 152, 149, -1, 152, 150, 149, -1,
                        110, 112, 109, -1, 112, 111, 109, -1,
                        150, 152, 110, -1, 152, 112, 110, -1,
                        238, 240, 200, -1, 240, 194, 200, -1,
                        194, 193, 200, -1, 193, 199, 200, -1,
                        237, 239, 238, -1, 239, 240, 238, -1,
                        199, 193, 237, -1, 193, 239, 237, -1,
                        231, 232, 239, -1, 232, 240, 239, -1,
                        193, 201, 239, -1, 201, 203, 239, -1,
                        203, 205, 239, -1, 205, 207, 239, -1,
                        207, 211, 239, -1, 211, 213, 239, -1,
                        213, 231, 239, -1, 213, 214, 231, -1,
                        214, 232, 231, -1, 211, 212, 213, -1,
                        212, 214, 213, -1, 207, 208, 211, -1,
                        208, 212, 211, -1, 205, 206, 207, -1,
                        206, 208, 207, -1, 203, 204, 205, -1,
                        204, 206, 205, -1, 201, 202, 203, -1,
                        202, 204, 203, -1, 193, 194, 201, -1,
                        194, 202, 201, -1, 232, 214, 240, -1,
                        214, 212, 240, -1, 212, 208, 240, -1,
                        208, 206, 240, -1, 206, 204, 240, -1,
                        204, 202, 240, -1, 202, 194, 240, -1,
                        144, 142, 152, -1, 142, 140, 152, -1,
                        140, 138, 152, -1, 138, 134, 152, -1,
                        134, 132, 152, -1, 132, 114, 152, -1,
                        114, 112, 152, -1, 151, 143, 152, -1,
                        143, 144, 152, -1, 114, 113, 112, -1,
                        113, 111, 112, -1, 132, 131, 114, -1,
                        131, 113, 114, -1, 134, 133, 132, -1,
                        133, 131, 132, -1, 138, 137, 134, -1,
                        137, 133, 134, -1, 140, 139, 138, -1,
                        139, 137, 138, -1, 142, 141, 140, -1,
                        141, 139, 140, -1, 144, 143, 142, -1,
                        143, 141, 142, -1, 111, 113, 151, -1,
                        113, 131, 151, -1, 131, 133, 151, -1,
                        133, 137, 151, -1, 137, 139, 151, -1,
                        139, 141, 151, -1, 141, 143, 151, -1,
                        1, 5, 3, -1, 2, 0, 3, -1,
                        0, 1, 3, -1, 39, 38, 3, -1,
                        38, 2, 3, -1, 13, 17, 3, -1,
                        21, 39, 3, -1, 5, 9, 3, -1,
                        17, 21, 3, -1, 9, 13, 3, -1,
                        0, 36, 1, -1, 36, 37, 1, -1,
                        37, 19, 1, -1, 11, 7, 1, -1,
                        19, 15, 1, -1, 7, 5, 1, -1,
                        15, 11, 1, -1, 38, 20, 2, -1,
                        12, 8, 2, -1, 4, 0, 2, -1,
                        20, 16, 2, -1, 8, 4, 2, -1,
                        16, 12, 2, -1, 10, 14, 0, -1,
                        18, 36, 0, -1, 4, 6, 0, -1,
                        14, 18, 0, -1, 6, 10, 0, -1,
                        39, 35, 37, -1, 36, 40, 37, -1,
                        40, 41, 37, -1, 27, 23, 37, -1,
                        35, 31, 37, -1, 23, 19, 37, -1,
                        31, 27, 37, -1, 41, 43, 37, -1,
                        43, 39, 37, -1, 29, 33, 39, -1,
                        21, 25, 39, -1, 33, 35, 39, -1,
                        25, 29, 39, -1, 43, 42, 39, -1,
                        42, 38, 39, -1, 38, 42, 36, -1,
                        42, 40, 36, -1, 26, 30, 36, -1,
                        34, 38, 36, -1, 18, 22, 36, -1,
                        30, 34, 36, -1, 22, 26, 36, -1,
                        28, 24, 38, -1, 34, 32, 38, -1,
                        24, 20, 38, -1, 32, 28, 38, -1,
                        26, 22, 27, -1, 22, 23, 27, -1,
                        31, 30, 27, -1, 30, 26, 27, -1,
                        28, 32, 29, -1, 32, 33, 29, -1,
                        25, 24, 29, -1, 24, 28, 29, -1,
                        12, 16, 13, -1, 16, 17, 13, -1,
                        9, 8, 13, -1, 8, 12, 13, -1,
                        10, 6, 11, -1, 6, 7, 11, -1,
                        15, 14, 11, -1, 14, 10, 11, -1,
                        35, 33, 34, -1, 33, 32, 34, -1,
                        30, 31, 34, -1, 31, 35, 34, -1,
                        19, 23, 18, -1, 23, 22, 18, -1,
                        14, 15, 18, -1, 15, 19, 18, -1,
                        5, 7, 4, -1, 7, 6, 4, -1,
                        8, 9, 4, -1, 9, 5, 4, -1,
                        21, 17, 20, -1, 17, 16, 20, -1,
                        24, 25, 20, -1, 25, 21, 20, -1,
                        57, 56, 53, -1, 56, 55, 53, -1,
                        55, 54, 53, -1, 54, 52, 53, -1,
                        78, 82, 53, -1, 82, 57, 53, -1,
                        52, 77, 53, -1, 77, 78, 53, -1,
                        82, 81, 57, -1, 81, 56, 57, -1,
                        78, 77, 82, -1, 77, 79, 82, -1,
                        79, 80, 82, -1, 80, 81, 82, -1,
                        54, 79, 52, -1, 79, 77, 52, -1,
                        81, 80, 56, -1, 80, 55, 56, -1,
                        55, 62, 54, -1, 62, 61, 54, -1,
                        61, 75, 54, -1, 75, 79, 54, -1,
                        80, 76, 55, -1, 76, 62, 55, -1,
                        79, 75, 80, -1, 75, 76, 80, -1,
                        76, 74, 62, -1, 74, 60, 62, -1,
                        60, 59, 62, -1, 59, 61, 62, -1,
                        75, 73, 76, -1, 73, 74, 76, -1,
                        61, 59, 75, -1, 59, 73, 75, -1,
                        74, 70, 60, -1, 70, 49, 60, -1,
                        49, 48, 60, -1, 48, 59, 60, -1,
                        73, 69, 74, -1, 69, 70, 74, -1,
                        59, 48, 73, -1, 48, 69, 73, -1,
                        70, 68, 49, -1, 68, 47, 49, -1,
                        47, 46, 49, -1, 46, 48, 49, -1,
                        69, 67, 70, -1, 67, 68, 70, -1,
                        48, 46, 69, -1, 46, 67, 69, -1,
                        68, 64, 47, -1, 64, 45, 47, -1,
                        45, 44, 47, -1, 44, 46, 47, -1,
                        67, 63, 68, -1, 63, 64, 68, -1,
                        46, 44, 67, -1, 44, 63, 67, -1,
                        64, 42, 45, -1, 42, 43, 45, -1,
                        43, 41, 45, -1, 41, 44, 45, -1,
                        63, 40, 64, -1, 40, 42, 64, -1,
                        44, 41, 63, -1, 41, 40, 63, -1,
                        268, 267, 264, -1, 267, 266, 264, -1,
                        266, 265, 264, -1, 265, 263, 264, -1,
                        290, 294, 264, -1, 294, 268, 264, -1,
                        263, 289, 264, -1, 289, 290, 264, -1,
                        294, 293, 268, -1, 293, 267, 268, -1,
                        290, 289, 294, -1, 289, 291, 294, -1,
                        291, 292, 294, -1, 292, 293, 294, -1,
                        265, 291, 263, -1, 291, 289, 263, -1,
                        293, 292, 267, -1, 292, 266, 267, -1,
                        266, 270, 265, -1, 270, 269, 265, -1,
                        269, 283, 265, -1, 283, 291, 265, -1,
                        292, 284, 266, -1, 284, 270, 266, -1,
                        291, 283, 292, -1, 283, 284, 292, -1,
                        284, 286, 270, -1, 286, 272, 270, -1,
                        272, 271, 270, -1, 271, 269, 270, -1,
                        283, 285, 284, -1, 285, 286, 284, -1,
                        269, 271, 283, -1, 271, 285, 283, -1,
                        286, 297, 272, -1, 297, 276, 272, -1,
                        276, 275, 272, -1, 275, 271, 272, -1,
                        285, 296, 286, -1, 296, 297, 286, -1,
                        271, 275, 285, -1, 275, 296, 285, -1,
                        297, 299, 276, -1, 299, 278, 276, -1,
                        278, 277, 276, -1, 277, 275, 276, -1,
                        296, 298, 297, -1, 298, 299, 297, -1,
                        275, 277, 296, -1, 277, 298, 296, -1,
                        299, 301, 278, -1, 301, 282, 278, -1,
                        282, 281, 278, -1, 281, 277, 278, -1,
                        298, 300, 299, -1, 300, 301, 299, -1,
                        277, 281, 298, -1, 281, 300, 298, -1,
                        301, 305, 282, -1, 305, 304, 282, -1,
                        304, 302, 282, -1, 302, 281, 282, -1,
                        300, 303, 301, -1, 303, 305, 301, -1,
                        281, 302, 300, -1, 302, 303, 300, -1,
                        305, 309, 304, -1, 309, 308, 304, -1,
                        308, 306, 304, -1, 306, 302, 304, -1,
                        303, 307, 305, -1, 307, 309, 305, -1,
                        302, 306, 303, -1, 306, 307, 303, -1,
                        343, 342, 345, -1, 342, 344, 345, -1,
                        344, 308, 345, -1, 308, 309, 345, -1,
                        309, 327, 345, -1, 335, 339, 345, -1,
                        341, 343, 345, -1, 327, 331, 345, -1,
                        339, 341, 345, -1, 331, 335, 345, -1,
                        307, 306, 343, -1, 306, 342, 343, -1,
                        333, 329, 343, -1, 325, 307, 343, -1,
                        341, 337, 343, -1, 329, 325, 343, -1,
                        337, 333, 343, -1, 342, 340, 344, -1,
                        334, 330, 344, -1, 326, 308, 344, -1,
                        340, 338, 344, -1, 330, 326, 344, -1,
                        338, 334, 344, -1, 306, 324, 342, -1,
                        332, 336, 342, -1, 324, 328, 342, -1,
                        336, 340, 342, -1, 328, 332, 342, -1,
                        317, 313, 307, -1, 311, 309, 307, -1,
                        325, 321, 307, -1, 313, 311, 307, -1,
                        321, 317, 307, -1, 319, 323, 309, -1,
                        311, 315, 309, -1, 323, 327, 309, -1,
                        315, 319, 309, -1, 308, 310, 306, -1,
                        316, 320, 306, -1, 310, 312, 306, -1,
                        320, 324, 306, -1, 312, 316, 306, -1,
                        318, 314, 308, -1, 326, 322, 308, -1,
                        314, 310, 308, -1, 322, 318, 308, -1,
                        318, 322, 319, -1, 322, 323, 319, -1,
                        315, 314, 319, -1, 314, 318, 319, -1,
                        316, 312, 317, -1, 312, 313, 317, -1,
                        321, 320, 317, -1, 320, 316, 317, -1,
                        332, 328, 333, -1, 328, 329, 333, -1,
                        337, 336, 333, -1, 336, 332, 333, -1,
                        334, 338, 335, -1, 338, 339, 335, -1,
                        331, 330, 335, -1, 330, 334, 335, -1,
                        311, 313, 310, -1, 313, 312, 310, -1,
                        314, 315, 310, -1, 315, 311, 310, -1,
                        327, 323, 326, -1, 323, 322, 326, -1,
                        330, 331, 326, -1, 331, 327, 326, -1,
                        341, 339, 340, -1, 339, 338, 340, -1,
                        336, 337, 340, -1, 337, 341, 340, -1,
                        325, 329, 324, -1, 329, 328, 324, -1,
                        320, 321, 324, -1, 321, 325, 324, -1 ]
                    ccw TRUE
                    solid FALSE
                    convex TRUE
                    creaseAngle 0

                  }

                }

            }

        }

    }

}
