ISO-10303-21;
HEADER;
FILE_DESCRIPTION(('FreeCAD Model'),'2;1');
FILE_NAME(
'/home/home/drid/Devel/LSF/lsf-kicad-lib/lsf-kicad-lib.3dshapes/MQ-131.s
tep','2020-04-08T19:51:38',('kicad StepUp'),('ksu MCAD'),
  'Open CASCADE STEP processor 7.3','FreeCAD','Unknown');
FILE_SCHEMA(('AUTOMOTIVE_DESIGN { 1 0 10303 214 1 1 1 1 }'));
ENDSEC;
DATA;
#1 = APPLICATION_PROTOCOL_DEFINITION('international standard',
  'automotive_design',2000,#2);
#2 = APPLICATION_CONTEXT(
  'core data for automotive mechanical design processes');
#3 = SHAPE_DEFINITION_REPRESENTATION(#4,#10);
#4 = PRODUCT_DEFINITION_SHAPE('','',#5);
#5 = PRODUCT_DEFINITION('design','',#6,#9);
#6 = PRODUCT_DEFINITION_FORMATION('','',#7);
#7 = PRODUCT('MQ-131','MQ-131','',(#8));
#8 = PRODUCT_CONTEXT('',#2,'mechanical');
#9 = PRODUCT_DEFINITION_CONTEXT('part definition',#2,'design');
#10 = ADVANCED_BREP_SHAPE_REPRESENTATION('',(#11,#15),#1269);
#11 = AXIS2_PLACEMENT_3D('',#12,#13,#14);
#12 = CARTESIAN_POINT('',(0.,0.,0.));
#13 = DIRECTION('',(0.,0.,1.));
#14 = DIRECTION('',(1.,0.,-0.));
#15 = MANIFOLD_SOLID_BREP('',#16);
#16 = CLOSED_SHELL('',(#17,#73,#215,#271,#327,#365,#387,#421,#463,#505,
    #547,#589,#631,#673,#715,#733,#763,#781,#791,#907,#927,#951,#963,
    #993,#1013,#1031,#1101,#1119,#1137,#1155,#1173,#1191,#1209,#1219,
    #1229,#1239,#1249,#1259));
#17 = ADVANCED_FACE('',(#18),#56,.T.);
#18 = FACE_BOUND('',#19,.T.);
#19 = EDGE_LOOP('',(#20,#31,#40,#49));
#20 = ORIENTED_EDGE('',*,*,#21,.F.);
#21 = EDGE_CURVE('',#22,#24,#26,.T.);
#22 = VERTEX_POINT('',#23);
#23 = CARTESIAN_POINT('',(3.35,3.265711504992,13.132163720225));
#24 = VERTEX_POINT('',#25);
#25 = CARTESIAN_POINT('',(3.35,-9.965711504992,13.132163720225));
#26 = CIRCLE('',#27,6.615711504992);
#27 = AXIS2_PLACEMENT_3D('',#28,#29,#30);
#28 = CARTESIAN_POINT('',(3.35,-3.35,13.132163720225));
#29 = DIRECTION('',(-0.,0.,-1.));
#30 = DIRECTION('',(-2.22044604925E-16,-1.,0.));
#31 = ORIENTED_EDGE('',*,*,#32,.T.);
#32 = EDGE_CURVE('',#22,#33,#35,.T.);
#33 = VERTEX_POINT('',#34);
#34 = CARTESIAN_POINT('',(3.35,2.274483603305,14.));
#35 = CIRCLE('',#36,1.);
#36 = AXIS2_PLACEMENT_3D('',#37,#38,#39);
#37 = CARTESIAN_POINT('',(3.35,2.274483603305,13.));
#38 = DIRECTION('',(1.,-9.957992501033E-17,0.));
#39 = DIRECTION('',(9.957992501033E-17,1.,0.));
#40 = ORIENTED_EDGE('',*,*,#41,.T.);
#41 = EDGE_CURVE('',#33,#42,#44,.T.);
#42 = VERTEX_POINT('',#43);
#43 = CARTESIAN_POINT('',(3.35,-8.974483603305,14.));
#44 = ( BOUNDED_CURVE() B_SPLINE_CURVE(3,(#45,#46,#47,#48),
.UNSPECIFIED.,.F.,.F.) B_SPLINE_CURVE_WITH_KNOTS((4,4),(0.5,1.),
.PIECEWISE_BEZIER_KNOTS.) CURVE() GEOMETRIC_REPRESENTATION_ITEM() 
RATIONAL_B_SPLINE_CURVE((1.,0.333333333333,0.333333333333,1.)) 
REPRESENTATION_ITEM('') );
#45 = CARTESIAN_POINT('',(3.35,2.274483603305,14.));
#46 = CARTESIAN_POINT('',(14.59896720661,2.274483603305,14.));
#47 = CARTESIAN_POINT('',(14.59896720661,-8.974483603305,14.));
#48 = CARTESIAN_POINT('',(3.35,-8.974483603305,14.));
#49 = ORIENTED_EDGE('',*,*,#50,.F.);
#50 = EDGE_CURVE('',#24,#42,#51,.T.);
#51 = CIRCLE('',#52,1.);
#52 = AXIS2_PLACEMENT_3D('',#53,#54,#55);
#53 = CARTESIAN_POINT('',(3.35,-8.974483603305,13.));
#54 = DIRECTION('',(-1.,2.22044604925E-16,0.));
#55 = DIRECTION('',(-2.22044604925E-16,-1.,0.));
#56 = ( BOUNDED_SURFACE() B_SPLINE_SURFACE(3,3,(
    (#57,#58,#59,#60)
    ,(#61,#62,#63,#64)
    ,(#65,#66,#67,#68)
    ,(#69,#70,#71,#72
)),.UNSPECIFIED.,.F.,.F.,.F.) B_SPLINE_SURFACE_WITH_KNOTS((4,4),(4,4),(
    0.,1.),(0.,1.),.PIECEWISE_BEZIER_KNOTS.) 
GEOMETRIC_REPRESENTATION_ITEM() RATIONAL_B_SPLINE_SURFACE((
    (1.,0.333333333333,0.333333333333,1.)
    ,(0.834922744902,0.278307581634,0.278307581634,0.834922744902)
    ,(0.834922744902,0.278307581634,0.278307581634,0.834922744902)
,(1.,0.333333333333,0.333333333333,1.
))) REPRESENTATION_ITEM('') SURFACE() );
#57 = CARTESIAN_POINT('',(3.35,3.265711503988,13.132163720091));
#58 = CARTESIAN_POINT('',(16.58142300797,3.265711503988,13.132163720091)
  );
#59 = CARTESIAN_POINT('',(16.58142300797,-9.965711503988,13.132163720091
    ));
#60 = CARTESIAN_POINT('',(3.35,-9.965711503988,13.132163720091));
#61 = CARTESIAN_POINT('',(3.35,3.19619649131,13.653526315176));
#62 = CARTESIAN_POINT('',(16.44239298262,3.19619649131,13.653526315176)
  );
#63 = CARTESIAN_POINT('',(16.44239298262,-9.89619649131,13.653526315176)
  );
#64 = CARTESIAN_POINT('',(3.35,-9.89619649131,13.653526315176));
#65 = CARTESIAN_POINT('',(3.35,2.800460116603,14.));
#66 = CARTESIAN_POINT('',(15.6509202332,2.800460116603,14.));
#67 = CARTESIAN_POINT('',(15.6509202332,-9.500460116603,14.));
#68 = CARTESIAN_POINT('',(3.35,-9.500460116603,14.));
#69 = CARTESIAN_POINT('',(3.35,2.274483603305,14.));
#70 = CARTESIAN_POINT('',(14.59896720661,2.274483603305,14.));
#71 = CARTESIAN_POINT('',(14.59896720661,-8.974483603305,14.));
#72 = CARTESIAN_POINT('',(3.35,-8.974483603305,14.));
#73 = ADVANCED_FACE('',(#74),#198,.F.);
#74 = FACE_BOUND('',#75,.F.);
#75 = EDGE_LOOP('',(#76,#87,#182,#191));
#76 = ORIENTED_EDGE('',*,*,#77,.T.);
#77 = EDGE_CURVE('',#78,#80,#82,.T.);
#78 = VERTEX_POINT('',#79);
#79 = CARTESIAN_POINT('',(3.35,-10.85,6.));
#80 = VERTEX_POINT('',#81);
#81 = CARTESIAN_POINT('',(3.35,-11.85,5.));
#82 = CIRCLE('',#83,1.);
#83 = AXIS2_PLACEMENT_3D('',#84,#85,#86);
#84 = CARTESIAN_POINT('',(3.35,-11.85,6.));
#85 = DIRECTION('',(-1.,2.22044604925E-16,0.));
#86 = DIRECTION('',(-2.22044604925E-16,-1.,0.));
#87 = ORIENTED_EDGE('',*,*,#88,.T.);
#88 = EDGE_CURVE('',#80,#89,#91,.T.);
#89 = VERTEX_POINT('',#90);
#90 = CARTESIAN_POINT('',(3.35,5.15,5.));
#91 = B_SPLINE_CURVE_WITH_KNOTS('',3,(#92,#93,#94,#95,#96,#97,#98,#99,
    #100,#101,#102,#103,#104,#105,#106,#107,#108,#109,#110,#111,#112,
    #113,#114,#115,#116,#117,#118,#119,#120,#121,#122,#123,#124,#125,
    #126,#127,#128,#129,#130,#131,#132,#133,#134,#135,#136,#137,#138,
    #139,#140,#141,#142,#143,#144,#145,#146,#147,#148,#149,#150,#151,
    #152,#153,#154,#155,#156,#157,#158,#159,#160,#161,#162,#163,#164,
    #165,#166,#167,#168,#169,#170,#171,#172,#173,#174,#175,#176,#177,
    #178,#179,#180,#181),.UNSPECIFIED.,.F.,.F.,(4,1,1,1,2,2,1,1,1,2,2,1,
    1,2,2,2,1,1,2,2,1,1,1,2,2,1,1,1,2,2,2,1,1,1,2,2,1,1,1,2,2,1,1,2,2,2,
    1,1,2,2,1,1,1,2,2,1,1,1,2,2,4),(0.5,0.515625,0.5234375,0.52734375,
    0.529296875,0.53125,0.546875,0.5546875,0.55859375,0.560546875,0.5625
    ,0.578125,0.5859375,0.58984375,0.59375,0.625,0.640625,0.6484375,
    0.65234375,0.65625,0.671875,0.6796875,0.68359375,0.685546875,0.6875,
    0.703125,0.7109375,0.71484375,0.716796875,0.71875,0.75,0.765625,
    0.7734375,0.77734375,0.779296875,0.78125,0.796875,0.8046875,
    0.80859375,0.810546875,0.8125,0.828125,0.8359375,0.83984375,0.84375,
    0.875,0.890625,0.8984375,0.90234375,0.90625,0.921875,0.9296875,
    0.93359375,0.935546875,0.9375,0.953125,0.9609375,0.96484375,
    0.966796875,0.96875,1.),.UNSPECIFIED.);
#92 = CARTESIAN_POINT('',(3.35,-11.85,5.));
#93 = CARTESIAN_POINT('',(3.089872584389,-11.84998376976,5.));
#94 = CARTESIAN_POINT('',(2.701441279493,-11.83223355103,5.));
#95 = CARTESIAN_POINT('',(2.251351106191,-11.78050468409,5.));
#96 = CARTESIAN_POINT('',(2.027075940143,-11.74688518102,5.));
#97 = CARTESIAN_POINT('',(1.931122994823,-11.73081502193,5.));
#98 = CARTESIAN_POINT('',(1.867191027496,-11.7197322935,5.));
#99 = CARTESIAN_POINT('',(1.837217936623,-11.71437180923,5.));
#100 = CARTESIAN_POINT('',(1.532082997488,-11.65788621001,5.));
#101 = CARTESIAN_POINT('',(1.130894819009,-11.5633672598,5.));
#102 = CARTESIAN_POINT('',(0.67274415643,-11.41948671987,5.));
#103 = CARTESIAN_POINT('',(0.446144378218,-11.33914434206,5.));
#104 = CARTESIAN_POINT('',(0.349560663215,-11.30291144275,5.));
#105 = CARTESIAN_POINT('',(0.28528940336,-11.27835607617,5.));
#106 = CARTESIAN_POINT('',(0.25459864709,-11.26642711788,5.));
#107 = CARTESIAN_POINT('',(-4.6034458201E-02,-11.14738808816,5.));
#108 = CARTESIAN_POINT('',(-0.436766262456,-10.9694363958,5.));
#109 = CARTESIAN_POINT('',(-0.874923445858,-10.72816836245,5.));
#110 = CARTESIAN_POINT('',(-1.058912969838,-10.61755540695,5.));
#111 = CARTESIAN_POINT('',(-1.180729957814,-10.54221068778,5.));
#112 = CARTESIAN_POINT('',(-1.239854172638,-10.50462813138,5.));
#113 = CARTESIAN_POINT('',(-1.792712752856,-10.14313155713,5.));
#114 = CARTESIAN_POINT('',(-2.245249404043,-9.775618480269,5.));
#115 = CARTESIAN_POINT('',(-2.867986758107,-9.152802219994,5.));
#116 = CARTESIAN_POINT('',(-3.161677872282,-8.827207562887,5.));
#117 = CARTESIAN_POINT('',(-3.473381770487,-8.422520707396,5.));
#118 = CARTESIAN_POINT('',(-3.600340069361,-8.243763536001,5.));
#119 = CARTESIAN_POINT('',(-3.683505805038,-8.123409877823,5.));
#120 = CARTESIAN_POINT('',(-3.72514643957,-8.061426791211,5.));
#121 = CARTESIAN_POINT('',(-3.921723468511,-7.760707354026,5.));
#122 = CARTESIAN_POINT('',(-4.138262025084,-7.389965957653,5.));
#123 = CARTESIAN_POINT('',(-4.357021054315,-6.940147702986,5.));
#124 = CARTESIAN_POINT('',(-4.457933247237,-6.710916919261,5.));
#125 = CARTESIAN_POINT('',(-4.499366903841,-6.611749085581,5.));
#126 = CARTESIAN_POINT('',(-4.526586135782,-6.5454314033,5.));
#127 = CARTESIAN_POINT('',(-4.540510635559,-6.510864815148,5.));
#128 = CARTESIAN_POINT('',(-4.654719946803,-6.222326760302,5.));
#129 = CARTESIAN_POINT('',(-4.787721371696,-5.832203171351,5.));
#130 = CARTESIAN_POINT('',(-4.909153801398,-5.36759816488,5.));
#131 = CARTESIAN_POINT('',(-4.961436041415,-5.132930456805,5.));
#132 = CARTESIAN_POINT('',(-4.982035435386,-5.031851752307,5.));
#133 = CARTESIAN_POINT('',(-4.99536674685,-4.964353320507,5.));
#134 = CARTESIAN_POINT('',(-5.002180923497,-4.928659399208,5.));
#135 = CARTESIAN_POINT('',(-5.102730960251,-4.38511068623,5.));
#136 = CARTESIAN_POINT('',(-5.150032460461,-3.870254831222,5.));
#137 = CARTESIAN_POINT('',(-5.149983769769,-3.089872584389,5.));
#138 = CARTESIAN_POINT('',(-5.132233551039,-2.701441279493,5.));
#139 = CARTESIAN_POINT('',(-5.080504684097,-2.251351106191,5.));
#140 = CARTESIAN_POINT('',(-5.046885181021,-2.027075940143,5.));
#141 = CARTESIAN_POINT('',(-5.03081502193,-1.931122994823,5.));
#142 = CARTESIAN_POINT('',(-5.019732293507,-1.867191027496,5.));
#143 = CARTESIAN_POINT('',(-5.014371809232,-1.837217936623,5.));
#144 = CARTESIAN_POINT('',(-4.957886210015,-1.532082997488,5.));
#145 = CARTESIAN_POINT('',(-4.863367259807,-1.130894819009,5.));
#146 = CARTESIAN_POINT('',(-4.719486719872,-0.672744156429,5.));
#147 = CARTESIAN_POINT('',(-4.639144342064,-0.446144378217,5.));
#148 = CARTESIAN_POINT('',(-4.602911442753,-0.349560663215,5.));
#149 = CARTESIAN_POINT('',(-4.578356076172,-0.285289403359,5.));
#150 = CARTESIAN_POINT('',(-4.566427117889,-0.25459864709,5.));
#151 = CARTESIAN_POINT('',(-4.447388088165,4.6034458202E-02,5.));
#152 = CARTESIAN_POINT('',(-4.269436395807,0.436766262458,5.));
#153 = CARTESIAN_POINT('',(-4.028168362451,0.87492344586,5.));
#154 = CARTESIAN_POINT('',(-3.917555406955,1.058912969839,5.));
#155 = CARTESIAN_POINT('',(-3.842210687785,1.180729957815,5.));
#156 = CARTESIAN_POINT('',(-3.804628131387,1.239854172638,5.));
#157 = CARTESIAN_POINT('',(-3.443131557129,1.792712752856,5.));
#158 = CARTESIAN_POINT('',(-3.075618480265,2.245249404046,5.));
#159 = CARTESIAN_POINT('',(-2.452802219996,2.867986758106,5.));
#160 = CARTESIAN_POINT('',(-2.12720756289,3.16167787228,5.));
#161 = CARTESIAN_POINT('',(-1.722520707399,3.473381770485,5.));
#162 = CARTESIAN_POINT('',(-1.543763536002,3.600340069359,5.));
#163 = CARTESIAN_POINT('',(-1.423409877824,3.683505805037,5.));
#164 = CARTESIAN_POINT('',(-1.361426791211,3.72514643957,5.));
#165 = CARTESIAN_POINT('',(-1.060707354025,3.921723468511,5.));
#166 = CARTESIAN_POINT('',(-0.689965957652,4.138262025085,5.));
#167 = CARTESIAN_POINT('',(-0.240147702985,4.357021054315,5.));
#168 = CARTESIAN_POINT('',(-1.0916919261E-02,4.457933247237,5.));
#169 = CARTESIAN_POINT('',(8.8250914419E-02,4.499366903841,5.));
#170 = CARTESIAN_POINT('',(0.1545685967,4.526586135782,5.));
#171 = CARTESIAN_POINT('',(0.189135184852,4.540510635559,5.));
#172 = CARTESIAN_POINT('',(0.4776732397,4.654719946803,5.));
#173 = CARTESIAN_POINT('',(0.867796828653,4.787721371697,5.));
#174 = CARTESIAN_POINT('',(1.332401835122,4.909153801399,5.));
#175 = CARTESIAN_POINT('',(1.567069543197,4.961436041415,5.));
#176 = CARTESIAN_POINT('',(1.668148247694,4.982035435386,5.));
#177 = CARTESIAN_POINT('',(1.735646679494,4.99536674685,5.));
#178 = CARTESIAN_POINT('',(1.771351552985,5.002182949522,5.));
#179 = CARTESIAN_POINT('',(2.314714078682,5.102698543847,5.));
#180 = CARTESIAN_POINT('',(2.830276060516,5.15,5.));
#181 = CARTESIAN_POINT('',(3.35,5.15,5.));
#182 = ORIENTED_EDGE('',*,*,#183,.F.);
#183 = EDGE_CURVE('',#184,#89,#186,.T.);
#184 = VERTEX_POINT('',#185);
#185 = CARTESIAN_POINT('',(3.35,4.15,6.));
#186 = CIRCLE('',#187,1.);
#187 = AXIS2_PLACEMENT_3D('',#188,#189,#190);
#188 = CARTESIAN_POINT('',(3.35,5.15,6.));
#189 = DIRECTION('',(1.,-9.957992501033E-17,0.));
#190 = DIRECTION('',(9.957992501033E-17,1.,0.));
#191 = ORIENTED_EDGE('',*,*,#192,.T.);
#192 = EDGE_CURVE('',#184,#78,#193,.T.);
#193 = CIRCLE('',#194,7.5);
#194 = AXIS2_PLACEMENT_3D('',#195,#196,#197);
#195 = CARTESIAN_POINT('',(3.35,-3.35,6.));
#196 = DIRECTION('',(0.,-0.,1.));
#197 = DIRECTION('',(2.22044604925E-16,1.,0.));
#198 = ( BOUNDED_SURFACE() B_SPLINE_SURFACE(3,3,(
    (#199,#200,#201,#202)
    ,(#203,#204,#205,#206)
    ,(#207,#208,#209,#210)
    ,(#211,#212,#213,#214
)),.UNSPECIFIED.,.F.,.F.,.F.) B_SPLINE_SURFACE_WITH_KNOTS((4,4),(4,4),(
    0.,1.),(0.,1.),.PIECEWISE_BEZIER_KNOTS.) 
GEOMETRIC_REPRESENTATION_ITEM() RATIONAL_B_SPLINE_SURFACE((
    (1.,0.333333333333,0.333333333333,1.)
    ,(0.804737854124,0.268245951375,0.268245951375,0.804737854124)
    ,(0.804737854124,0.268245951375,0.268245951375,0.804737854124)
,(1.,0.333333333333,0.333333333333,1.
))) REPRESENTATION_ITEM('') SURFACE() );
#199 = CARTESIAN_POINT('',(3.35,-10.85,6.));
#200 = CARTESIAN_POINT('',(-11.65,-10.85,6.));
#201 = CARTESIAN_POINT('',(-11.65,4.15,6.));
#202 = CARTESIAN_POINT('',(3.35,4.15,6.));
#203 = CARTESIAN_POINT('',(3.35,-10.85,5.414213562373));
#204 = CARTESIAN_POINT('',(-11.65,-10.85,5.414213562373));
#205 = CARTESIAN_POINT('',(-11.65,4.15,5.414213562373));
#206 = CARTESIAN_POINT('',(3.35,4.15,5.414213562373));
#207 = CARTESIAN_POINT('',(3.35,-11.26421356237,5.));
#208 = CARTESIAN_POINT('',(-12.47842712474,-11.26421356237,5.));
#209 = CARTESIAN_POINT('',(-12.47842712474,4.564213562373,5.));
#210 = CARTESIAN_POINT('',(3.35,4.564213562373,5.));
#211 = CARTESIAN_POINT('',(3.35,-11.85,5.));
#212 = CARTESIAN_POINT('',(-13.65,-11.85,5.));
#213 = CARTESIAN_POINT('',(-13.65,5.15,5.));
#214 = CARTESIAN_POINT('',(3.35,5.15,5.));
#215 = ADVANCED_FACE('',(#216),#254,.T.);
#216 = FACE_BOUND('',#217,.T.);
#217 = EDGE_LOOP('',(#218,#229,#238,#247));
#218 = ORIENTED_EDGE('',*,*,#219,.T.);
#219 = EDGE_CURVE('',#220,#222,#224,.T.);
#220 = VERTEX_POINT('',#221);
#221 = CARTESIAN_POINT('',(3.35,-13.1,4.8));
#222 = VERTEX_POINT('',#223);
#223 = CARTESIAN_POINT('',(3.35,6.4,4.8));
#224 = CIRCLE('',#225,9.75);
#225 = AXIS2_PLACEMENT_3D('',#226,#227,#228);
#226 = CARTESIAN_POINT('',(3.35,-3.35,4.8));
#227 = DIRECTION('',(0.,0.,1.));
#228 = DIRECTION('',(-2.22044604925E-16,-1.,0.));
#229 = ORIENTED_EDGE('',*,*,#230,.T.);
#230 = EDGE_CURVE('',#222,#231,#233,.T.);
#231 = VERTEX_POINT('',#232);
#232 = CARTESIAN_POINT('',(3.35,6.2,5.));
#233 = CIRCLE('',#234,0.2);
#234 = AXIS2_PLACEMENT_3D('',#235,#236,#237);
#235 = CARTESIAN_POINT('',(3.35,6.2,4.8));
#236 = DIRECTION('',(1.,-9.957992501033E-17,0.));
#237 = DIRECTION('',(9.957992501033E-17,1.,0.));
#238 = ORIENTED_EDGE('',*,*,#239,.T.);
#239 = EDGE_CURVE('',#231,#240,#242,.T.);
#240 = VERTEX_POINT('',#241);
#241 = CARTESIAN_POINT('',(3.35,-12.9,5.));
#242 = ( BOUNDED_CURVE() B_SPLINE_CURVE(3,(#243,#244,#245,#246),
.UNSPECIFIED.,.F.,.F.) B_SPLINE_CURVE_WITH_KNOTS((4,4),(0.,0.5),
.PIECEWISE_BEZIER_KNOTS.) CURVE() GEOMETRIC_REPRESENTATION_ITEM() 
RATIONAL_B_SPLINE_CURVE((1.,0.333333333333,0.333333333333,1.)) 
REPRESENTATION_ITEM('') );
#243 = CARTESIAN_POINT('',(3.35,6.2,5.));
#244 = CARTESIAN_POINT('',(22.45,6.2,5.));
#245 = CARTESIAN_POINT('',(22.45,-12.9,5.));
#246 = CARTESIAN_POINT('',(3.35,-12.9,5.));
#247 = ORIENTED_EDGE('',*,*,#248,.F.);
#248 = EDGE_CURVE('',#220,#240,#249,.T.);
#249 = CIRCLE('',#250,0.2);
#250 = AXIS2_PLACEMENT_3D('',#251,#252,#253);
#251 = CARTESIAN_POINT('',(3.35,-12.9,4.8));
#252 = DIRECTION('',(-1.,2.22044604925E-16,0.));
#253 = DIRECTION('',(-2.22044604925E-16,-1.,0.));
#254 = ( BOUNDED_SURFACE() B_SPLINE_SURFACE(3,3,(
    (#255,#256,#257,#258)
    ,(#259,#260,#261,#262)
    ,(#263,#264,#265,#266)
    ,(#267,#268,#269,#270
)),.UNSPECIFIED.,.F.,.F.,.F.) B_SPLINE_SURFACE_WITH_KNOTS((4,4),(4,4),(
    0.,1.),(0.,1.),.PIECEWISE_BEZIER_KNOTS.) 
GEOMETRIC_REPRESENTATION_ITEM() RATIONAL_B_SPLINE_SURFACE((
    (1.,0.333333333333,0.333333333333,1.)
    ,(0.804737854124,0.268245951375,0.268245951375,0.804737854124)
    ,(0.804737854124,0.268245951375,0.268245951375,0.804737854124)
,(1.,0.333333333333,0.333333333333,1.
))) REPRESENTATION_ITEM('') SURFACE() );
#255 = CARTESIAN_POINT('',(3.35,6.4,4.8));
#256 = CARTESIAN_POINT('',(22.85,6.4,4.8));
#257 = CARTESIAN_POINT('',(22.85,-13.1,4.8));
#258 = CARTESIAN_POINT('',(3.35,-13.1,4.8));
#259 = CARTESIAN_POINT('',(3.35,6.4,4.917157287525));
#260 = CARTESIAN_POINT('',(22.85,6.4,4.917157287525));
#261 = CARTESIAN_POINT('',(22.85,-13.1,4.917157287525));
#262 = CARTESIAN_POINT('',(3.35,-13.1,4.917157287525));
#263 = CARTESIAN_POINT('',(3.35,6.317157287525,5.));
#264 = CARTESIAN_POINT('',(22.68431457505,6.317157287525,5.));
#265 = CARTESIAN_POINT('',(22.68431457505,-13.01715728752,5.));
#266 = CARTESIAN_POINT('',(3.35,-13.01715728752,5.));
#267 = CARTESIAN_POINT('',(3.35,6.2,5.));
#268 = CARTESIAN_POINT('',(22.45,6.2,5.));
#269 = CARTESIAN_POINT('',(22.45,-12.9,5.));
#270 = CARTESIAN_POINT('',(3.35,-12.9,5.));
#271 = ADVANCED_FACE('',(#272),#310,.T.);
#272 = FACE_BOUND('',#273,.T.);
#273 = EDGE_LOOP('',(#274,#285,#294,#303));
#274 = ORIENTED_EDGE('',*,*,#275,.T.);
#275 = EDGE_CURVE('',#276,#278,#280,.T.);
#276 = VERTEX_POINT('',#277);
#277 = CARTESIAN_POINT('',(3.35,-12.6,0.));
#278 = VERTEX_POINT('',#279);
#279 = CARTESIAN_POINT('',(3.35,5.9,0.));
#280 = ( BOUNDED_CURVE() B_SPLINE_CURVE(3,(#281,#282,#283,#284),
.UNSPECIFIED.,.F.,.F.) B_SPLINE_CURVE_WITH_KNOTS((4,4),(0.5,1.),
.PIECEWISE_BEZIER_KNOTS.) CURVE() GEOMETRIC_REPRESENTATION_ITEM() 
RATIONAL_B_SPLINE_CURVE((1.,0.333333333333,0.333333333333,1.)) 
REPRESENTATION_ITEM('') );
#281 = CARTESIAN_POINT('',(3.35,-12.6,0.));
#282 = CARTESIAN_POINT('',(21.85,-12.6,0.));
#283 = CARTESIAN_POINT('',(21.85,5.9,0.));
#284 = CARTESIAN_POINT('',(3.35,5.9,0.));
#285 = ORIENTED_EDGE('',*,*,#286,.T.);
#286 = EDGE_CURVE('',#278,#287,#289,.T.);
#287 = VERTEX_POINT('',#288);
#288 = CARTESIAN_POINT('',(3.35,6.4,0.5));
#289 = CIRCLE('',#290,0.5);
#290 = AXIS2_PLACEMENT_3D('',#291,#292,#293);
#291 = CARTESIAN_POINT('',(3.35,5.9,0.5));
#292 = DIRECTION('',(1.,-9.957992501033E-17,0.));
#293 = DIRECTION('',(9.957992501033E-17,1.,0.));
#294 = ORIENTED_EDGE('',*,*,#295,.F.);
#295 = EDGE_CURVE('',#296,#287,#298,.T.);
#296 = VERTEX_POINT('',#297);
#297 = CARTESIAN_POINT('',(3.35,-13.1,0.5));
#298 = CIRCLE('',#299,9.75);
#299 = AXIS2_PLACEMENT_3D('',#300,#301,#302);
#300 = CARTESIAN_POINT('',(3.35,-3.35,0.5));
#301 = DIRECTION('',(0.,-0.,1.));
#302 = DIRECTION('',(2.22044604925E-16,1.,0.));
#303 = ORIENTED_EDGE('',*,*,#304,.F.);
#304 = EDGE_CURVE('',#276,#296,#305,.T.);
#305 = CIRCLE('',#306,0.5);
#306 = AXIS2_PLACEMENT_3D('',#307,#308,#309);
#307 = CARTESIAN_POINT('',(3.35,-12.6,0.5));
#308 = DIRECTION('',(-1.,2.22044604925E-16,0.));
#309 = DIRECTION('',(-2.22044604925E-16,-1.,0.));
#310 = ( BOUNDED_SURFACE() B_SPLINE_SURFACE(3,3,(
    (#311,#312,#313,#314)
    ,(#315,#316,#317,#318)
    ,(#319,#320,#321,#322)
    ,(#323,#324,#325,#326
)),.UNSPECIFIED.,.F.,.F.,.F.) B_SPLINE_SURFACE_WITH_KNOTS((4,4),(4,4),(
    0.,1.),(0.,1.),.PIECEWISE_BEZIER_KNOTS.) 
GEOMETRIC_REPRESENTATION_ITEM() RATIONAL_B_SPLINE_SURFACE((
    (1.,0.333333333333,0.333333333333,1.)
    ,(0.804737854124,0.268245951375,0.268245951375,0.804737854124)
    ,(0.804737854124,0.268245951375,0.268245951375,0.804737854124)
,(1.,0.333333333333,0.333333333333,1.
))) REPRESENTATION_ITEM('') SURFACE() );
#311 = CARTESIAN_POINT('',(3.35,5.9,0.));
#312 = CARTESIAN_POINT('',(21.85,5.9,0.));
#313 = CARTESIAN_POINT('',(21.85,-12.6,0.));
#314 = CARTESIAN_POINT('',(3.35,-12.6,0.));
#315 = CARTESIAN_POINT('',(3.35,6.192893218813,-5.380361143678E-17));
#316 = CARTESIAN_POINT('',(22.43578643762,6.192893218813,
    -5.380361143678E-17));
#317 = CARTESIAN_POINT('',(22.43578643762,-12.89289321881,
    -5.380361143678E-17));
#318 = CARTESIAN_POINT('',(3.35,-12.89289321881,-5.380361143678E-17));
#319 = CARTESIAN_POINT('',(3.35,6.4,0.207106781187));
#320 = CARTESIAN_POINT('',(22.85,6.4,0.207106781187));
#321 = CARTESIAN_POINT('',(22.85,-13.1,0.207106781187));
#322 = CARTESIAN_POINT('',(3.35,-13.1,0.207106781187));
#323 = CARTESIAN_POINT('',(3.35,6.4,0.5));
#324 = CARTESIAN_POINT('',(22.85,6.4,0.5));
#325 = CARTESIAN_POINT('',(22.85,-13.1,0.5));
#326 = CARTESIAN_POINT('',(3.35,-13.1,0.5));
#327 = ADVANCED_FACE('',(#328),#360,.T.);
#328 = FACE_BOUND('',#329,.T.);
#329 = EDGE_LOOP('',(#330,#337,#345,#354));
#330 = ORIENTED_EDGE('',*,*,#331,.T.);
#331 = EDGE_CURVE('',#24,#22,#332,.T.);
#332 = CIRCLE('',#333,6.615711504992);
#333 = AXIS2_PLACEMENT_3D('',#334,#335,#336);
#334 = CARTESIAN_POINT('',(3.35,-3.35,13.132163720225));
#335 = DIRECTION('',(-0.,0.,-1.));
#336 = DIRECTION('',(-2.22044604925E-16,-1.,0.));
#337 = ORIENTED_EDGE('',*,*,#338,.T.);
#338 = EDGE_CURVE('',#22,#339,#341,.T.);
#339 = VERTEX_POINT('',#340);
#340 = CARTESIAN_POINT('',(3.35,4.15,6.5));
#341 = LINE('',#342,#343);
#342 = CARTESIAN_POINT('',(3.35,4.15,6.5));
#343 = VECTOR('',#344,1.);
#344 = DIRECTION('',(1.316085332082E-17,0.132163719941,-0.991227900703)
  );
#345 = ORIENTED_EDGE('',*,*,#346,.T.);
#346 = EDGE_CURVE('',#339,#347,#349,.T.);
#347 = VERTEX_POINT('',#348);
#348 = CARTESIAN_POINT('',(3.35,-10.85,6.5));
#349 = CIRCLE('',#350,7.5);
#350 = AXIS2_PLACEMENT_3D('',#351,#352,#353);
#351 = CARTESIAN_POINT('',(3.35,-3.35,6.5));
#352 = DIRECTION('',(0.,0.,1.));
#353 = DIRECTION('',(-2.22044604925E-16,-1.,0.));
#354 = ORIENTED_EDGE('',*,*,#355,.F.);
#355 = EDGE_CURVE('',#24,#347,#356,.T.);
#356 = LINE('',#357,#358);
#357 = CARTESIAN_POINT('',(3.35,-10.85,6.5));
#358 = VECTOR('',#359,1.);
#359 = DIRECTION('',(-2.934624097969E-17,-0.132163719941,-0.991227900703
    ));
#360 = CONICAL_SURFACE('',#361,7.5,0.132551532145);
#361 = AXIS2_PLACEMENT_3D('',#362,#363,#364);
#362 = CARTESIAN_POINT('',(3.35,-3.35,6.5));
#363 = DIRECTION('',(0.,0.,-1.));
#364 = DIRECTION('',(-2.22044604925E-16,-1.,-0.));
#365 = ADVANCED_FACE('',(#366),#382,.T.);
#366 = FACE_BOUND('',#367,.T.);
#367 = EDGE_LOOP('',(#368,#369,#375,#376));
#368 = ORIENTED_EDGE('',*,*,#192,.T.);
#369 = ORIENTED_EDGE('',*,*,#370,.T.);
#370 = EDGE_CURVE('',#78,#347,#371,.T.);
#371 = LINE('',#372,#373);
#372 = CARTESIAN_POINT('',(3.35,-10.85,5.));
#373 = VECTOR('',#374,1.);
#374 = DIRECTION('',(0.,0.,1.));
#375 = ORIENTED_EDGE('',*,*,#346,.F.);
#376 = ORIENTED_EDGE('',*,*,#377,.F.);
#377 = EDGE_CURVE('',#184,#339,#378,.T.);
#378 = LINE('',#379,#380);
#379 = CARTESIAN_POINT('',(3.35,4.15,5.));
#380 = VECTOR('',#381,1.);
#381 = DIRECTION('',(0.,0.,1.));
#382 = CYLINDRICAL_SURFACE('',#383,7.5);
#383 = AXIS2_PLACEMENT_3D('',#384,#385,#386);
#384 = CARTESIAN_POINT('',(3.35,-3.35,5.));
#385 = DIRECTION('',(0.,0.,1.));
#386 = DIRECTION('',(2.22044604925E-16,1.,0.));
#387 = ADVANCED_FACE('',(#388),#416,.T.);
#388 = FACE_BOUND('',#389,.T.);
#389 = EDGE_LOOP('',(#390,#397,#403,#410));
#390 = ORIENTED_EDGE('',*,*,#391,.T.);
#391 = EDGE_CURVE('',#287,#296,#392,.T.);
#392 = CIRCLE('',#393,9.75);
#393 = AXIS2_PLACEMENT_3D('',#394,#395,#396);
#394 = CARTESIAN_POINT('',(3.35,-3.35,0.5));
#395 = DIRECTION('',(0.,-0.,1.));
#396 = DIRECTION('',(2.22044604925E-16,1.,0.));
#397 = ORIENTED_EDGE('',*,*,#398,.T.);
#398 = EDGE_CURVE('',#296,#220,#399,.T.);
#399 = LINE('',#400,#401);
#400 = CARTESIAN_POINT('',(3.35,-13.1,0.));
#401 = VECTOR('',#402,1.);
#402 = DIRECTION('',(0.,0.,1.));
#403 = ORIENTED_EDGE('',*,*,#404,.F.);
#404 = EDGE_CURVE('',#222,#220,#405,.T.);
#405 = CIRCLE('',#406,9.75);
#406 = AXIS2_PLACEMENT_3D('',#407,#408,#409);
#407 = CARTESIAN_POINT('',(3.35,-3.35,4.8));
#408 = DIRECTION('',(0.,0.,1.));
#409 = DIRECTION('',(-2.22044604925E-16,-1.,0.));
#410 = ORIENTED_EDGE('',*,*,#411,.F.);
#411 = EDGE_CURVE('',#287,#222,#412,.T.);
#412 = LINE('',#413,#414);
#413 = CARTESIAN_POINT('',(3.35,6.4,0.));
#414 = VECTOR('',#415,1.);
#415 = DIRECTION('',(0.,0.,1.));
#416 = CYLINDRICAL_SURFACE('',#417,9.75);
#417 = AXIS2_PLACEMENT_3D('',#418,#419,#420);
#418 = CARTESIAN_POINT('',(3.35,-3.35,0.));
#419 = DIRECTION('',(0.,0.,1.));
#420 = DIRECTION('',(2.22044604925E-16,1.,0.));
#421 = ADVANCED_FACE('',(#422),#458,.T.);
#422 = FACE_BOUND('',#423,.T.);
#423 = EDGE_LOOP('',(#424,#435,#443,#452));
#424 = ORIENTED_EDGE('',*,*,#425,.F.);
#425 = EDGE_CURVE('',#426,#428,#430,.T.);
#426 = VERTEX_POINT('',#427);
#427 = CARTESIAN_POINT('',(3.35,5.4,0.));
#428 = VERTEX_POINT('',#429);
#429 = CARTESIAN_POINT('',(3.35,-12.1,0.));
#430 = CIRCLE('',#431,8.75);
#431 = AXIS2_PLACEMENT_3D('',#432,#433,#434);
#432 = CARTESIAN_POINT('',(3.35,-3.35,0.));
#433 = DIRECTION('',(0.,0.,1.));
#434 = DIRECTION('',(-2.22044604925E-16,-1.,0.));
#435 = ORIENTED_EDGE('',*,*,#436,.T.);
#436 = EDGE_CURVE('',#426,#437,#439,.T.);
#437 = VERTEX_POINT('',#438);
#438 = CARTESIAN_POINT('',(3.35,5.4,-1.E-02));
#439 = LINE('',#440,#441);
#440 = CARTESIAN_POINT('',(3.35,5.4,0.));
#441 = VECTOR('',#442,1.);
#442 = DIRECTION('',(0.,0.,-1.));
#443 = ORIENTED_EDGE('',*,*,#444,.T.);
#444 = EDGE_CURVE('',#437,#445,#447,.T.);
#445 = VERTEX_POINT('',#446);
#446 = CARTESIAN_POINT('',(3.35,-12.1,-1.E-02));
#447 = CIRCLE('',#448,8.75);
#448 = AXIS2_PLACEMENT_3D('',#449,#450,#451);
#449 = CARTESIAN_POINT('',(3.35,-3.35,-1.E-02));
#450 = DIRECTION('',(0.,0.,1.));
#451 = DIRECTION('',(-2.22044604925E-16,-1.,0.));
#452 = ORIENTED_EDGE('',*,*,#453,.F.);
#453 = EDGE_CURVE('',#428,#445,#454,.T.);
#454 = LINE('',#455,#456);
#455 = CARTESIAN_POINT('',(3.35,-12.1,0.));
#456 = VECTOR('',#457,1.);
#457 = DIRECTION('',(0.,0.,-1.));
#458 = CYLINDRICAL_SURFACE('',#459,8.75);
#459 = AXIS2_PLACEMENT_3D('',#460,#461,#462);
#460 = CARTESIAN_POINT('',(3.35,-3.35,0.));
#461 = DIRECTION('',(0.,0.,-1.));
#462 = DIRECTION('',(-2.22044604925E-16,-1.,-0.));
#463 = ADVANCED_FACE('',(#464),#500,.T.);
#464 = FACE_BOUND('',#465,.T.);
#465 = EDGE_LOOP('',(#466,#477,#485,#494));
#466 = ORIENTED_EDGE('',*,*,#467,.T.);
#467 = EDGE_CURVE('',#468,#470,#472,.T.);
#468 = VERTEX_POINT('',#469);
#469 = CARTESIAN_POINT('',(8.1,-2.85,-7.5));
#470 = VERTEX_POINT('',#471);
#471 = CARTESIAN_POINT('',(8.1,-3.85,-7.5));
#472 = CIRCLE('',#473,0.5);
#473 = AXIS2_PLACEMENT_3D('',#474,#475,#476);
#474 = CARTESIAN_POINT('',(8.1,-3.35,-7.5));
#475 = DIRECTION('',(0.,-0.,1.));
#476 = DIRECTION('',(2.22044604925E-16,1.,0.));
#477 = ORIENTED_EDGE('',*,*,#478,.T.);
#478 = EDGE_CURVE('',#470,#479,#481,.T.);
#479 = VERTEX_POINT('',#480);
#480 = CARTESIAN_POINT('',(8.1,-3.85,-1.E-02));
#481 = LINE('',#482,#483);
#482 = CARTESIAN_POINT('',(8.1,-3.85,0.));
#483 = VECTOR('',#484,1.);
#484 = DIRECTION('',(0.,0.,1.));
#485 = ORIENTED_EDGE('',*,*,#486,.T.);
#486 = EDGE_CURVE('',#479,#487,#489,.T.);
#487 = VERTEX_POINT('',#488);
#488 = CARTESIAN_POINT('',(8.1,-2.85,-1.E-02));
#489 = CIRCLE('',#490,0.5);
#490 = AXIS2_PLACEMENT_3D('',#491,#492,#493);
#491 = CARTESIAN_POINT('',(8.1,-3.35,-1.E-02));
#492 = DIRECTION('',(0.,0.,-1.));
#493 = DIRECTION('',(2.22044604925E-16,1.,0.));
#494 = ORIENTED_EDGE('',*,*,#495,.F.);
#495 = EDGE_CURVE('',#468,#487,#496,.T.);
#496 = LINE('',#497,#498);
#497 = CARTESIAN_POINT('',(8.1,-2.85,0.));
#498 = VECTOR('',#499,1.);
#499 = DIRECTION('',(0.,0.,1.));
#500 = CYLINDRICAL_SURFACE('',#501,0.5);
#501 = AXIS2_PLACEMENT_3D('',#502,#503,#504);
#502 = CARTESIAN_POINT('',(8.1,-3.35,0.));
#503 = DIRECTION('',(0.,0.,1.));
#504 = DIRECTION('',(2.22044604925E-16,1.,0.));
#505 = ADVANCED_FACE('',(#506),#542,.T.);
#506 = FACE_BOUND('',#507,.T.);
#507 = EDGE_LOOP('',(#508,#519,#527,#536));
#508 = ORIENTED_EDGE('',*,*,#509,.T.);
#509 = EDGE_CURVE('',#510,#512,#514,.T.);
#510 = VERTEX_POINT('',#511);
#511 = CARTESIAN_POINT('',(-1.4,-3.85,-1.E-02));
#512 = VERTEX_POINT('',#513);
#513 = CARTESIAN_POINT('',(-1.4,-2.85,-1.E-02));
#514 = CIRCLE('',#515,0.5);
#515 = AXIS2_PLACEMENT_3D('',#516,#517,#518);
#516 = CARTESIAN_POINT('',(-1.4,-3.35,-1.E-02));
#517 = DIRECTION('',(-0.,0.,-1.));
#518 = DIRECTION('',(-2.22044604925E-16,-1.,0.));
#519 = ORIENTED_EDGE('',*,*,#520,.T.);
#520 = EDGE_CURVE('',#512,#521,#523,.T.);
#521 = VERTEX_POINT('',#522);
#522 = CARTESIAN_POINT('',(-1.4,-2.85,-7.5));
#523 = LINE('',#524,#525);
#524 = CARTESIAN_POINT('',(-1.4,-2.85,0.));
#525 = VECTOR('',#526,1.);
#526 = DIRECTION('',(0.,0.,-1.));
#527 = ORIENTED_EDGE('',*,*,#528,.T.);
#528 = EDGE_CURVE('',#521,#529,#531,.T.);
#529 = VERTEX_POINT('',#530);
#530 = CARTESIAN_POINT('',(-1.4,-3.85,-7.5));
#531 = CIRCLE('',#532,0.5);
#532 = AXIS2_PLACEMENT_3D('',#533,#534,#535);
#533 = CARTESIAN_POINT('',(-1.4,-3.35,-7.5));
#534 = DIRECTION('',(0.,0.,1.));
#535 = DIRECTION('',(-2.22044604925E-16,-1.,0.));
#536 = ORIENTED_EDGE('',*,*,#537,.F.);
#537 = EDGE_CURVE('',#510,#529,#538,.T.);
#538 = LINE('',#539,#540);
#539 = CARTESIAN_POINT('',(-1.4,-3.85,0.));
#540 = VECTOR('',#541,1.);
#541 = DIRECTION('',(0.,0.,-1.));
#542 = CYLINDRICAL_SURFACE('',#543,0.5);
#543 = AXIS2_PLACEMENT_3D('',#544,#545,#546);
#544 = CARTESIAN_POINT('',(-1.4,-3.35,0.));
#545 = DIRECTION('',(0.,0.,-1.));
#546 = DIRECTION('',(-2.22044604925E-16,-1.,-0.));
#547 = ADVANCED_FACE('',(#548),#584,.T.);
#548 = FACE_BOUND('',#549,.T.);
#549 = EDGE_LOOP('',(#550,#561,#569,#578));
#550 = ORIENTED_EDGE('',*,*,#551,.T.);
#551 = EDGE_CURVE('',#552,#554,#556,.T.);
#552 = VERTEX_POINT('',#553);
#553 = CARTESIAN_POINT('',(6.708757210636,0.508757210636,-7.5));
#554 = VERTEX_POINT('',#555);
#555 = CARTESIAN_POINT('',(6.708757210636,-0.491242789364,-7.5));
#556 = CIRCLE('',#557,0.5);
#557 = AXIS2_PLACEMENT_3D('',#558,#559,#560);
#558 = CARTESIAN_POINT('',(6.708757210636,8.757210636E-03,-7.5));
#559 = DIRECTION('',(0.,-0.,1.));
#560 = DIRECTION('',(2.22044604925E-16,1.,0.));
#561 = ORIENTED_EDGE('',*,*,#562,.T.);
#562 = EDGE_CURVE('',#554,#563,#565,.T.);
#563 = VERTEX_POINT('',#564);
#564 = CARTESIAN_POINT('',(6.708757210636,-0.491242789364,-1.E-02));
#565 = LINE('',#566,#567);
#566 = CARTESIAN_POINT('',(6.708757210636,-0.491242789364,0.));
#567 = VECTOR('',#568,1.);
#568 = DIRECTION('',(0.,0.,1.));
#569 = ORIENTED_EDGE('',*,*,#570,.T.);
#570 = EDGE_CURVE('',#563,#571,#573,.T.);
#571 = VERTEX_POINT('',#572);
#572 = CARTESIAN_POINT('',(6.708757210636,0.508757210636,-1.E-02));
#573 = CIRCLE('',#574,0.5);
#574 = AXIS2_PLACEMENT_3D('',#575,#576,#577);
#575 = CARTESIAN_POINT('',(6.708757210636,8.757210636E-03,-1.E-02));
#576 = DIRECTION('',(0.,0.,-1.));
#577 = DIRECTION('',(2.22044604925E-16,1.,0.));
#578 = ORIENTED_EDGE('',*,*,#579,.F.);
#579 = EDGE_CURVE('',#552,#571,#580,.T.);
#580 = LINE('',#581,#582);
#581 = CARTESIAN_POINT('',(6.708757210636,0.508757210636,0.));
#582 = VECTOR('',#583,1.);
#583 = DIRECTION('',(0.,0.,1.));
#584 = CYLINDRICAL_SURFACE('',#585,0.5);
#585 = AXIS2_PLACEMENT_3D('',#586,#587,#588);
#586 = CARTESIAN_POINT('',(6.708757210636,8.757210636E-03,0.));
#587 = DIRECTION('',(0.,0.,1.));
#588 = DIRECTION('',(2.22044604925E-16,1.,0.));
#589 = ADVANCED_FACE('',(#590),#626,.T.);
#590 = FACE_BOUND('',#591,.T.);
#591 = EDGE_LOOP('',(#592,#603,#611,#620));
#592 = ORIENTED_EDGE('',*,*,#593,.T.);
#593 = EDGE_CURVE('',#594,#596,#598,.T.);
#594 = VERTEX_POINT('',#595);
#595 = CARTESIAN_POINT('',(-8.757210636E-03,-0.491242789364,-1.E-02));
#596 = VERTEX_POINT('',#597);
#597 = CARTESIAN_POINT('',(-8.757210636E-03,0.508757210636,-1.E-02));
#598 = CIRCLE('',#599,0.5);
#599 = AXIS2_PLACEMENT_3D('',#600,#601,#602);
#600 = CARTESIAN_POINT('',(-8.757210636E-03,8.757210636E-03,-1.E-02));
#601 = DIRECTION('',(-0.,0.,-1.));
#602 = DIRECTION('',(-2.22044604925E-16,-1.,0.));
#603 = ORIENTED_EDGE('',*,*,#604,.T.);
#604 = EDGE_CURVE('',#596,#605,#607,.T.);
#605 = VERTEX_POINT('',#606);
#606 = CARTESIAN_POINT('',(-8.757210636E-03,0.508757210636,-7.5));
#607 = LINE('',#608,#609);
#608 = CARTESIAN_POINT('',(-8.757210636E-03,0.508757210636,0.));
#609 = VECTOR('',#610,1.);
#610 = DIRECTION('',(0.,0.,-1.));
#611 = ORIENTED_EDGE('',*,*,#612,.T.);
#612 = EDGE_CURVE('',#605,#613,#615,.T.);
#613 = VERTEX_POINT('',#614);
#614 = CARTESIAN_POINT('',(-8.757210636E-03,-0.491242789364,-7.5));
#615 = CIRCLE('',#616,0.5);
#616 = AXIS2_PLACEMENT_3D('',#617,#618,#619);
#617 = CARTESIAN_POINT('',(-8.757210636E-03,8.757210636E-03,-7.5));
#618 = DIRECTION('',(0.,0.,1.));
#619 = DIRECTION('',(-2.22044604925E-16,-1.,0.));
#620 = ORIENTED_EDGE('',*,*,#621,.F.);
#621 = EDGE_CURVE('',#594,#613,#622,.T.);
#622 = LINE('',#623,#624);
#623 = CARTESIAN_POINT('',(-8.757210636E-03,-0.491242789364,0.));
#624 = VECTOR('',#625,1.);
#625 = DIRECTION('',(0.,0.,-1.));
#626 = CYLINDRICAL_SURFACE('',#627,0.5);
#627 = AXIS2_PLACEMENT_3D('',#628,#629,#630);
#628 = CARTESIAN_POINT('',(-8.757210636E-03,8.757210636E-03,0.));
#629 = DIRECTION('',(0.,0.,-1.));
#630 = DIRECTION('',(-2.22044604925E-16,-1.,-0.));
#631 = ADVANCED_FACE('',(#632),#668,.T.);
#632 = FACE_BOUND('',#633,.T.);
#633 = EDGE_LOOP('',(#634,#645,#653,#662));
#634 = ORIENTED_EDGE('',*,*,#635,.T.);
#635 = EDGE_CURVE('',#636,#638,#640,.T.);
#636 = VERTEX_POINT('',#637);
#637 = CARTESIAN_POINT('',(6.708757210636,-6.208757210636,-7.5));
#638 = VERTEX_POINT('',#639);
#639 = CARTESIAN_POINT('',(6.708757210636,-7.208757210636,-7.5));
#640 = CIRCLE('',#641,0.5);
#641 = AXIS2_PLACEMENT_3D('',#642,#643,#644);
#642 = CARTESIAN_POINT('',(6.708757210636,-6.708757210636,-7.5));
#643 = DIRECTION('',(0.,-0.,1.));
#644 = DIRECTION('',(2.22044604925E-16,1.,0.));
#645 = ORIENTED_EDGE('',*,*,#646,.T.);
#646 = EDGE_CURVE('',#638,#647,#649,.T.);
#647 = VERTEX_POINT('',#648);
#648 = CARTESIAN_POINT('',(6.708757210636,-7.208757210636,-1.E-02));
#649 = LINE('',#650,#651);
#650 = CARTESIAN_POINT('',(6.708757210636,-7.208757210636,0.));
#651 = VECTOR('',#652,1.);
#652 = DIRECTION('',(0.,0.,1.));
#653 = ORIENTED_EDGE('',*,*,#654,.T.);
#654 = EDGE_CURVE('',#647,#655,#657,.T.);
#655 = VERTEX_POINT('',#656);
#656 = CARTESIAN_POINT('',(6.708757210636,-6.208757210636,-1.E-02));
#657 = CIRCLE('',#658,0.5);
#658 = AXIS2_PLACEMENT_3D('',#659,#660,#661);
#659 = CARTESIAN_POINT('',(6.708757210636,-6.708757210636,-1.E-02));
#660 = DIRECTION('',(0.,0.,-1.));
#661 = DIRECTION('',(2.22044604925E-16,1.,0.));
#662 = ORIENTED_EDGE('',*,*,#663,.F.);
#663 = EDGE_CURVE('',#636,#655,#664,.T.);
#664 = LINE('',#665,#666);
#665 = CARTESIAN_POINT('',(6.708757210636,-6.208757210636,0.));
#666 = VECTOR('',#667,1.);
#667 = DIRECTION('',(0.,0.,1.));
#668 = CYLINDRICAL_SURFACE('',#669,0.5);
#669 = AXIS2_PLACEMENT_3D('',#670,#671,#672);
#670 = CARTESIAN_POINT('',(6.708757210636,-6.708757210636,0.));
#671 = DIRECTION('',(0.,0.,1.));
#672 = DIRECTION('',(2.22044604925E-16,1.,0.));
#673 = ADVANCED_FACE('',(#674),#710,.T.);
#674 = FACE_BOUND('',#675,.T.);
#675 = EDGE_LOOP('',(#676,#687,#695,#704));
#676 = ORIENTED_EDGE('',*,*,#677,.T.);
#677 = EDGE_CURVE('',#678,#680,#682,.T.);
#678 = VERTEX_POINT('',#679);
#679 = CARTESIAN_POINT('',(-8.757210636E-03,-7.208757210636,-1.E-02));
#680 = VERTEX_POINT('',#681);
#681 = CARTESIAN_POINT('',(-8.757210636E-03,-6.208757210636,-1.E-02));
#682 = CIRCLE('',#683,0.5);
#683 = AXIS2_PLACEMENT_3D('',#684,#685,#686);
#684 = CARTESIAN_POINT('',(-8.757210636E-03,-6.708757210636,-1.E-02));
#685 = DIRECTION('',(-0.,0.,-1.));
#686 = DIRECTION('',(-2.22044604925E-16,-1.,0.));
#687 = ORIENTED_EDGE('',*,*,#688,.T.);
#688 = EDGE_CURVE('',#680,#689,#691,.T.);
#689 = VERTEX_POINT('',#690);
#690 = CARTESIAN_POINT('',(-8.757210636E-03,-6.208757210636,-7.5));
#691 = LINE('',#692,#693);
#692 = CARTESIAN_POINT('',(-8.757210636E-03,-6.208757210636,0.));
#693 = VECTOR('',#694,1.);
#694 = DIRECTION('',(0.,0.,-1.));
#695 = ORIENTED_EDGE('',*,*,#696,.T.);
#696 = EDGE_CURVE('',#689,#697,#699,.T.);
#697 = VERTEX_POINT('',#698);
#698 = CARTESIAN_POINT('',(-8.757210636E-03,-7.208757210636,-7.5));
#699 = CIRCLE('',#700,0.5);
#700 = AXIS2_PLACEMENT_3D('',#701,#702,#703);
#701 = CARTESIAN_POINT('',(-8.757210636E-03,-6.708757210636,-7.5));
#702 = DIRECTION('',(0.,0.,1.));
#703 = DIRECTION('',(-2.22044604925E-16,-1.,0.));
#704 = ORIENTED_EDGE('',*,*,#705,.F.);
#705 = EDGE_CURVE('',#678,#697,#706,.T.);
#706 = LINE('',#707,#708);
#707 = CARTESIAN_POINT('',(-8.757210636E-03,-7.208757210636,0.));
#708 = VECTOR('',#709,1.);
#709 = DIRECTION('',(0.,0.,-1.));
#710 = CYLINDRICAL_SURFACE('',#711,0.5);
#711 = AXIS2_PLACEMENT_3D('',#712,#713,#714);
#712 = CARTESIAN_POINT('',(-8.757210636E-03,-6.708757210636,0.));
#713 = DIRECTION('',(0.,0.,-1.));
#714 = DIRECTION('',(-2.22044604925E-16,-1.,-0.));
#715 = ADVANCED_FACE('',(#716),#728,.T.);
#716 = FACE_BOUND('',#717,.T.);
#717 = EDGE_LOOP('',(#718,#719,#720,#721));
#718 = ORIENTED_EDGE('',*,*,#338,.F.);
#719 = ORIENTED_EDGE('',*,*,#21,.T.);
#720 = ORIENTED_EDGE('',*,*,#355,.T.);
#721 = ORIENTED_EDGE('',*,*,#722,.T.);
#722 = EDGE_CURVE('',#347,#339,#723,.T.);
#723 = CIRCLE('',#724,7.5);
#724 = AXIS2_PLACEMENT_3D('',#725,#726,#727);
#725 = CARTESIAN_POINT('',(3.35,-3.35,6.5));
#726 = DIRECTION('',(0.,0.,1.));
#727 = DIRECTION('',(-2.22044604925E-16,-1.,0.));
#728 = CONICAL_SURFACE('',#729,7.5,0.132551532145);
#729 = AXIS2_PLACEMENT_3D('',#730,#731,#732);
#730 = CARTESIAN_POINT('',(3.35,-3.35,6.5));
#731 = DIRECTION('',(0.,0.,-1.));
#732 = DIRECTION('',(-2.22044604925E-16,-1.,-0.));
#733 = ADVANCED_FACE('',(#734),#746,.T.);
#734 = FACE_BOUND('',#735,.T.);
#735 = EDGE_LOOP('',(#736,#737,#738,#739));
#736 = ORIENTED_EDGE('',*,*,#32,.F.);
#737 = ORIENTED_EDGE('',*,*,#331,.F.);
#738 = ORIENTED_EDGE('',*,*,#50,.T.);
#739 = ORIENTED_EDGE('',*,*,#740,.T.);
#740 = EDGE_CURVE('',#42,#33,#741,.T.);
#741 = ( BOUNDED_CURVE() B_SPLINE_CURVE(3,(#742,#743,#744,#745),
.UNSPECIFIED.,.F.,.F.) B_SPLINE_CURVE_WITH_KNOTS((4,4),(0.,0.5),
.PIECEWISE_BEZIER_KNOTS.) CURVE() GEOMETRIC_REPRESENTATION_ITEM() 
RATIONAL_B_SPLINE_CURVE((1.,0.333333333333,0.333333333333,1.)) 
REPRESENTATION_ITEM('') );
#742 = CARTESIAN_POINT('',(3.35,-8.974483603305,14.));
#743 = CARTESIAN_POINT('',(-7.89896720661,-8.974483603305,14.));
#744 = CARTESIAN_POINT('',(-7.89896720661,2.274483603305,14.));
#745 = CARTESIAN_POINT('',(3.35,2.274483603305,14.));
#746 = ( BOUNDED_SURFACE() B_SPLINE_SURFACE(3,3,(
    (#747,#748,#749,#750)
    ,(#751,#752,#753,#754)
    ,(#755,#756,#757,#758)
    ,(#759,#760,#761,#762
)),.UNSPECIFIED.,.F.,.F.,.F.) B_SPLINE_SURFACE_WITH_KNOTS((4,4),(4,4),(
    0.,1.),(0.,1.),.PIECEWISE_BEZIER_KNOTS.) 
GEOMETRIC_REPRESENTATION_ITEM() RATIONAL_B_SPLINE_SURFACE((
    (1.,0.333333333333,0.333333333333,1.)
    ,(0.834922744902,0.278307581634,0.278307581634,0.834922744902)
    ,(0.834922744902,0.278307581634,0.278307581634,0.834922744902)
,(1.,0.333333333333,0.333333333333,1.
))) REPRESENTATION_ITEM('') SURFACE() );
#747 = CARTESIAN_POINT('',(3.35,-9.965711503988,13.132163720091));
#748 = CARTESIAN_POINT('',(-9.88142300797,-9.965711503988,
    13.132163720091));
#749 = CARTESIAN_POINT('',(-9.88142300797,3.265711503988,13.132163720091
    ));
#750 = CARTESIAN_POINT('',(3.35,3.265711503988,13.132163720091));
#751 = CARTESIAN_POINT('',(3.35,-9.89619649131,13.653526315176));
#752 = CARTESIAN_POINT('',(-9.74239298262,-9.89619649131,13.653526315176
    ));
#753 = CARTESIAN_POINT('',(-9.74239298262,3.19619649131,13.653526315176)
  );
#754 = CARTESIAN_POINT('',(3.35,3.19619649131,13.653526315176));
#755 = CARTESIAN_POINT('',(3.35,-9.500460116603,14.));
#756 = CARTESIAN_POINT('',(-8.9509202332,-9.500460116603,14.));
#757 = CARTESIAN_POINT('',(-8.9509202332,2.800460116603,14.));
#758 = CARTESIAN_POINT('',(3.35,2.800460116603,14.));
#759 = CARTESIAN_POINT('',(3.35,-8.974483603305,14.));
#760 = CARTESIAN_POINT('',(-7.89896720661,-8.974483603305,14.));
#761 = CARTESIAN_POINT('',(-7.89896720661,2.274483603305,14.));
#762 = CARTESIAN_POINT('',(3.35,2.274483603305,14.));
#763 = ADVANCED_FACE('',(#764),#776,.T.);
#764 = FACE_BOUND('',#765,.T.);
#765 = EDGE_LOOP('',(#766,#767,#774,#775));
#766 = ORIENTED_EDGE('',*,*,#370,.F.);
#767 = ORIENTED_EDGE('',*,*,#768,.T.);
#768 = EDGE_CURVE('',#78,#184,#769,.T.);
#769 = CIRCLE('',#770,7.5);
#770 = AXIS2_PLACEMENT_3D('',#771,#772,#773);
#771 = CARTESIAN_POINT('',(3.35,-3.35,6.));
#772 = DIRECTION('',(0.,-0.,1.));
#773 = DIRECTION('',(2.22044604925E-16,1.,0.));
#774 = ORIENTED_EDGE('',*,*,#377,.T.);
#775 = ORIENTED_EDGE('',*,*,#722,.F.);
#776 = CYLINDRICAL_SURFACE('',#777,7.5);
#777 = AXIS2_PLACEMENT_3D('',#778,#779,#780);
#778 = CARTESIAN_POINT('',(3.35,-3.35,5.));
#779 = DIRECTION('',(0.,0.,1.));
#780 = DIRECTION('',(2.22044604925E-16,1.,0.));
#781 = ADVANCED_FACE('',(#782),#786,.F.);
#782 = FACE_BOUND('',#783,.T.);
#783 = EDGE_LOOP('',(#784,#785));
#784 = ORIENTED_EDGE('',*,*,#740,.F.);
#785 = ORIENTED_EDGE('',*,*,#41,.F.);
#786 = PLANE('',#787);
#787 = AXIS2_PLACEMENT_3D('',#788,#789,#790);
#788 = CARTESIAN_POINT('',(3.35,-3.35,14.));
#789 = DIRECTION('',(0.,0.,-1.));
#790 = DIRECTION('',(-2.22044604925E-16,-1.,-0.));
#791 = ADVANCED_FACE('',(#792),#890,.F.);
#792 = FACE_BOUND('',#793,.F.);
#793 = EDGE_LOOP('',(#794,#887,#888,#889));
#794 = ORIENTED_EDGE('',*,*,#795,.T.);
#795 = EDGE_CURVE('',#89,#80,#796,.T.);
#796 = B_SPLINE_CURVE_WITH_KNOTS('',3,(#797,#798,#799,#800,#801,#802,
    #803,#804,#805,#806,#807,#808,#809,#810,#811,#812,#813,#814,#815,
    #816,#817,#818,#819,#820,#821,#822,#823,#824,#825,#826,#827,#828,
    #829,#830,#831,#832,#833,#834,#835,#836,#837,#838,#839,#840,#841,
    #842,#843,#844,#845,#846,#847,#848,#849,#850,#851,#852,#853,#854,
    #855,#856,#857,#858,#859,#860,#861,#862,#863,#864,#865,#866,#867,
    #868,#869,#870,#871,#872,#873,#874,#875,#876,#877,#878,#879,#880,
    #881,#882,#883,#884,#885,#886),.UNSPECIFIED.,.F.,.F.,(4,1,1,1,2,2,1,
    1,1,2,2,1,1,2,2,2,1,1,2,2,1,1,1,2,2,1,1,1,2,2,2,1,1,1,2,2,1,1,1,2,2,
    1,1,2,2,2,1,1,2,2,1,1,1,2,2,1,1,1,2,2,4),(0.,1.5625E-02,2.34375E-02,
    2.734375E-02,2.9296875E-02,3.125E-02,4.6875E-02,5.46875E-02,
    5.859375E-02,6.0546875E-02,6.25E-02,7.8125E-02,8.59375E-02,
    8.984375E-02,9.375E-02,0.125,0.140625,0.1484375,0.15234375,0.15625,
    0.171875,0.1796875,0.18359375,0.185546875,0.1875,0.203125,0.2109375,
    0.21484375,0.216796875,0.21875,0.25,0.265625,0.2734375,0.27734375,
    0.279296875,0.28125,0.296875,0.3046875,0.30859375,0.310546875,0.3125
    ,0.328125,0.3359375,0.33984375,0.34375,0.375,0.390625,0.3984375,
    0.40234375,0.40625,0.421875,0.4296875,0.43359375,0.435546875,0.4375,
    0.453125,0.4609375,0.46484375,0.466796875,0.46875,0.5),
  .UNSPECIFIED.);
#797 = CARTESIAN_POINT('',(3.35,5.15,5.));
#798 = CARTESIAN_POINT('',(3.610039739982,5.15,5.));
#799 = CARTESIAN_POINT('',(3.998405288156,5.132261953943,5.));
#800 = CARTESIAN_POINT('',(4.448533819545,5.080525986275,5.));
#801 = CARTESIAN_POINT('',(4.672856933203,5.046897607291,5.));
#802 = CARTESIAN_POINT('',(4.768836592191,5.030822503052,5.));
#803 = CARTESIAN_POINT('',(4.832787738563,5.019736224266,5.));
#804 = CARTESIAN_POINT('',(4.862782063377,5.014371809232,5.));
#805 = CARTESIAN_POINT('',(5.167917002513,4.957886210015,5.));
#806 = CARTESIAN_POINT('',(5.569105180991,4.863367259807,5.));
#807 = CARTESIAN_POINT('',(6.027255843571,4.719486719871,5.));
#808 = CARTESIAN_POINT('',(6.253855621783,4.639144342064,5.));
#809 = CARTESIAN_POINT('',(6.350439336785,4.602911442753,5.));
#810 = CARTESIAN_POINT('',(6.414710596641,4.578356076172,5.));
#811 = CARTESIAN_POINT('',(6.44540135291,4.566427117889,5.));
#812 = CARTESIAN_POINT('',(6.746034458204,4.447388088164,5.));
#813 = CARTESIAN_POINT('',(7.136766262463,4.269436395805,5.));
#814 = CARTESIAN_POINT('',(7.574923445863,4.02816836245,5.));
#815 = CARTESIAN_POINT('',(7.758912969842,3.917555406954,5.));
#816 = CARTESIAN_POINT('',(7.880729957816,3.842210687785,5.));
#817 = CARTESIAN_POINT('',(7.939854172638,3.804628131388,5.));
#818 = CARTESIAN_POINT('',(8.49271275286,3.443131557126,5.));
#819 = CARTESIAN_POINT('',(8.945249404045,3.075618480265,5.));
#820 = CARTESIAN_POINT('',(9.567986758106,2.452802219996,5.));
#821 = CARTESIAN_POINT('',(9.86167787228,2.127207562889,5.));
#822 = CARTESIAN_POINT('',(10.173381770485,1.722520707398,5.));
#823 = CARTESIAN_POINT('',(10.300340069359,1.543763536002,5.));
#824 = CARTESIAN_POINT('',(10.383505805037,1.423409877824,5.));
#825 = CARTESIAN_POINT('',(10.425146439571,1.36142679121,5.));
#826 = CARTESIAN_POINT('',(10.62172346851,1.060707354027,5.));
#827 = CARTESIAN_POINT('',(10.838262025083,0.689965957655,5.));
#828 = CARTESIAN_POINT('',(11.057021054314,0.240147702987,5.));
#829 = CARTESIAN_POINT('',(11.157933247237,1.0916919262E-02,5.));
#830 = CARTESIAN_POINT('',(11.199366903841,-8.8250914418E-02,5.));
#831 = CARTESIAN_POINT('',(11.226586135782,-0.1545685967,5.));
#832 = CARTESIAN_POINT('',(11.240510635559,-0.189135184852,5.));
#833 = CARTESIAN_POINT('',(11.354719946803,-0.477673239698,5.));
#834 = CARTESIAN_POINT('',(11.487721371696,-0.867796828649,5.));
#835 = CARTESIAN_POINT('',(11.609153801398,-1.33240183512,5.));
#836 = CARTESIAN_POINT('',(11.661436041415,-1.567069543195,5.));
#837 = CARTESIAN_POINT('',(11.682035435386,-1.668148247693,5.));
#838 = CARTESIAN_POINT('',(11.69536674685,-1.735646679493,5.));
#839 = CARTESIAN_POINT('',(11.702180923497,-1.771340600792,5.));
#840 = CARTESIAN_POINT('',(11.802730960251,-2.31488931377,5.));
#841 = CARTESIAN_POINT('',(11.850032460461,-2.829745168778,5.));
#842 = CARTESIAN_POINT('',(11.849983769769,-3.610127415611,5.));
#843 = CARTESIAN_POINT('',(11.832233551039,-3.998558720507,5.));
#844 = CARTESIAN_POINT('',(11.780504684097,-4.448648893809,5.));
#845 = CARTESIAN_POINT('',(11.746885181021,-4.672924059857,5.));
#846 = CARTESIAN_POINT('',(11.73081502193,-4.768877005177,5.));
#847 = CARTESIAN_POINT('',(11.719732293507,-4.832808972504,5.));
#848 = CARTESIAN_POINT('',(11.714371809232,-4.862782063377,5.));
#849 = CARTESIAN_POINT('',(11.657886210015,-5.167917002512,5.));
#850 = CARTESIAN_POINT('',(11.563367259807,-5.569105180991,5.));
#851 = CARTESIAN_POINT('',(11.419486719872,-6.02725584357,5.));
#852 = CARTESIAN_POINT('',(11.339144342064,-6.253855621782,5.));
#853 = CARTESIAN_POINT('',(11.302911442753,-6.350439336785,5.));
#854 = CARTESIAN_POINT('',(11.278356076172,-6.414710596641,5.));
#855 = CARTESIAN_POINT('',(11.266427117889,-6.44540135291,5.));
#856 = CARTESIAN_POINT('',(11.147388088166,-6.746034458201,5.));
#857 = CARTESIAN_POINT('',(10.969436395808,-7.136766262456,5.));
#858 = CARTESIAN_POINT('',(10.728168362452,-7.574923445858,5.));
#859 = CARTESIAN_POINT('',(10.617555406955,-7.758912969838,5.));
#860 = CARTESIAN_POINT('',(10.542210687786,-7.880729957814,5.));
#861 = CARTESIAN_POINT('',(10.504628131387,-7.939854172639,5.));
#862 = CARTESIAN_POINT('',(10.143131557133,-8.492712752852,5.));
#863 = CARTESIAN_POINT('',(9.775618480263,-8.945249404047,5.));
#864 = CARTESIAN_POINT('',(9.152802219997,-9.567986758105,5.));
#865 = CARTESIAN_POINT('',(8.827207562892,-9.861677872278,5.));
#866 = CARTESIAN_POINT('',(8.4225207074,-10.17338177048,5.));
#867 = CARTESIAN_POINT('',(8.243763536003,-10.30034006935,5.));
#868 = CARTESIAN_POINT('',(8.123409877824,-10.38350580503,5.));
#869 = CARTESIAN_POINT('',(8.06142679121,-10.42514643957,5.));
#870 = CARTESIAN_POINT('',(7.760707354027,-10.62172346851,5.));
#871 = CARTESIAN_POINT('',(7.389965957655,-10.83826202508,5.));
#872 = CARTESIAN_POINT('',(6.940147702988,-11.05702105431,5.));
#873 = CARTESIAN_POINT('',(6.710916919262,-11.15793324723,5.));
#874 = CARTESIAN_POINT('',(6.611749085582,-11.19936690384,5.));
#875 = CARTESIAN_POINT('',(6.5454314033,-11.22658613578,5.));
#876 = CARTESIAN_POINT('',(6.510864815148,-11.24051063555,5.));
#877 = CARTESIAN_POINT('',(6.222326760303,-11.3547199468,5.));
#878 = CARTESIAN_POINT('',(5.832203171351,-11.48772137169,5.));
#879 = CARTESIAN_POINT('',(5.367598164881,-11.60915380139,5.));
#880 = CARTESIAN_POINT('',(5.132930456805,-11.66143604141,5.));
#881 = CARTESIAN_POINT('',(5.031851752307,-11.68203543538,5.));
#882 = CARTESIAN_POINT('',(4.964353320507,-11.69536674685,5.));
#883 = CARTESIAN_POINT('',(4.928659399208,-11.70218092349,5.));
#884 = CARTESIAN_POINT('',(4.38511068623,-11.80273096025,5.));
#885 = CARTESIAN_POINT('',(3.870254831222,-11.85003246046,5.));
#886 = CARTESIAN_POINT('',(3.35,-11.85,5.));
#887 = ORIENTED_EDGE('',*,*,#77,.F.);
#888 = ORIENTED_EDGE('',*,*,#768,.T.);
#889 = ORIENTED_EDGE('',*,*,#183,.T.);
#890 = ( BOUNDED_SURFACE() B_SPLINE_SURFACE(3,3,(
    (#891,#892,#893,#894)
    ,(#895,#896,#897,#898)
    ,(#899,#900,#901,#902)
    ,(#903,#904,#905,#906
)),.UNSPECIFIED.,.F.,.F.,.F.) B_SPLINE_SURFACE_WITH_KNOTS((4,4),(4,4),(
    0.,1.),(0.,1.),.PIECEWISE_BEZIER_KNOTS.) 
GEOMETRIC_REPRESENTATION_ITEM() RATIONAL_B_SPLINE_SURFACE((
    (1.,0.333333333333,0.333333333333,1.)
    ,(0.804737854124,0.268245951375,0.268245951375,0.804737854124)
    ,(0.804737854124,0.268245951375,0.268245951375,0.804737854124)
,(1.,0.333333333333,0.333333333333,1.
))) REPRESENTATION_ITEM('') SURFACE() );
#891 = CARTESIAN_POINT('',(3.35,4.15,6.));
#892 = CARTESIAN_POINT('',(18.35,4.15,6.));
#893 = CARTESIAN_POINT('',(18.35,-10.85,6.));
#894 = CARTESIAN_POINT('',(3.35,-10.85,6.));
#895 = CARTESIAN_POINT('',(3.35,4.15,5.414213562373));
#896 = CARTESIAN_POINT('',(18.35,4.15,5.414213562373));
#897 = CARTESIAN_POINT('',(18.35,-10.85,5.414213562373));
#898 = CARTESIAN_POINT('',(3.35,-10.85,5.414213562373));
#899 = CARTESIAN_POINT('',(3.35,4.564213562373,5.));
#900 = CARTESIAN_POINT('',(19.17842712474,4.564213562373,5.));
#901 = CARTESIAN_POINT('',(19.17842712474,-11.26421356237,5.));
#902 = CARTESIAN_POINT('',(3.35,-11.26421356237,5.));
#903 = CARTESIAN_POINT('',(3.35,5.15,5.));
#904 = CARTESIAN_POINT('',(20.35,5.15,5.));
#905 = CARTESIAN_POINT('',(20.35,-11.85,5.));
#906 = CARTESIAN_POINT('',(3.35,-11.85,5.));
#907 = ADVANCED_FACE('',(#908,#912),#922,.F.);
#908 = FACE_BOUND('',#909,.T.);
#909 = EDGE_LOOP('',(#910,#911));
#910 = ORIENTED_EDGE('',*,*,#88,.T.);
#911 = ORIENTED_EDGE('',*,*,#795,.T.);
#912 = FACE_BOUND('',#913,.T.);
#913 = EDGE_LOOP('',(#914,#921));
#914 = ORIENTED_EDGE('',*,*,#915,.F.);
#915 = EDGE_CURVE('',#240,#231,#916,.T.);
#916 = ( BOUNDED_CURVE() B_SPLINE_CURVE(3,(#917,#918,#919,#920),
.UNSPECIFIED.,.F.,.F.) B_SPLINE_CURVE_WITH_KNOTS((4,4),(0.5,1.),
.PIECEWISE_BEZIER_KNOTS.) CURVE() GEOMETRIC_REPRESENTATION_ITEM() 
RATIONAL_B_SPLINE_CURVE((1.,0.333333333333,0.333333333333,1.)) 
REPRESENTATION_ITEM('') );
#917 = CARTESIAN_POINT('',(3.35,-12.9,5.));
#918 = CARTESIAN_POINT('',(-15.75,-12.9,5.));
#919 = CARTESIAN_POINT('',(-15.75,6.2,5.));
#920 = CARTESIAN_POINT('',(3.35,6.2,5.));
#921 = ORIENTED_EDGE('',*,*,#239,.F.);
#922 = PLANE('',#923);
#923 = AXIS2_PLACEMENT_3D('',#924,#925,#926);
#924 = CARTESIAN_POINT('',(3.35,-3.35,5.));
#925 = DIRECTION('',(0.,0.,-1.));
#926 = DIRECTION('',(-2.22044604925E-16,-1.,-0.));
#927 = ADVANCED_FACE('',(#928),#934,.T.);
#928 = FACE_BOUND('',#929,.T.);
#929 = EDGE_LOOP('',(#930,#931,#932,#933));
#930 = ORIENTED_EDGE('',*,*,#230,.F.);
#931 = ORIENTED_EDGE('',*,*,#404,.T.);
#932 = ORIENTED_EDGE('',*,*,#248,.T.);
#933 = ORIENTED_EDGE('',*,*,#915,.T.);
#934 = ( BOUNDED_SURFACE() B_SPLINE_SURFACE(3,3,(
    (#935,#936,#937,#938)
    ,(#939,#940,#941,#942)
    ,(#943,#944,#945,#946)
    ,(#947,#948,#949,#950
)),.UNSPECIFIED.,.F.,.F.,.F.) B_SPLINE_SURFACE_WITH_KNOTS((4,4),(4,4),(
    0.,1.),(0.,1.),.PIECEWISE_BEZIER_KNOTS.) 
GEOMETRIC_REPRESENTATION_ITEM() RATIONAL_B_SPLINE_SURFACE((
    (1.,0.333333333333,0.333333333333,1.)
    ,(0.804737854124,0.268245951375,0.268245951375,0.804737854124)
    ,(0.804737854124,0.268245951375,0.268245951375,0.804737854124)
,(1.,0.333333333333,0.333333333333,1.
))) REPRESENTATION_ITEM('') SURFACE() );
#935 = CARTESIAN_POINT('',(3.35,-13.1,4.8));
#936 = CARTESIAN_POINT('',(-16.15,-13.1,4.8));
#937 = CARTESIAN_POINT('',(-16.15,6.4,4.8));
#938 = CARTESIAN_POINT('',(3.35,6.4,4.8));
#939 = CARTESIAN_POINT('',(3.35,-13.1,4.917157287525));
#940 = CARTESIAN_POINT('',(-16.15,-13.1,4.917157287525));
#941 = CARTESIAN_POINT('',(-16.15,6.4,4.917157287525));
#942 = CARTESIAN_POINT('',(3.35,6.4,4.917157287525));
#943 = CARTESIAN_POINT('',(3.35,-13.01715728752,5.));
#944 = CARTESIAN_POINT('',(-15.98431457505,-13.01715728752,5.));
#945 = CARTESIAN_POINT('',(-15.98431457505,6.317157287525,5.));
#946 = CARTESIAN_POINT('',(3.35,6.317157287525,5.));
#947 = CARTESIAN_POINT('',(3.35,-12.9,5.));
#948 = CARTESIAN_POINT('',(-15.75,-12.9,5.));
#949 = CARTESIAN_POINT('',(-15.75,6.2,5.));
#950 = CARTESIAN_POINT('',(3.35,6.2,5.));
#951 = ADVANCED_FACE('',(#952),#958,.T.);
#952 = FACE_BOUND('',#953,.T.);
#953 = EDGE_LOOP('',(#954,#955,#956,#957));
#954 = ORIENTED_EDGE('',*,*,#398,.F.);
#955 = ORIENTED_EDGE('',*,*,#295,.T.);
#956 = ORIENTED_EDGE('',*,*,#411,.T.);
#957 = ORIENTED_EDGE('',*,*,#219,.F.);
#958 = CYLINDRICAL_SURFACE('',#959,9.75);
#959 = AXIS2_PLACEMENT_3D('',#960,#961,#962);
#960 = CARTESIAN_POINT('',(3.35,-3.35,0.));
#961 = DIRECTION('',(0.,0.,1.));
#962 = DIRECTION('',(2.22044604925E-16,1.,0.));
#963 = ADVANCED_FACE('',(#964),#976,.T.);
#964 = FACE_BOUND('',#965,.T.);
#965 = EDGE_LOOP('',(#966,#967,#974,#975));
#966 = ORIENTED_EDGE('',*,*,#286,.F.);
#967 = ORIENTED_EDGE('',*,*,#968,.T.);
#968 = EDGE_CURVE('',#278,#276,#969,.T.);
#969 = ( BOUNDED_CURVE() B_SPLINE_CURVE(3,(#970,#971,#972,#973),
.UNSPECIFIED.,.F.,.F.) B_SPLINE_CURVE_WITH_KNOTS((4,4),(0.,0.5),
.PIECEWISE_BEZIER_KNOTS.) CURVE() GEOMETRIC_REPRESENTATION_ITEM() 
RATIONAL_B_SPLINE_CURVE((1.,0.333333333333,0.333333333333,1.)) 
REPRESENTATION_ITEM('') );
#970 = CARTESIAN_POINT('',(3.35,5.9,0.));
#971 = CARTESIAN_POINT('',(-15.15,5.9,0.));
#972 = CARTESIAN_POINT('',(-15.15,-12.6,0.));
#973 = CARTESIAN_POINT('',(3.35,-12.6,0.));
#974 = ORIENTED_EDGE('',*,*,#304,.T.);
#975 = ORIENTED_EDGE('',*,*,#391,.F.);
#976 = ( BOUNDED_SURFACE() B_SPLINE_SURFACE(3,3,(
    (#977,#978,#979,#980)
    ,(#981,#982,#983,#984)
    ,(#985,#986,#987,#988)
    ,(#989,#990,#991,#992
)),.UNSPECIFIED.,.F.,.F.,.F.) B_SPLINE_SURFACE_WITH_KNOTS((4,4),(4,4),(
    0.,1.),(0.,1.),.PIECEWISE_BEZIER_KNOTS.) 
GEOMETRIC_REPRESENTATION_ITEM() RATIONAL_B_SPLINE_SURFACE((
    (1.,0.333333333333,0.333333333333,1.)
    ,(0.804737854124,0.268245951375,0.268245951375,0.804737854124)
    ,(0.804737854124,0.268245951375,0.268245951375,0.804737854124)
,(1.,0.333333333333,0.333333333333,1.
))) REPRESENTATION_ITEM('') SURFACE() );
#977 = CARTESIAN_POINT('',(3.35,-12.6,0.));
#978 = CARTESIAN_POINT('',(-15.15,-12.6,0.));
#979 = CARTESIAN_POINT('',(-15.15,5.9,0.));
#980 = CARTESIAN_POINT('',(3.35,5.9,0.));
#981 = CARTESIAN_POINT('',(3.35,-12.89289321881,-5.380361143678E-17));
#982 = CARTESIAN_POINT('',(-15.73578643762,-12.89289321881,
    -5.380361143678E-17));
#983 = CARTESIAN_POINT('',(-15.73578643762,6.192893218813,
    -5.380361143678E-17));
#984 = CARTESIAN_POINT('',(3.35,6.192893218813,-5.380361143678E-17));
#985 = CARTESIAN_POINT('',(3.35,-13.1,0.207106781187));
#986 = CARTESIAN_POINT('',(-16.15,-13.1,0.207106781187));
#987 = CARTESIAN_POINT('',(-16.15,6.4,0.207106781187));
#988 = CARTESIAN_POINT('',(3.35,6.4,0.207106781187));
#989 = CARTESIAN_POINT('',(3.35,-13.1,0.5));
#990 = CARTESIAN_POINT('',(-16.15,-13.1,0.5));
#991 = CARTESIAN_POINT('',(-16.15,6.4,0.5));
#992 = CARTESIAN_POINT('',(3.35,6.4,0.5));
#993 = ADVANCED_FACE('',(#994,#1004),#1008,.T.);
#994 = FACE_BOUND('',#995,.T.);
#995 = EDGE_LOOP('',(#996,#1003));
#996 = ORIENTED_EDGE('',*,*,#997,.T.);
#997 = EDGE_CURVE('',#428,#426,#998,.T.);
#998 = CIRCLE('',#999,8.75);
#999 = AXIS2_PLACEMENT_3D('',#1000,#1001,#1002);
#1000 = CARTESIAN_POINT('',(3.35,-3.35,0.));
#1001 = DIRECTION('',(0.,0.,1.));
#1002 = DIRECTION('',(-2.22044604925E-16,-1.,0.));
#1003 = ORIENTED_EDGE('',*,*,#425,.T.);
#1004 = FACE_BOUND('',#1005,.T.);
#1005 = EDGE_LOOP('',(#1006,#1007));
#1006 = ORIENTED_EDGE('',*,*,#275,.F.);
#1007 = ORIENTED_EDGE('',*,*,#968,.F.);
#1008 = PLANE('',#1009);
#1009 = AXIS2_PLACEMENT_3D('',#1010,#1011,#1012);
#1010 = CARTESIAN_POINT('',(3.35,-3.35,0.));
#1011 = DIRECTION('',(0.,0.,-1.));
#1012 = DIRECTION('',(-2.22044604925E-16,-1.,-0.));
#1013 = ADVANCED_FACE('',(#1014),#1026,.T.);
#1014 = FACE_BOUND('',#1015,.T.);
#1015 = EDGE_LOOP('',(#1016,#1017,#1018,#1019));
#1016 = ORIENTED_EDGE('',*,*,#436,.F.);
#1017 = ORIENTED_EDGE('',*,*,#997,.F.);
#1018 = ORIENTED_EDGE('',*,*,#453,.T.);
#1019 = ORIENTED_EDGE('',*,*,#1020,.T.);
#1020 = EDGE_CURVE('',#445,#437,#1021,.T.);
#1021 = CIRCLE('',#1022,8.75);
#1022 = AXIS2_PLACEMENT_3D('',#1023,#1024,#1025);
#1023 = CARTESIAN_POINT('',(3.35,-3.35,-1.E-02));
#1024 = DIRECTION('',(0.,0.,1.));
#1025 = DIRECTION('',(-2.22044604925E-16,-1.,0.));
#1026 = CYLINDRICAL_SURFACE('',#1027,8.75);
#1027 = AXIS2_PLACEMENT_3D('',#1028,#1029,#1030);
#1028 = CARTESIAN_POINT('',(3.35,-3.35,0.));
#1029 = DIRECTION('',(0.,0.,-1.));
#1030 = DIRECTION('',(-2.22044604925E-16,-1.,-0.));
#1031 = ADVANCED_FACE('',(#1032,#1042,#1052,#1062,#1072,#1082,#1092),
  #1096,.F.);
#1032 = FACE_BOUND('',#1033,.T.);
#1033 = EDGE_LOOP('',(#1034,#1041));
#1034 = ORIENTED_EDGE('',*,*,#1035,.F.);
#1035 = EDGE_CURVE('',#487,#479,#1036,.T.);
#1036 = CIRCLE('',#1037,0.5);
#1037 = AXIS2_PLACEMENT_3D('',#1038,#1039,#1040);
#1038 = CARTESIAN_POINT('',(8.1,-3.35,-1.E-02));
#1039 = DIRECTION('',(0.,0.,-1.));
#1040 = DIRECTION('',(2.22044604925E-16,1.,0.));
#1041 = ORIENTED_EDGE('',*,*,#486,.F.);
#1042 = FACE_BOUND('',#1043,.T.);
#1043 = EDGE_LOOP('',(#1044,#1045));
#1044 = ORIENTED_EDGE('',*,*,#509,.F.);
#1045 = ORIENTED_EDGE('',*,*,#1046,.F.);
#1046 = EDGE_CURVE('',#512,#510,#1047,.T.);
#1047 = CIRCLE('',#1048,0.5);
#1048 = AXIS2_PLACEMENT_3D('',#1049,#1050,#1051);
#1049 = CARTESIAN_POINT('',(-1.4,-3.35,-1.E-02));
#1050 = DIRECTION('',(-0.,0.,-1.));
#1051 = DIRECTION('',(-2.22044604925E-16,-1.,0.));
#1052 = FACE_BOUND('',#1053,.T.);
#1053 = EDGE_LOOP('',(#1054,#1061));
#1054 = ORIENTED_EDGE('',*,*,#1055,.F.);
#1055 = EDGE_CURVE('',#571,#563,#1056,.T.);
#1056 = CIRCLE('',#1057,0.5);
#1057 = AXIS2_PLACEMENT_3D('',#1058,#1059,#1060);
#1058 = CARTESIAN_POINT('',(6.708757210636,8.757210636E-03,-1.E-02));
#1059 = DIRECTION('',(0.,0.,-1.));
#1060 = DIRECTION('',(2.22044604925E-16,1.,0.));
#1061 = ORIENTED_EDGE('',*,*,#570,.F.);
#1062 = FACE_BOUND('',#1063,.T.);
#1063 = EDGE_LOOP('',(#1064,#1065));
#1064 = ORIENTED_EDGE('',*,*,#593,.F.);
#1065 = ORIENTED_EDGE('',*,*,#1066,.F.);
#1066 = EDGE_CURVE('',#596,#594,#1067,.T.);
#1067 = CIRCLE('',#1068,0.5);
#1068 = AXIS2_PLACEMENT_3D('',#1069,#1070,#1071);
#1069 = CARTESIAN_POINT('',(-8.757210636E-03,8.757210636E-03,-1.E-02));
#1070 = DIRECTION('',(-0.,0.,-1.));
#1071 = DIRECTION('',(-2.22044604925E-16,-1.,0.));
#1072 = FACE_BOUND('',#1073,.T.);
#1073 = EDGE_LOOP('',(#1074,#1081));
#1074 = ORIENTED_EDGE('',*,*,#1075,.F.);
#1075 = EDGE_CURVE('',#655,#647,#1076,.T.);
#1076 = CIRCLE('',#1077,0.5);
#1077 = AXIS2_PLACEMENT_3D('',#1078,#1079,#1080);
#1078 = CARTESIAN_POINT('',(6.708757210636,-6.708757210636,-1.E-02));
#1079 = DIRECTION('',(0.,0.,-1.));
#1080 = DIRECTION('',(2.22044604925E-16,1.,0.));
#1081 = ORIENTED_EDGE('',*,*,#654,.F.);
#1082 = FACE_BOUND('',#1083,.T.);
#1083 = EDGE_LOOP('',(#1084,#1085));
#1084 = ORIENTED_EDGE('',*,*,#677,.F.);
#1085 = ORIENTED_EDGE('',*,*,#1086,.F.);
#1086 = EDGE_CURVE('',#680,#678,#1087,.T.);
#1087 = CIRCLE('',#1088,0.5);
#1088 = AXIS2_PLACEMENT_3D('',#1089,#1090,#1091);
#1089 = CARTESIAN_POINT('',(-8.757210636E-03,-6.708757210636,-1.E-02));
#1090 = DIRECTION('',(-0.,0.,-1.));
#1091 = DIRECTION('',(-2.22044604925E-16,-1.,0.));
#1092 = FACE_BOUND('',#1093,.T.);
#1093 = EDGE_LOOP('',(#1094,#1095));
#1094 = ORIENTED_EDGE('',*,*,#1020,.F.);
#1095 = ORIENTED_EDGE('',*,*,#444,.F.);
#1096 = PLANE('',#1097);
#1097 = AXIS2_PLACEMENT_3D('',#1098,#1099,#1100);
#1098 = CARTESIAN_POINT('',(3.35,-3.35,-1.E-02));
#1099 = DIRECTION('',(0.,0.,1.));
#1100 = DIRECTION('',(2.22044604925E-16,1.,0.));
#1101 = ADVANCED_FACE('',(#1102),#1114,.T.);
#1102 = FACE_BOUND('',#1103,.T.);
#1103 = EDGE_LOOP('',(#1104,#1105,#1112,#1113));
#1104 = ORIENTED_EDGE('',*,*,#478,.F.);
#1105 = ORIENTED_EDGE('',*,*,#1106,.T.);
#1106 = EDGE_CURVE('',#470,#468,#1107,.T.);
#1107 = CIRCLE('',#1108,0.5);
#1108 = AXIS2_PLACEMENT_3D('',#1109,#1110,#1111);
#1109 = CARTESIAN_POINT('',(8.1,-3.35,-7.5));
#1110 = DIRECTION('',(0.,-0.,1.));
#1111 = DIRECTION('',(2.22044604925E-16,1.,0.));
#1112 = ORIENTED_EDGE('',*,*,#495,.T.);
#1113 = ORIENTED_EDGE('',*,*,#1035,.T.);
#1114 = CYLINDRICAL_SURFACE('',#1115,0.5);
#1115 = AXIS2_PLACEMENT_3D('',#1116,#1117,#1118);
#1116 = CARTESIAN_POINT('',(8.1,-3.35,0.));
#1117 = DIRECTION('',(0.,0.,1.));
#1118 = DIRECTION('',(2.22044604925E-16,1.,0.));
#1119 = ADVANCED_FACE('',(#1120),#1132,.T.);
#1120 = FACE_BOUND('',#1121,.T.);
#1121 = EDGE_LOOP('',(#1122,#1123,#1124,#1125));
#1122 = ORIENTED_EDGE('',*,*,#520,.F.);
#1123 = ORIENTED_EDGE('',*,*,#1046,.T.);
#1124 = ORIENTED_EDGE('',*,*,#537,.T.);
#1125 = ORIENTED_EDGE('',*,*,#1126,.T.);
#1126 = EDGE_CURVE('',#529,#521,#1127,.T.);
#1127 = CIRCLE('',#1128,0.5);
#1128 = AXIS2_PLACEMENT_3D('',#1129,#1130,#1131);
#1129 = CARTESIAN_POINT('',(-1.4,-3.35,-7.5));
#1130 = DIRECTION('',(0.,0.,1.));
#1131 = DIRECTION('',(-2.22044604925E-16,-1.,0.));
#1132 = CYLINDRICAL_SURFACE('',#1133,0.5);
#1133 = AXIS2_PLACEMENT_3D('',#1134,#1135,#1136);
#1134 = CARTESIAN_POINT('',(-1.4,-3.35,0.));
#1135 = DIRECTION('',(0.,0.,-1.));
#1136 = DIRECTION('',(-2.22044604925E-16,-1.,-0.));
#1137 = ADVANCED_FACE('',(#1138),#1150,.T.);
#1138 = FACE_BOUND('',#1139,.T.);
#1139 = EDGE_LOOP('',(#1140,#1141,#1148,#1149));
#1140 = ORIENTED_EDGE('',*,*,#562,.F.);
#1141 = ORIENTED_EDGE('',*,*,#1142,.T.);
#1142 = EDGE_CURVE('',#554,#552,#1143,.T.);
#1143 = CIRCLE('',#1144,0.5);
#1144 = AXIS2_PLACEMENT_3D('',#1145,#1146,#1147);
#1145 = CARTESIAN_POINT('',(6.708757210636,8.757210636E-03,-7.5));
#1146 = DIRECTION('',(0.,-0.,1.));
#1147 = DIRECTION('',(2.22044604925E-16,1.,0.));
#1148 = ORIENTED_EDGE('',*,*,#579,.T.);
#1149 = ORIENTED_EDGE('',*,*,#1055,.T.);
#1150 = CYLINDRICAL_SURFACE('',#1151,0.5);
#1151 = AXIS2_PLACEMENT_3D('',#1152,#1153,#1154);
#1152 = CARTESIAN_POINT('',(6.708757210636,8.757210636E-03,0.));
#1153 = DIRECTION('',(0.,0.,1.));
#1154 = DIRECTION('',(2.22044604925E-16,1.,0.));
#1155 = ADVANCED_FACE('',(#1156),#1168,.T.);
#1156 = FACE_BOUND('',#1157,.T.);
#1157 = EDGE_LOOP('',(#1158,#1159,#1160,#1161));
#1158 = ORIENTED_EDGE('',*,*,#604,.F.);
#1159 = ORIENTED_EDGE('',*,*,#1066,.T.);
#1160 = ORIENTED_EDGE('',*,*,#621,.T.);
#1161 = ORIENTED_EDGE('',*,*,#1162,.T.);
#1162 = EDGE_CURVE('',#613,#605,#1163,.T.);
#1163 = CIRCLE('',#1164,0.5);
#1164 = AXIS2_PLACEMENT_3D('',#1165,#1166,#1167);
#1165 = CARTESIAN_POINT('',(-8.757210636E-03,8.757210636E-03,-7.5));
#1166 = DIRECTION('',(0.,0.,1.));
#1167 = DIRECTION('',(-2.22044604925E-16,-1.,0.));
#1168 = CYLINDRICAL_SURFACE('',#1169,0.5);
#1169 = AXIS2_PLACEMENT_3D('',#1170,#1171,#1172);
#1170 = CARTESIAN_POINT('',(-8.757210636E-03,8.757210636E-03,0.));
#1171 = DIRECTION('',(0.,0.,-1.));
#1172 = DIRECTION('',(-2.22044604925E-16,-1.,-0.));
#1173 = ADVANCED_FACE('',(#1174),#1186,.T.);
#1174 = FACE_BOUND('',#1175,.T.);
#1175 = EDGE_LOOP('',(#1176,#1177,#1184,#1185));
#1176 = ORIENTED_EDGE('',*,*,#646,.F.);
#1177 = ORIENTED_EDGE('',*,*,#1178,.T.);
#1178 = EDGE_CURVE('',#638,#636,#1179,.T.);
#1179 = CIRCLE('',#1180,0.5);
#1180 = AXIS2_PLACEMENT_3D('',#1181,#1182,#1183);
#1181 = CARTESIAN_POINT('',(6.708757210636,-6.708757210636,-7.5));
#1182 = DIRECTION('',(0.,-0.,1.));
#1183 = DIRECTION('',(2.22044604925E-16,1.,0.));
#1184 = ORIENTED_EDGE('',*,*,#663,.T.);
#1185 = ORIENTED_EDGE('',*,*,#1075,.T.);
#1186 = CYLINDRICAL_SURFACE('',#1187,0.5);
#1187 = AXIS2_PLACEMENT_3D('',#1188,#1189,#1190);
#1188 = CARTESIAN_POINT('',(6.708757210636,-6.708757210636,0.));
#1189 = DIRECTION('',(0.,0.,1.));
#1190 = DIRECTION('',(2.22044604925E-16,1.,0.));
#1191 = ADVANCED_FACE('',(#1192),#1204,.T.);
#1192 = FACE_BOUND('',#1193,.T.);
#1193 = EDGE_LOOP('',(#1194,#1195,#1196,#1197));
#1194 = ORIENTED_EDGE('',*,*,#688,.F.);
#1195 = ORIENTED_EDGE('',*,*,#1086,.T.);
#1196 = ORIENTED_EDGE('',*,*,#705,.T.);
#1197 = ORIENTED_EDGE('',*,*,#1198,.T.);
#1198 = EDGE_CURVE('',#697,#689,#1199,.T.);
#1199 = CIRCLE('',#1200,0.5);
#1200 = AXIS2_PLACEMENT_3D('',#1201,#1202,#1203);
#1201 = CARTESIAN_POINT('',(-8.757210636E-03,-6.708757210636,-7.5));
#1202 = DIRECTION('',(0.,0.,1.));
#1203 = DIRECTION('',(-2.22044604925E-16,-1.,0.));
#1204 = CYLINDRICAL_SURFACE('',#1205,0.5);
#1205 = AXIS2_PLACEMENT_3D('',#1206,#1207,#1208);
#1206 = CARTESIAN_POINT('',(-8.757210636E-03,-6.708757210636,0.));
#1207 = DIRECTION('',(0.,0.,-1.));
#1208 = DIRECTION('',(-2.22044604925E-16,-1.,-0.));
#1209 = ADVANCED_FACE('',(#1210),#1214,.T.);
#1210 = FACE_BOUND('',#1211,.T.);
#1211 = EDGE_LOOP('',(#1212,#1213));
#1212 = ORIENTED_EDGE('',*,*,#467,.F.);
#1213 = ORIENTED_EDGE('',*,*,#1106,.F.);
#1214 = PLANE('',#1215);
#1215 = AXIS2_PLACEMENT_3D('',#1216,#1217,#1218);
#1216 = CARTESIAN_POINT('',(8.1,-3.35,-7.5));
#1217 = DIRECTION('',(0.,0.,-1.));
#1218 = DIRECTION('',(-2.22044604925E-16,-1.,-0.));
#1219 = ADVANCED_FACE('',(#1220),#1224,.F.);
#1220 = FACE_BOUND('',#1221,.T.);
#1221 = EDGE_LOOP('',(#1222,#1223));
#1222 = ORIENTED_EDGE('',*,*,#1126,.F.);
#1223 = ORIENTED_EDGE('',*,*,#528,.F.);
#1224 = PLANE('',#1225);
#1225 = AXIS2_PLACEMENT_3D('',#1226,#1227,#1228);
#1226 = CARTESIAN_POINT('',(-1.4,-3.35,-7.5));
#1227 = DIRECTION('',(0.,0.,1.));
#1228 = DIRECTION('',(2.22044604925E-16,1.,0.));
#1229 = ADVANCED_FACE('',(#1230),#1234,.T.);
#1230 = FACE_BOUND('',#1231,.T.);
#1231 = EDGE_LOOP('',(#1232,#1233));
#1232 = ORIENTED_EDGE('',*,*,#551,.F.);
#1233 = ORIENTED_EDGE('',*,*,#1142,.F.);
#1234 = PLANE('',#1235);
#1235 = AXIS2_PLACEMENT_3D('',#1236,#1237,#1238);
#1236 = CARTESIAN_POINT('',(6.708757210636,8.757210636E-03,-7.5));
#1237 = DIRECTION('',(0.,0.,-1.));
#1238 = DIRECTION('',(-2.22044604925E-16,-1.,-0.));
#1239 = ADVANCED_FACE('',(#1240),#1244,.F.);
#1240 = FACE_BOUND('',#1241,.T.);
#1241 = EDGE_LOOP('',(#1242,#1243));
#1242 = ORIENTED_EDGE('',*,*,#1162,.F.);
#1243 = ORIENTED_EDGE('',*,*,#612,.F.);
#1244 = PLANE('',#1245);
#1245 = AXIS2_PLACEMENT_3D('',#1246,#1247,#1248);
#1246 = CARTESIAN_POINT('',(-8.757210636E-03,8.757210636E-03,-7.5));
#1247 = DIRECTION('',(0.,0.,1.));
#1248 = DIRECTION('',(2.22044604925E-16,1.,0.));
#1249 = ADVANCED_FACE('',(#1250),#1254,.T.);
#1250 = FACE_BOUND('',#1251,.T.);
#1251 = EDGE_LOOP('',(#1252,#1253));
#1252 = ORIENTED_EDGE('',*,*,#635,.F.);
#1253 = ORIENTED_EDGE('',*,*,#1178,.F.);
#1254 = PLANE('',#1255);
#1255 = AXIS2_PLACEMENT_3D('',#1256,#1257,#1258);
#1256 = CARTESIAN_POINT('',(6.708757210636,-6.708757210636,-7.5));
#1257 = DIRECTION('',(0.,0.,-1.));
#1258 = DIRECTION('',(-2.22044604925E-16,-1.,-0.));
#1259 = ADVANCED_FACE('',(#1260),#1264,.F.);
#1260 = FACE_BOUND('',#1261,.T.);
#1261 = EDGE_LOOP('',(#1262,#1263));
#1262 = ORIENTED_EDGE('',*,*,#1198,.F.);
#1263 = ORIENTED_EDGE('',*,*,#696,.F.);
#1264 = PLANE('',#1265);
#1265 = AXIS2_PLACEMENT_3D('',#1266,#1267,#1268);
#1266 = CARTESIAN_POINT('',(-8.757210636E-03,-6.708757210636,-7.5));
#1267 = DIRECTION('',(0.,0.,1.));
#1268 = DIRECTION('',(2.22044604925E-16,1.,0.));
#1269 = ( GEOMETRIC_REPRESENTATION_CONTEXT(3) 
GLOBAL_UNCERTAINTY_ASSIGNED_CONTEXT((#1273)) 
GLOBAL_UNIT_ASSIGNED_CONTEXT((#1270,#1271,#1272)) REPRESENTATION_CONTEXT
('Context #1','3D Context with UNIT and UNCERTAINTY') );
#1270 = ( LENGTH_UNIT() NAMED_UNIT(*) SI_UNIT(.MILLI.,.METRE.) );
#1271 = ( NAMED_UNIT(*) PLANE_ANGLE_UNIT() SI_UNIT($,.RADIAN.) );
#1272 = ( NAMED_UNIT(*) SI_UNIT($,.STERADIAN.) SOLID_ANGLE_UNIT() );
#1273 = UNCERTAINTY_MEASURE_WITH_UNIT(LENGTH_MEASURE(5.E-06),#1270,
  'distance_accuracy_value','confusion accuracy');
#1274 = PRODUCT_RELATED_PRODUCT_CATEGORY('part',$,(#7));
#1275 = MECHANICAL_DESIGN_GEOMETRIC_PRESENTATION_REPRESENTATION('',(
    #1276,#1284,#1292,#1299,#1306,#1313,#1320,#1327,#1335,#1343,#1350,
    #1357,#1364,#1371,#1378,#1385,#1392,#1399,#1406,#1413,#1420,#1427,
    #1434,#1441,#1448,#1455,#1463,#1470,#1477,#1484,#1491,#1498,#1505,
    #1512,#1519,#1526,#1533,#1540),#1269);
#1276 = STYLED_ITEM('color',(#1277),#17);
#1277 = PRESENTATION_STYLE_ASSIGNMENT((#1278));
#1278 = SURFACE_STYLE_USAGE(.BOTH.,#1279);
#1279 = SURFACE_SIDE_STYLE('',(#1280));
#1280 = SURFACE_STYLE_FILL_AREA(#1281);
#1281 = FILL_AREA_STYLE('',(#1282));
#1282 = FILL_AREA_STYLE_COLOUR('',#1283);
#1283 = COLOUR_RGB('',0.372321993113,0.371574014425,0.373172998428);
#1284 = STYLED_ITEM('color',(#1285),#73);
#1285 = PRESENTATION_STYLE_ASSIGNMENT((#1286));
#1286 = SURFACE_STYLE_USAGE(.BOTH.,#1287);
#1287 = SURFACE_SIDE_STYLE('',(#1288));
#1288 = SURFACE_STYLE_FILL_AREA(#1289);
#1289 = FILL_AREA_STYLE('',(#1290));
#1290 = FILL_AREA_STYLE_COLOUR('',#1291);
#1291 = COLOUR_RGB('',0.507539987564,0.507539987564,0.507539987564);
#1292 = STYLED_ITEM('color',(#1293),#215);
#1293 = PRESENTATION_STYLE_ASSIGNMENT((#1294));
#1294 = SURFACE_STYLE_USAGE(.BOTH.,#1295);
#1295 = SURFACE_SIDE_STYLE('',(#1296));
#1296 = SURFACE_STYLE_FILL_AREA(#1297);
#1297 = FILL_AREA_STYLE('',(#1298));
#1298 = FILL_AREA_STYLE_COLOUR('',#1291);
#1299 = STYLED_ITEM('color',(#1300),#271);
#1300 = PRESENTATION_STYLE_ASSIGNMENT((#1301));
#1301 = SURFACE_STYLE_USAGE(.BOTH.,#1302);
#1302 = SURFACE_SIDE_STYLE('',(#1303));
#1303 = SURFACE_STYLE_FILL_AREA(#1304);
#1304 = FILL_AREA_STYLE('',(#1305));
#1305 = FILL_AREA_STYLE_COLOUR('',#1291);
#1306 = STYLED_ITEM('color',(#1307),#327);
#1307 = PRESENTATION_STYLE_ASSIGNMENT((#1308));
#1308 = SURFACE_STYLE_USAGE(.BOTH.,#1309);
#1309 = SURFACE_SIDE_STYLE('',(#1310));
#1310 = SURFACE_STYLE_FILL_AREA(#1311);
#1311 = FILL_AREA_STYLE('',(#1312));
#1312 = FILL_AREA_STYLE_COLOUR('',#1283);
#1313 = STYLED_ITEM('color',(#1314),#365);
#1314 = PRESENTATION_STYLE_ASSIGNMENT((#1315));
#1315 = SURFACE_STYLE_USAGE(.BOTH.,#1316);
#1316 = SURFACE_SIDE_STYLE('',(#1317));
#1317 = SURFACE_STYLE_FILL_AREA(#1318);
#1318 = FILL_AREA_STYLE('',(#1319));
#1319 = FILL_AREA_STYLE_COLOUR('',#1283);
#1320 = STYLED_ITEM('color',(#1321),#387);
#1321 = PRESENTATION_STYLE_ASSIGNMENT((#1322));
#1322 = SURFACE_STYLE_USAGE(.BOTH.,#1323);
#1323 = SURFACE_SIDE_STYLE('',(#1324));
#1324 = SURFACE_STYLE_FILL_AREA(#1325);
#1325 = FILL_AREA_STYLE('',(#1326));
#1326 = FILL_AREA_STYLE_COLOUR('',#1291);
#1327 = STYLED_ITEM('color',(#1328),#421);
#1328 = PRESENTATION_STYLE_ASSIGNMENT((#1329));
#1329 = SURFACE_STYLE_USAGE(.BOTH.,#1330);
#1330 = SURFACE_SIDE_STYLE('',(#1331));
#1331 = SURFACE_STYLE_FILL_AREA(#1332);
#1332 = FILL_AREA_STYLE('',(#1333));
#1333 = FILL_AREA_STYLE_COLOUR('',#1334);
#1334 = COLOUR_RGB('',0.298000007868,0.298000007868,0.298000007868);
#1335 = STYLED_ITEM('color',(#1336),#463);
#1336 = PRESENTATION_STYLE_ASSIGNMENT((#1337));
#1337 = SURFACE_STYLE_USAGE(.BOTH.,#1338);
#1338 = SURFACE_SIDE_STYLE('',(#1339));
#1339 = SURFACE_STYLE_FILL_AREA(#1340);
#1340 = FILL_AREA_STYLE('',(#1341));
#1341 = FILL_AREA_STYLE_COLOUR('',#1342);
#1342 = COLOUR_RGB('',0.824000000954,0.819999992847,0.78100001812);
#1343 = STYLED_ITEM('color',(#1344),#505);
#1344 = PRESENTATION_STYLE_ASSIGNMENT((#1345));
#1345 = SURFACE_STYLE_USAGE(.BOTH.,#1346);
#1346 = SURFACE_SIDE_STYLE('',(#1347));
#1347 = SURFACE_STYLE_FILL_AREA(#1348);
#1348 = FILL_AREA_STYLE('',(#1349));
#1349 = FILL_AREA_STYLE_COLOUR('',#1342);
#1350 = STYLED_ITEM('color',(#1351),#547);
#1351 = PRESENTATION_STYLE_ASSIGNMENT((#1352));
#1352 = SURFACE_STYLE_USAGE(.BOTH.,#1353);
#1353 = SURFACE_SIDE_STYLE('',(#1354));
#1354 = SURFACE_STYLE_FILL_AREA(#1355);
#1355 = FILL_AREA_STYLE('',(#1356));
#1356 = FILL_AREA_STYLE_COLOUR('',#1342);
#1357 = STYLED_ITEM('color',(#1358),#589);
#1358 = PRESENTATION_STYLE_ASSIGNMENT((#1359));
#1359 = SURFACE_STYLE_USAGE(.BOTH.,#1360);
#1360 = SURFACE_SIDE_STYLE('',(#1361));
#1361 = SURFACE_STYLE_FILL_AREA(#1362);
#1362 = FILL_AREA_STYLE('',(#1363));
#1363 = FILL_AREA_STYLE_COLOUR('',#1342);
#1364 = STYLED_ITEM('color',(#1365),#631);
#1365 = PRESENTATION_STYLE_ASSIGNMENT((#1366));
#1366 = SURFACE_STYLE_USAGE(.BOTH.,#1367);
#1367 = SURFACE_SIDE_STYLE('',(#1368));
#1368 = SURFACE_STYLE_FILL_AREA(#1369);
#1369 = FILL_AREA_STYLE('',(#1370));
#1370 = FILL_AREA_STYLE_COLOUR('',#1342);
#1371 = STYLED_ITEM('color',(#1372),#673);
#1372 = PRESENTATION_STYLE_ASSIGNMENT((#1373));
#1373 = SURFACE_STYLE_USAGE(.BOTH.,#1374);
#1374 = SURFACE_SIDE_STYLE('',(#1375));
#1375 = SURFACE_STYLE_FILL_AREA(#1376);
#1376 = FILL_AREA_STYLE('',(#1377));
#1377 = FILL_AREA_STYLE_COLOUR('',#1342);
#1378 = STYLED_ITEM('color',(#1379),#715);
#1379 = PRESENTATION_STYLE_ASSIGNMENT((#1380));
#1380 = SURFACE_STYLE_USAGE(.BOTH.,#1381);
#1381 = SURFACE_SIDE_STYLE('',(#1382));
#1382 = SURFACE_STYLE_FILL_AREA(#1383);
#1383 = FILL_AREA_STYLE('',(#1384));
#1384 = FILL_AREA_STYLE_COLOUR('',#1283);
#1385 = STYLED_ITEM('color',(#1386),#733);
#1386 = PRESENTATION_STYLE_ASSIGNMENT((#1387));
#1387 = SURFACE_STYLE_USAGE(.BOTH.,#1388);
#1388 = SURFACE_SIDE_STYLE('',(#1389));
#1389 = SURFACE_STYLE_FILL_AREA(#1390);
#1390 = FILL_AREA_STYLE('',(#1391));
#1391 = FILL_AREA_STYLE_COLOUR('',#1283);
#1392 = STYLED_ITEM('color',(#1393),#763);
#1393 = PRESENTATION_STYLE_ASSIGNMENT((#1394));
#1394 = SURFACE_STYLE_USAGE(.BOTH.,#1395);
#1395 = SURFACE_SIDE_STYLE('',(#1396));
#1396 = SURFACE_STYLE_FILL_AREA(#1397);
#1397 = FILL_AREA_STYLE('',(#1398));
#1398 = FILL_AREA_STYLE_COLOUR('',#1283);
#1399 = STYLED_ITEM('color',(#1400),#781);
#1400 = PRESENTATION_STYLE_ASSIGNMENT((#1401));
#1401 = SURFACE_STYLE_USAGE(.BOTH.,#1402);
#1402 = SURFACE_SIDE_STYLE('',(#1403));
#1403 = SURFACE_STYLE_FILL_AREA(#1404);
#1404 = FILL_AREA_STYLE('',(#1405));
#1405 = FILL_AREA_STYLE_COLOUR('',#1283);
#1406 = STYLED_ITEM('color',(#1407),#791);
#1407 = PRESENTATION_STYLE_ASSIGNMENT((#1408));
#1408 = SURFACE_STYLE_USAGE(.BOTH.,#1409);
#1409 = SURFACE_SIDE_STYLE('',(#1410));
#1410 = SURFACE_STYLE_FILL_AREA(#1411);
#1411 = FILL_AREA_STYLE('',(#1412));
#1412 = FILL_AREA_STYLE_COLOUR('',#1291);
#1413 = STYLED_ITEM('color',(#1414),#907);
#1414 = PRESENTATION_STYLE_ASSIGNMENT((#1415));
#1415 = SURFACE_STYLE_USAGE(.BOTH.,#1416);
#1416 = SURFACE_SIDE_STYLE('',(#1417));
#1417 = SURFACE_STYLE_FILL_AREA(#1418);
#1418 = FILL_AREA_STYLE('',(#1419));
#1419 = FILL_AREA_STYLE_COLOUR('',#1291);
#1420 = STYLED_ITEM('color',(#1421),#927);
#1421 = PRESENTATION_STYLE_ASSIGNMENT((#1422));
#1422 = SURFACE_STYLE_USAGE(.BOTH.,#1423);
#1423 = SURFACE_SIDE_STYLE('',(#1424));
#1424 = SURFACE_STYLE_FILL_AREA(#1425);
#1425 = FILL_AREA_STYLE('',(#1426));
#1426 = FILL_AREA_STYLE_COLOUR('',#1291);
#1427 = STYLED_ITEM('color',(#1428),#951);
#1428 = PRESENTATION_STYLE_ASSIGNMENT((#1429));
#1429 = SURFACE_STYLE_USAGE(.BOTH.,#1430);
#1430 = SURFACE_SIDE_STYLE('',(#1431));
#1431 = SURFACE_STYLE_FILL_AREA(#1432);
#1432 = FILL_AREA_STYLE('',(#1433));
#1433 = FILL_AREA_STYLE_COLOUR('',#1291);
#1434 = STYLED_ITEM('color',(#1435),#963);
#1435 = PRESENTATION_STYLE_ASSIGNMENT((#1436));
#1436 = SURFACE_STYLE_USAGE(.BOTH.,#1437);
#1437 = SURFACE_SIDE_STYLE('',(#1438));
#1438 = SURFACE_STYLE_FILL_AREA(#1439);
#1439 = FILL_AREA_STYLE('',(#1440));
#1440 = FILL_AREA_STYLE_COLOUR('',#1291);
#1441 = STYLED_ITEM('color',(#1442),#993);
#1442 = PRESENTATION_STYLE_ASSIGNMENT((#1443));
#1443 = SURFACE_STYLE_USAGE(.BOTH.,#1444);
#1444 = SURFACE_SIDE_STYLE('',(#1445));
#1445 = SURFACE_STYLE_FILL_AREA(#1446);
#1446 = FILL_AREA_STYLE('',(#1447));
#1447 = FILL_AREA_STYLE_COLOUR('',#1291);
#1448 = STYLED_ITEM('color',(#1449),#1013);
#1449 = PRESENTATION_STYLE_ASSIGNMENT((#1450));
#1450 = SURFACE_STYLE_USAGE(.BOTH.,#1451);
#1451 = SURFACE_SIDE_STYLE('',(#1452));
#1452 = SURFACE_STYLE_FILL_AREA(#1453);
#1453 = FILL_AREA_STYLE('',(#1454));
#1454 = FILL_AREA_STYLE_COLOUR('',#1334);
#1455 = STYLED_ITEM('color',(#1456),#1031);
#1456 = PRESENTATION_STYLE_ASSIGNMENT((#1457));
#1457 = SURFACE_STYLE_USAGE(.BOTH.,#1458);
#1458 = SURFACE_SIDE_STYLE('',(#1459));
#1459 = SURFACE_STYLE_FILL_AREA(#1460);
#1460 = FILL_AREA_STYLE('',(#1461));
#1461 = FILL_AREA_STYLE_COLOUR('',#1462);
#1462 = COLOUR_RGB('',0.148000001907,0.144999995828,0.144999995828);
#1463 = STYLED_ITEM('color',(#1464),#1101);
#1464 = PRESENTATION_STYLE_ASSIGNMENT((#1465));
#1465 = SURFACE_STYLE_USAGE(.BOTH.,#1466);
#1466 = SURFACE_SIDE_STYLE('',(#1467));
#1467 = SURFACE_STYLE_FILL_AREA(#1468);
#1468 = FILL_AREA_STYLE('',(#1469));
#1469 = FILL_AREA_STYLE_COLOUR('',#1342);
#1470 = STYLED_ITEM('color',(#1471),#1119);
#1471 = PRESENTATION_STYLE_ASSIGNMENT((#1472));
#1472 = SURFACE_STYLE_USAGE(.BOTH.,#1473);
#1473 = SURFACE_SIDE_STYLE('',(#1474));
#1474 = SURFACE_STYLE_FILL_AREA(#1475);
#1475 = FILL_AREA_STYLE('',(#1476));
#1476 = FILL_AREA_STYLE_COLOUR('',#1342);
#1477 = STYLED_ITEM('color',(#1478),#1137);
#1478 = PRESENTATION_STYLE_ASSIGNMENT((#1479));
#1479 = SURFACE_STYLE_USAGE(.BOTH.,#1480);
#1480 = SURFACE_SIDE_STYLE('',(#1481));
#1481 = SURFACE_STYLE_FILL_AREA(#1482);
#1482 = FILL_AREA_STYLE('',(#1483));
#1483 = FILL_AREA_STYLE_COLOUR('',#1342);
#1484 = STYLED_ITEM('color',(#1485),#1155);
#1485 = PRESENTATION_STYLE_ASSIGNMENT((#1486));
#1486 = SURFACE_STYLE_USAGE(.BOTH.,#1487);
#1487 = SURFACE_SIDE_STYLE('',(#1488));
#1488 = SURFACE_STYLE_FILL_AREA(#1489);
#1489 = FILL_AREA_STYLE('',(#1490));
#1490 = FILL_AREA_STYLE_COLOUR('',#1342);
#1491 = STYLED_ITEM('color',(#1492),#1173);
#1492 = PRESENTATION_STYLE_ASSIGNMENT((#1493));
#1493 = SURFACE_STYLE_USAGE(.BOTH.,#1494);
#1494 = SURFACE_SIDE_STYLE('',(#1495));
#1495 = SURFACE_STYLE_FILL_AREA(#1496);
#1496 = FILL_AREA_STYLE('',(#1497));
#1497 = FILL_AREA_STYLE_COLOUR('',#1342);
#1498 = STYLED_ITEM('color',(#1499),#1191);
#1499 = PRESENTATION_STYLE_ASSIGNMENT((#1500));
#1500 = SURFACE_STYLE_USAGE(.BOTH.,#1501);
#1501 = SURFACE_SIDE_STYLE('',(#1502));
#1502 = SURFACE_STYLE_FILL_AREA(#1503);
#1503 = FILL_AREA_STYLE('',(#1504));
#1504 = FILL_AREA_STYLE_COLOUR('',#1342);
#1505 = STYLED_ITEM('color',(#1506),#1209);
#1506 = PRESENTATION_STYLE_ASSIGNMENT((#1507));
#1507 = SURFACE_STYLE_USAGE(.BOTH.,#1508);
#1508 = SURFACE_SIDE_STYLE('',(#1509));
#1509 = SURFACE_STYLE_FILL_AREA(#1510);
#1510 = FILL_AREA_STYLE('',(#1511));
#1511 = FILL_AREA_STYLE_COLOUR('',#1342);
#1512 = STYLED_ITEM('color',(#1513),#1219);
#1513 = PRESENTATION_STYLE_ASSIGNMENT((#1514));
#1514 = SURFACE_STYLE_USAGE(.BOTH.,#1515);
#1515 = SURFACE_SIDE_STYLE('',(#1516));
#1516 = SURFACE_STYLE_FILL_AREA(#1517);
#1517 = FILL_AREA_STYLE('',(#1518));
#1518 = FILL_AREA_STYLE_COLOUR('',#1342);
#1519 = STYLED_ITEM('color',(#1520),#1229);
#1520 = PRESENTATION_STYLE_ASSIGNMENT((#1521));
#1521 = SURFACE_STYLE_USAGE(.BOTH.,#1522);
#1522 = SURFACE_SIDE_STYLE('',(#1523));
#1523 = SURFACE_STYLE_FILL_AREA(#1524);
#1524 = FILL_AREA_STYLE('',(#1525));
#1525 = FILL_AREA_STYLE_COLOUR('',#1342);
#1526 = STYLED_ITEM('color',(#1527),#1239);
#1527 = PRESENTATION_STYLE_ASSIGNMENT((#1528));
#1528 = SURFACE_STYLE_USAGE(.BOTH.,#1529);
#1529 = SURFACE_SIDE_STYLE('',(#1530));
#1530 = SURFACE_STYLE_FILL_AREA(#1531);
#1531 = FILL_AREA_STYLE('',(#1532));
#1532 = FILL_AREA_STYLE_COLOUR('',#1342);
#1533 = STYLED_ITEM('color',(#1534),#1249);
#1534 = PRESENTATION_STYLE_ASSIGNMENT((#1535));
#1535 = SURFACE_STYLE_USAGE(.BOTH.,#1536);
#1536 = SURFACE_SIDE_STYLE('',(#1537));
#1537 = SURFACE_STYLE_FILL_AREA(#1538);
#1538 = FILL_AREA_STYLE('',(#1539));
#1539 = FILL_AREA_STYLE_COLOUR('',#1342);
#1540 = STYLED_ITEM('color',(#1541),#1259);
#1541 = PRESENTATION_STYLE_ASSIGNMENT((#1542));
#1542 = SURFACE_STYLE_USAGE(.BOTH.,#1543);
#1543 = SURFACE_SIDE_STYLE('',(#1544));
#1544 = SURFACE_STYLE_FILL_AREA(#1545);
#1545 = FILL_AREA_STYLE('',(#1546));
#1546 = FILL_AREA_STYLE_COLOUR('',#1342);
ENDSEC;
END-ISO-10303-21;
